Place,Name,Division,BodyweightKg,Squat1Kg,Squat2Kg,Squat3Kg,Best3SquatKg,Squat4Kg,Bench1Kg,Bench2Kg,Bench3Kg,Best3BenchKg,Bench4Kg,Deadlift1Kg,Deadlift2Kg,Deadlift3Kg,Best3DeadliftKg,Deadlift4Kg,TotalKg,WeightClassKg,Sex,CyrillicName,BirthYear,Tested,Equipment,Event
1,Viktoriya Konovalenko,T2,55.9,65,75,85,85,,55,57.5,-60,57.5,,115,125,130,130,,272.5,56,F,Вікторія Коноваленко,1994,Yes,Wraps,SBD
1,Vadim Karaban,T1,51.2,75,80,85,85,,40,45,50,50,,-115,115,127.5,127.5,-130,262.5,52,M,Вадим Карабан,1996,Yes,Wraps,SBD
1,Oleksyy Gorokholynskyy,T1,55.9,80,85,90,90,,50,60,-65,60,,100,110,120,120,,270,56,M,Олексій Горохолинський,1995,Yes,Wraps,SBD
1,Oleksandr Artyukh,T2,59.8,80,90,-100,90,,60,65,-70,65,,150,161,-170,161,,316,60,M,Олександр Артюх,1993,Yes,Wraps,SBD
DQ,Ivan Belokon',T2,59,-120,-120,-120,,,,,,,,,,,,,,60,M,Іван Белоконь,1994,Yes,Wraps,SBD
1,Andrey Voznyuk,T3,58.6,-130,-130,130,130,,80,90,-95,90,,-160,160,170,170,,390,60,M,Андрій Вознюк,1993,Yes,Wraps,SBD
2,Igor Masych,T3,59.3,100,110,115,115,,90,100,-105,100,,140,155,165,165,,380,60,M,Ігорь Масич,1992,Yes,Wraps,SBD
1,Mykola Bilozerov,O,59.9,140,145,150,150,,80,85,-90,85,,155,165,-170,165,,400,60,M,Николай Белозеров,1982,Yes,Wraps,SBD
2,Andrey Voznyuk,O,58.6,-130,-130,130,130,,80,90,-95,90,,-160,160,170,170,,390,60,M,Андрій Вознюк,1993,Yes,Wraps,SBD
3,Timur Tsaturov,O,59.1,90,-100,100,100,,70,80,-82.5,80,,120,140,-160,140,,320,60,M,Тімур Цатуров,1984,Yes,Wraps,SBD
1,Valentyn Bondar,T1,66.1,120,130,135,135,,75,82.5,-85,82.5,,150,160,165,165,,382.5,67.5,M,Валентин Бондар,1996,Yes,Wraps,SBD
1,Yevgen Lyaskovskyy,T2,67.4,-125,130,135,135,,100,107.5,110,110,,145,155,162.5,162.5,,407.5,67.5,M,Євген Лясковський,1993,Yes,Wraps,SBD
2,Dmytro Salmanov,T2,65.2,100,110,115,115,,-75,75,-80,75,,135,145,-152.5,145,,335,67.5,M,Дмитро Салманов,1993,Yes,Wraps,SBD
1,Vladyslav Kupriyanenko,T3,64.9,135,-140,145,145,,95,100,105,105,,-185,185,197.5,197.5,,447.5,67.5,M,Владислав Купріяненко,1991,Yes,Wraps,SBD
2,Andriy Makarentsev,T3,64.4,135,140,145,145,,95,100,105,105,,180,190,195,195,,445,67.5,M,Андрій Макаренцев,1992,Yes,Wraps,SBD
3,Stanislav Bazil,T3,65.5,-90,-90,90,90,,85,-90,-90,85,,135,142.5,147.5,147.5,,322.5,67.5,M,Станіслав Базіль,1992,Yes,Wraps,SBD
4,Anton Chuprinskyy,T3,67.4,-100,100,-115,100,,70,-77.5,,70,,110,120,135,135,,305,67.5,M,Антон Чупринський,1992,Yes,Wraps,SBD
1,Igor Pavlov,J,67.4,145,155,162.5,162.5,,120,127.5,132.5,132.5,,195,205,210,210,,505,67.5,M,Ігорь Павлов,1987,Yes,Wraps,SBD
2,Andriy Maslyak,J,66.9,150,160,170,170,-172.5,115,120,,120,,165,172.5,-180,172.5,,462.5,67.5,M,Андрій Масляк,1990,Yes,Wraps,SBD
3,Ivan Sulima,J,66.5,-120,-120,120,120,,105,-110,-110,105,,150,160,170,170,,395,67.5,M,Іван Сулима,1988,Yes,Wraps,SBD
4,Marko Terentyev,J,66.2,110,115,-120,115,,-82.5,82.5,87.5,87.5,,130,135,140,140,,342.5,67.5,M,Марко Терентьєв,1988,Yes,Wraps,SBD
1,Ruslan Ryzhikh,T1,74.9,162.5,170,175,175,-182.5,107.5,112.5,120,120,,165,182.5,195,195,,490,75,M,Руслан Рыжих,1995,Yes,Wraps,SBD
2,Dmytro Khanov,T1,72.4,140,150,160,160,,82.5,90,92.5,92.5,,165,170,180,180,,432.5,75,M,Дмитро Ханов,1995,Yes,Wraps,SBD
3,Yevgen Toma,T1,70.7,115,125,-130,125,,75,-80,-80,75,,135,145,152.5,152.5,,352.5,75,M,Євген Тома,1996,Yes,Wraps,SBD
4,Volodimir Nechay,T1,69.6,105,115,122.5,122.5,,65,70,75,75,,130,140,147.5,147.5,,345,75,M,Володимир Нечай,1995,Yes,Wraps,SBD
2,Kyrylo Rogozhin,T2,74.3,140,150,152.5,152.5,,95,102.5,107.5,107.5,,170,180,-187.5,180,,440,75,M,Кирило Рогожин,1994,Yes,Wraps,SBD
1,Oleksandr Dazhdamirov,T3,74.2,190,200,210,210,,110,120,125,125,,200,220,230,230,,565,75,M,Олександр Даждамиров,1992,Yes,Wraps,SBD
2,Bogdan Kuzmenko,T3,74,-145,150,-155,150,,130,-135,-135,130,,180,185,190,190,,470,75,M,Богдан Кузьменко,1991,Yes,Wraps,SBD
3,Aleksandr Miroshnichenko,T3,69.2,150,160,-170,160,,105,112.5,-115,112.5,,170,180,190,190,,462.5,75,M,Олександр Мирошніченко,1992,Yes,Wraps,SBD
1,Kostyantyn Bankov,J,74.4,150,160,175,175,,100,110,115,115,,190,-210,-210,190,,480,75,M,Костянтин Банков,1991,Yes,Wraps,SBD
1,Faal Amin,O,74.3,-180,180,190,190,,150,160,165,165,,190,-200,-200,190,,545,75,M,Фаал Амін,1980,Yes,Wraps,SBD
2,Sergey Martynenko,O,75,175,180,185,185,,125,135,-140,135,,210,-227.5,-227.5,210,,530,75,M,Сергій Мартиненко,1986,Yes,Wraps,SBD
1,Andrey Koloda,T1,76.6,135,-142.5,142.5,142.5,,100,105,107.5,107.5,,175,185,195,195,-197.5,445,82.5,M,Андрій Колода,1996,Yes,Wraps,SBD
1,Aleksandr Novosad,T3,77.3,170,-180,-180,170,,92.5,-97.5,97.5,97.5,,210,227.5,,227.5,,495,82.5,M,Олександр Новосад,1992,Yes,Wraps,SBD
DQ,Oleksandr Dvornichenko,T3,80.1,150,-160,-160,150,,-122.5,-125,-125,,,,,,,,,82.5,M,Олександр Дворніченко,1992,Yes,Wraps,SBD
1,Sergey Lasitsin,J,81.6,180,-190,-190,180,,130,135,-140,135,,210,-220,,210,,525,82.5,M,Сергій Ласіцин,1989,Yes,Wraps,SBD
1,Denis Kovalenko,O,80.2,175,-182.5,182.5,182.5,,115,120,-125,120,,200,215,,215,,517.5,82.5,M,Денис Коваленко,1982,Yes,Wraps,SBD
2,Oleksandr Sara,O,81.4,-110,120,130,130,,100,110,115,115,,150,170,180,180,,425,82.5,M,Олександр Сара,1983,Yes,Wraps,SBD
3,Maxym Trokhymchuk,O,82.4,140,150,-155,150,,95,100,-105,100,,140,150,-160,150,,400,82.5,M,Максим Трохимчук,1981,Yes,Wraps,SBD
DQ,Igor Seredyuk,O,81.8,-160,-160,-160,,,,,,,,,,,,,,82.5,M,Ігор Середюк,1984,Yes,Wraps,SBD
1,Viktor Shulyak,M2,80.3,160,170,180,180,,120,125,130,130,,190,200,210,210,,520,82.5,M,Віктор Шуляк,1965,Yes,Wraps,SBD
1,Aleksandr Asmolov,T2,82.6,105,110,115,115,,80,85,90,90,,140,150,,150,,355,90,M,Александр Асмолов,1994,Yes,Wraps,SBD
1,Maksim Tikhonchik,T3,89.6,160,-170,170,170,,120,125,-130,125,,210,220,,220,,515,90,M,Максим Тихончик,1991,Yes,Wraps,SBD
2,Oleksandr Zaytsev,T3,88.1,155,160,170,170,,115,120,-125,120,,190,205,-210,205,,495,90,M,Олександр Зайцев,1992,Yes,Wraps,SBD
3,Oleksandr Chalyy,T3,89.1,140,-160,-160,140,,120,132.5,-135,132.5,,160,175,190,190,,462.5,90,M,Олександр Чалий,1992,Yes,Wraps,SBD
1,Mykola Savchenko,J,86.7,205,215,220,220,,150,-160,160,160,,225,235,245,245,,625,90,M,Микола Савченко,1989,Yes,Wraps,SBD
3,Vitaliy Tsapyuk,J,90,160,-165,-165,160,,120,125,127.5,127.5,,180,-200,-200,180,,467.5,90,M,Віталій Цапюк,1988,Yes,Wraps,SBD
4,Sergiy Kovalev,J,90,145,-155,160,160,,117.5,122.5,127.5,127.5,,135,145,-155,145,,432.5,90,M,Сергій Ковальов,1988,Yes,Wraps,SBD
5,Volodymyr Chervonoshtan,J,90,145,-155,-155,145,,-95,100,-105,100,,150,160,170,170,,415,90,M,Володимир Червоноштан,1990,Yes,Wraps,SBD
1,Rinat Zaripov,O,89.5,220,232.5,241,241,,150,162.5,170,170,,250,-262.5,262.5,262.5,281,673.5,90,M,Рінат Заріпов,1970,Yes,Wraps,SBD
2,Boris Stashuk,O,89,230,-240,240,240,,175,180,-190,180,,250,-270,-270,250,,670,90,M,Борис Сташук,1985,Yes,Wraps,SBD
3,Yevgen Feofanov,O,86.4,210,220,227.5,227.5,,130,140,,140,,-240,245,250,250,,617.5,90,M,Євген Феофанов,1982,Yes,Wraps,SBD
4,Mykola Matviyenko,O,89.5,205,210,215,215,,155,160,-162.5,160,,225,235,240,240,,615,90,M,Микола Матвієнко,1984,Yes,Wraps,SBD
5,Volodymyr Samoylenko,O,88.3,200,205,210,210,,145,155,160,160,,220,-230,,220,,590,90,M,Володимир Самойленко,1976,Yes,Wraps,SBD
6,Timofiy Kravchenko,O,88,170,180,-190,180,,-135,135,-140,135,,200,220,235,235,,550,90,M,Тимофій Кравченко,1982,Yes,Wraps,SBD
1,Rinat Zaripov,M1,89.5,220,232.5,241,241,,150,162.5,170,170,,250,-262.5,262.5,262.5,281,673.5,90,M,Рінат Заріпов,1970,Yes,Wraps,SBD
1,Arkadiy Gilyan,M4,89.8,170,180,190,190,,-105,105,-110,105,,170,190,200,200,,495,90,M,Аркадій Гільян,1954,Yes,Wraps,SBD
1,Danilo Ryasniy,T3,94.8,-155,155,175,175,,155,165,-175,165,,180,210,-240,210,,550,100,M,Данило Рясний,1992,Yes,Wraps,SBD
1,Oleksandr Belyy,J,99.9,220,235,-255,235,,145,155,-162.5,155,,270,290,-295,290,,680,100,M,Олександр Бєлий,1990,Yes,Wraps,SBD
1,Mikhail Slepchenko,O,92.8,250,270,-285,270,,170,180,-185,180,,250,270,-280,270,,720,100,M,Михайло Слепченко,1977,Yes,Wraps,SBD
2,Volodymyr Ukhach,O,96.5,220,235,250,250,,165,175,182.5,182.5,,230,255,267.5,267.5,,700,100,M,Володимир Ухач,1960,Yes,Wraps,SBD
3,Yuriy Chernyavskyy,O,95.2,185,195,205,205,,145,155,165,165,,210,220,225,225,,595,100,M,Юрій Чернявський,1972,Yes,Wraps,SBD
DQ,Oleksiy Kuzmin,O,97,-210,-210,-210,,,,,,,,,,,,,,100,M,Олексій Кузьмін,1983,Yes,Wraps,SBD
1,Sergiy Kolesnik,M2,98.8,180,190,,190,,135,145,155,155,,200,215,,215,,560,100,M,Сергей Колесник,1963,Yes,Wraps,SBD
2,Yuriy Khanov,M2,97.8,140,-150,-150,140,,92.5,97.5,-102.5,97.5,,160,170,180,180,,417.5,100,M,Юрій Ханов,1962,Yes,Wraps,SBD
1,Volodymyr Ukhach,M3,96.5,220,235,250,250,,165,175,182.5,182.5,,230,255,267.5,267.5,,700,100,M,Володимир Ухач,1960,Yes,Wraps,SBD
1,Oleg Tarasov,O,127,292.5,-300,-300,292.5,,135,140,145,145,,270,-280,285,285,,722.5,140,M,Олег Тарасов,1972,Yes,Wraps,SBD
1,Vladyslav Fedorenko,T3,59.7,110,120,125,125,,75,82.5,-87.5,82.5,,135,145,-155,145,,352.5,60,M,Владислав Федоренко,1993,No,Wraps,SBD
1,Dmytro Belyaev,T3,65.6,70,-80,-85,70,,80,85,90,90,,95,-115,115,115,,275,67.5,M,Дмитро Беляєв,1993,No,Wraps,SBD
1,Sergiy Redka,J,65.6,175,185,-195,185,,137.5,145,150.5,150.5,,180,190,200,200,,535.5,67.5,M,Сергій Редька,1990,No,Wraps,SBD
1,Sergiy Redka,O,65.6,175,185,-195,185,,137.5,145,150.5,150.5,,180,190,200,200,,535.5,67.5,M,Сергій Редька,1990,No,Wraps,SBD
2,Volodymyr Kovalenko,O,65.9,145,150,152.5,152.5,,115,120,122.5,122.5,,175,180,185,185,,460,67.5,M,Володимир Коваленко,1986,No,Wraps,SBD
1,Artem Afanasyev,T3,72.4,170,-175,175,175,,125,130,132.5,132.5,,170,175,-180,175,,482.5,75,M,Артем Афанасьєв,1991,No,Wraps,SBD
2,Oleksandr Levchenko,T3,73.8,120,130,140,140,,100,107.5,-110,107.5,,150,165,175,175,,422.5,75,M,Олександр Левченко,1992,No,Wraps,SBD
1,Stanislav Marochko,O,70.7,180,195,202.5,202.5,,125,132.5,137.5,137.5,,200,212.5,220,220,,560,75,M,Станислав Марочко,1981,No,Wraps,SBD
2,Peter Kravtsov,O,73,180,-190,190,190,,110,115,120,120,,180,190,195,195,,505,75,M,,1946,No,Wraps,SBD
3,Mykola Mumrenko,O,74.1,140,150,-155,150,,105,110,-115,110,,150,160,180,180,,440,75,M,Микола Мумренко,1985,No,Wraps,SBD
DQ,Andriy Yarmola,O,74.4,-220,-220,-220,,,,,,,,,,,,,,75,M,Андрій Ярмола,1980,No,Wraps,SBD
1,Peter Kravtsov,M6,73,180,-190,190,190,,110,115,120,120,,180,190,195,195,,505,75,M,,1946,No,Wraps,SBD
1,Eduard Dolgov,J,81.8,215,220,227.5,227.5,,155,162.5,170,170,,240,247.5,252.5,252.5,,650,82.5,M,Едуард Долгов,1987,No,Wraps,SBD
2,Artur Dubinin,J,78.4,170,190,200,200,,130,140,145,145,,200,220,240,240,,585,82.5,M,Артур Дубінін,1987,No,Wraps,SBD
1,Igor Kharchenko,O,79.3,-190,190,205,205,,120,130,-140,130,,220,235,250,250,,585,82.5,M,Ігор Харченко,1986,No,Wraps,SBD
2,Andriy Avdeev,O,80.3,150,160,170,170,,120,130,137.5,137.5,,180,190,200,200,,507.5,82.5,M,Андрій Авдеєв,1983,No,Wraps,SBD
1,Andriy Zhurakovskyy,O,89.1,200,212.5,220,220,,140,150,-157.5,150,,220,235,245,245,,615,90,M,Андрій Жураковський,1977,No,Wraps,SBD
2,Yuriy Antonyuk,O,84.3,170,180,190,190,,135,142.5,150,150,,190,210,-220,210,,550,90,M,Юрій Антонюк,1985,No,Wraps,SBD
1,Anton Obodovskiy,O,99.9,270,290,310,310,,190,-205,205,205,,305,325,335,335,,850,100,M,Антон Ободовський,1984,No,Wraps,SBD
2,Viktor Galaguz,O,96,250,270,280,280,,200,210,220,220,,300,-315,-315,300,,800,100,M,Віктор Галагуз,1984,No,Wraps,SBD
3,Anton Galaguz,O,95.3,230,245,260,260,,170,180,-190,180,,260,280,-290,280,,720,100,M,Антон Галагуз,1986,No,Wraps,SBD
4,Andriy Goncharov,O,99.9,185,195,200,200,,165,170,175,175,,200,215,230,230,,605,100,M,Андрій Гончаров,1978,No,Wraps,SBD
5,Oleksiy Fedorenko,O,97.7,165,175,185,185,,135,145,-155,145,,-210,210,225,225,,555,100,M,Олексій Федоренко,1986,No,Wraps,SBD
DQ,Vladislav Krivokonev,J,109.8,-260,-260,-270,,,,,,,,,,,,,,110,M,Владислав Кривоконєв,1988,No,Wraps,SBD
1,Yuriy Kovalenko,O,108,250,265,270,270,,200,205,,205,,250,270,,270,,745,110,M,Юрій Коваленко,1976,No,Wraps,SBD
2,Maxym Kryl',O,107.5,200,210,220,220,,180,-190,-190,180,,240,-250,250,250,,650,110,M,Максим Криль,1983,No,Wraps,SBD
3,Andriy Bobylev,O,104.2,-200,200,-210,200,,-150,160,170,170,,220,235,-245,235,,605,110,M,Андрій Бобилєв,1976,No,Wraps,SBD
1,Kostyantyn Dmytriev,J,116,210,225,232.5,232.5,,180,200,205,205,,-260,260,295,295,,732.5,125,M,Костянтин Дмитрієв,1987,No,Wraps,SBD
1,Sergiy Karnaukhov,O,119,330,350,-361,350,,200,210,-220,210,,310,320,,320,,880,125,M,Сергій Карнаухов,1978,No,Wraps,SBD
2,Kostyantyn Dmytriev,O,116,210,225,232.5,232.5,,180,200,205,205,,-260,260,295,295,,732.5,125,M,Костянтин Дмитрієв,1987,No,Wraps,SBD
1,Inna Yudina,O,73.5,120,,,120,,75,80,-85,80,,125,130,-135,130,,330,75,F,Інна Юдіна,1978,Yes,Multi-ply,SBD
1,Igor Zhuk #1,J,74.8,200,210,-220,210,,120,-150,-150,120,,170,-190,190,190,,520,75,M,Игорь Жук,1988,Yes,Multi-ply,SBD
1,Igor Zhuk #1,O,74.8,200,210,-220,210,,120,-150,-150,120,,170,-190,190,190,,520,75,M,Игорь Жук,1988,Yes,Multi-ply,SBD
1,Andriy Dyatlov,O,78.2,240,262.5,-285,262.5,,190,202.5,210,210,,235,245,250,250,,722.5,82.5,M,Андрій Дятлов,1985,Yes,Multi-ply,SBD
2,Konstantin Sapunkov,O,81.8,240,250,-260,250,,160,170,175,175,,210,217.5,225,225,,650,82.5,M,Константин Сапунков,1981,Yes,Multi-ply,SBD
1,Vitaliy Garkavenko,T2,88.7,240,250,260,260,,140,-150,155,155,,225,-250,-250,225,,640,90,M,Віталій Гаркавенко,1994,Yes,Multi-ply,SBD
1,Yuriy Khudyakov,J,88.3,200,210,220,220,,150,-155,-155,150,,190,200,-215,200,,570,90,M,Юрій Худяков,1990,Yes,Multi-ply,SBD
1,Volodymyr Grammatik,O,86.8,280,300,-310,300,,175,185,-190,185,,260,-282.5,-287.5,260,,745,90,M,Володимир Грамматік,1982,Yes,Multi-ply,SBD
1,Dmytro Kal'nin,J,98,-250,-260,260,260,,150,160,165,165,,-240,240,260,260,,685,100,M,Дмитро Кальнин,1989,Yes,Multi-ply,SBD
1,Dmytro Kal'nin,O,98,-250,-260,260,260,,150,160,165,165,,-240,240,260,260,,685,100,M,Дмитро Кальнин,1989,Yes,Multi-ply,SBD
1,Andriy Kovalenko,O,109,260,280,,280,,190,200,210,210,,250,265,270,270,,760,110,M,Андрій Коваленко,1976,Yes,Multi-ply,SBD
2,Oleksandr Shendryk,O,101.2,200,220,-240,220,,150,155,,155,,210,220,230,230,,605,110,M,Олександр Шендрик,1972,Yes,Multi-ply,SBD
1,Andriy Kovalenko,T2,132,200,220,,220,,120,-130,-130,120,,140,150,,150,,490,140,M,Андрій Коваленко,1993,Yes,Multi-ply,SBD
1,Artem Konyk,J,74.8,-325,325,350,350,-370,215,225,-230,225,,270,-290,-290,270,,845,75,M,Артем Коник,1989,No,Multi-ply,SBD
2,Anton Popov,J,69.5,160,170,-185,170,,115,125,-135,125,,160,175,-180,175,,470,75,M,Антон Попов,1989,No,Multi-ply,SBD
1,Artem Konyk,O,74.8,-325,325,350,350,-370,215,225,-230,225,,270,-290,-290,270,,845,75,M,Артем Коник,1989,No,Multi-ply,SBD
1,Andriy Ivzhenko,O,81.5,-340,340,-355,340,,190,-200,-200,190,,270,-290,-300,270,,800,82.5,M,Андрій Івженко,1977,No,Multi-ply,SBD
2,Sergiy Sokolovskyy,O,81.5,230,-250,250,250,,140,-150,-150,140,,260,280,-300,280,,670,82.5,M,Сергій Соколовський,1976,No,Multi-ply,SBD
3,Artem Kvashnin,O,81.4,-230,-230,230,230,,145,155,162.5,162.5,,202.5,215,-220,215,,607.5,82.5,M,Артем Квашнін,1985,No,Multi-ply,SBD
1,Mykhailo Prybytok,T3,87.7,200,210,-220,210,,-140,140,-150,140,,200,210,225,225,,575,90,M,Михайло Прибиток,1992,No,Multi-ply,SBD
1,Dmitro Pavlenko,O,89.2,240,-270,-270,240,,-180,-180,180,180,,250,-270,270,270,,690,90,M,Дмитро Павленко,1978,No,Multi-ply,SBD
DQ,Dmytro Derevyanko,O,89.9,-330,340,350,350,,-225,-225,225,225,,-200,-200,-200,,,,90,M,Дмитро Дерев'янко,1984,No,Multi-ply,SBD
1,Mykhailo Pirkl,O,99.2,-320,-320,320,320,,230,240,250,250,,330,-340,-350,330,,900,100,M,Михайло Піркл,1978,No,Multi-ply,SBD
2,Mikhaylo Zhelyazkov,O,95.5,-270,330,340,340,,200,220,-225,220,,260,280,290,290,,850,100,M,Михайло Желязков,1980,No,Multi-ply,SBD
3,Oleg Zhulynskyy,O,95.1,220,240,250,250,,-190,190,-200,190,,220,240,260,260,,700,100,M,Олег Жулинський,1980,No,Multi-ply,SBD
1,Arsen Doga,J,104.4,270,290,-300,290,,185,-195,-195,185,,260,270,,270,,745,110,M,Арсен Дога,1987,No,Multi-ply,SBD
1,Stanislav Nikolaenko,O,109.9,-285,-300,300,300,,-240,240,-252.5,240,,-240,245,260,260,,800,110,M,Станіслав Ніколаєнко,1978,No,Multi-ply,SBD
2,Yevgen Godyna,O,104.4,280,-300,-300,280,,190,200,-210,200,,270,290,300,300,,780,110,M,Євген Година,1987,No,Multi-ply,SBD
3,Arsen Doga,O,104.4,270,290,-300,290,,185,-195,-195,185,,260,270,,270,,745,110,M,Арсен Дога,1987,No,Multi-ply,SBD
DQ,Sergiy Danilov,O,109.1,-370,-370,-370,,,,,,,,,,,,,,110,M,Сергій Данілов,1976,No,Multi-ply,SBD
1,Inna Lutsenko,O,46.6,,,,,,50,55,-60,55,,,,,,,55,48,F,Інна Луценко,1986,Yes,Raw,B
1,Anna Stulova,T2,51,,,,,,40,47.5,-50,47.5,,,,,,,47.5,52,F,Анна Стулова,1993,Yes,Raw,B
1,Viktoriya Sokolenko,J,51.4,,,,,,75,80,85,85,90,,,,,,85,52,F,Вікторія Соколенко,1987,Yes,Raw,B
1,Lilia Prots,O,51.9,,,,,,55,62.5,67.5,67.5,,,,,,,67.5,52,F,Лілія Проць,1974,Yes,Raw,B
2,Irina Demydenko,O,51.9,,,,,,45,47.5,-50,47.5,,,,,,,47.5,52,F,Ірина Демиденко,1964,Yes,Raw,B
3,Maryna Chyrva,O,51.7,,,,,,35,37.5,-40,37.5,,,,,,,37.5,52,F,Марина Чирва,1981,Yes,Raw,B
1,Irina Demydenko,M2,51.9,,,,,,45,47.5,-50,47.5,,,,,,,47.5,52,F,Ірина Демиденко,1964,Yes,Raw,B
1,Tetyana Shyryayeva,T3,55.9,,,,,,30,-32.5,,30,,,,,,,30,56,F,Тетяна Ширяєва,1992,Yes,Raw,B
1,Mylana Karpechenko,J,54.3,,,,,,40,45,-47.5,45,,,,,,,45,56,F,Милана Карпеченко,1987,Yes,Raw,B
1,Olena Koroeva,O,55.1,,,,,,52.5,55,-57.5,55,,,,,,,55,56,F,Олена Короєва,1983,Yes,Raw,B
2,Olga Grabovska,O,55.9,,,,,,40,-42.5,-42.5,40,,,,,,,40,56,F,Ольга Грабовська,1976,Yes,Raw,B
1,Lyudmyla Bobchenko,O,57.5,,,,,,80,85,90,90,,,,,,,90,60,F,Людмила Бобченко,1979,Yes,Raw,B
2,Maryna Gal'chuk,O,59.9,,,,,,50,55,-57.5,55,,,,,,,55,60,F,Марина Гальчук,1982,Yes,Raw,B
3,Mariya Vovk,O,58.2,,,,,,-40,40,-45,40,,,,,,,40,60,F,Марія Вовк,1980,Yes,Raw,B
1,Inga Gryb,O,66.5,,,,,,57.5,62.5,-65,62.5,,,,,,,62.5,67.5,F,Інга Гриб,1976,Yes,Raw,B
2,Tetyana Balashova,O,67.4,,,,,,40,45,47.5,47.5,,,,,,,47.5,67.5,F,Тетяна Балашова,1975,Yes,Raw,B
1,Olena Timofeyeva,M1,62.2,,,,,,55,-60,-60,55,,,,,,,55,67.5,F,Олена Тимофеєва,1968,Yes,Raw,B
1,Olga Grushevska,J,72,,,,,,37.5,42.5,-47.5,42.5,,,,,,,42.5,75,F,Ольга Грушевська,1989,Yes,Raw,B
1,Iryna Zhelyazkova,O,68,,,,,,30,35,-40,35,,,,,,,35,75,F,Ірина Желязкова,1984,Yes,Raw,B
1,Maxym Yakushchenko,Y,50.8,,,,,,47.5,-52.5,52.5,52.5,,,,,,,52.5,52,M,Максим Якущенко,2000,Yes,Raw,B
2,Ruslan Rozbeyko,T1,47.7,,,,,,30,35,-42.5,35,,,,,,,35,52,M,Руслан Розбейко,1997,Yes,Raw,B
3,Viktor Bobchenko,Y,42,,,,,,25,27.5,30,30,,,,,,,30,52,M,Віктор Бобченко,2003,Yes,Raw,B
1,Evgen Avramenko,T2,55.9,,,,,,105.5,-110,-110,105.5,,,,,,,105.5,56,M,Євген Авраменко,1993,Yes,Raw,B
1,Oleksandr Kotovych,O,54.1,,,,,,95,100,-105,100,,,,,,,100,56,M,Олександр Котович,1987,Yes,Raw,B
1,Andrey Sychenko,T1,59.9,,,,,,70,-75,-75,70,,,,,,,70,60,M,Андрій Сиченко,1995,Yes,Raw,B
1,Igor Vinar,T2,59,,,,,,90,95,-97.5,95,,,,,,,95,60,M,Ігор Вінар,1994,Yes,Raw,B
2,Ivan Belokon',T2,59,,,,,,80,-85,85,85,,,,,,,85,60,M,Іван Белоконь,1994,Yes,Raw,B
1,Pavel Isakov,T3,58.8,,,,,,85,90,-95,90,,,,,,,90,60,M,Павел Исаков,1991,Yes,Raw,B
1,Rostyslav Borovskyy,O,58.8,,,,,,105,110,112.5,112.5,,,,,,,112.5,60,M,Ростислав Боровський,1986,Yes,Raw,B
1,Andriy Rudyy,T1,66,,,,,,90,95,-97.5,95,,,,,,,95,67.5,M,Андрій Рудий,1995,Yes,Raw,B
2,Vladyslav Konyaev,T1,63.3,,,,,,75,80,-85,80,,,,,,,80,67.5,M,Владислав Коняєв,1995,Yes,Raw,B
3,Anton Zhukotskyy,T1,62.7,,,,,,55,-60,-60,55,,,,,,,55,67.5,M,Антон Жукоцький,1995,Yes,Raw,B
1,Yevgen Lyaskovskyy,T2,67.4,,,,,,100,107.5,110,110,,,,,,,110,67.5,M,Євген Лясковський,1993,Yes,Raw,B
2,Oleksandr Kyrylenko,T2,67,,,,,,100,-107.5,-107.5,100,,,,,,,100,67.5,M,Олександр Кириленко,1994,Yes,Raw,B
1,Aleksandr Korobko,T3,64.8,,,,,,-110,-110,110,110,,,,,,,110,67.5,M,Александр Коробко,1993,Yes,Raw,B
2,Artem Stukalov,T3,66.2,,,,,,100,107.5,-110,107.5,,,,,,,107.5,67.5,M,Артем Стукалов,1992,Yes,Raw,B
3,Oleksandr Simonenko,T3,64.8,,,,,,80,-85,90,90,,,,,,,90,67.5,M,Олександр Симоненко,1992,Yes,Raw,B
1,Igor Pavlov,J,66.2,,,,,,120,127.5,132.5,132.5,,,,,,,132.5,67.5,M,Ігорь Павлов,1987,Yes,Raw,B
2,Andriy Maslyak,J,66.9,,,,,,115,120,,120,,,,,,,120,67.5,M,Андрій Масляк,1990,Yes,Raw,B
3,David Mardoyan,J,63.1,,,,,,100,107.5,110,110,,,,,,,110,67.5,M,Давид Мардоян,1987,Yes,Raw,B
1,Oleg Prikhodko,O,67.4,,,,,,140,150,155,155,,,,,,,155,67.5,M,Олег Приходько,1981,Yes,Raw,B
2,Oleksandr Garbuza,O,67,,,,,,140,150,-152.5,150,,,,,,,150,67.5,M,Олександр Гарбуза,1982,Yes,Raw,B
3,Oleksandr Tykhonov,O,66,,,,,,120,-125,,120,,,,,,,120,67.5,M,Олександр Тихонов,1982,Yes,Raw,B
4,Dmytro Grishchenko,O,66.1,,,,,,110,115,-120,115,,,,,,,115,67.5,M,Дмитро Грищенко,1985,Yes,Raw,B
5,Denis Avramenko,O,67.5,,,,,,110,115,-120,115,,,,,,,115,67.5,M,Денис Авраменко,1981,Yes,Raw,B
1,Oleksandr Gol'din,M1,66.6,,,,,,125,135,140,140,,,,,,,140,67.5,M,Олександр Гольдін,1969,Yes,Raw,B
1,German Litvinov,T1,71.9,,,,,,95,100,105,105,,,,,,,105,75,M,Герман Литвинов,1995,Yes,Raw,B
2,Sergiy Golenko,T1,73.3,,,,,,90,95,100,100,,,,,,,100,75,M,Сергій Голенко,1995,Yes,Raw,B
3,Kyrylo Pashkov,T1,73,,,,,,85,92.5,95,95,,,,,,,95,75,M,Кирило Пашков,1996,Yes,Raw,B
1,Igor Kashynskyy,T2,73.5,,,,,,100,105,-110,105,,,,,,,105,75,M,Ігор Кашинський,1993,Yes,Raw,B
2,Oleg Ivanik,T2,69.7,,,,,,90,100,-105,100,,,,,,,100,75,M,Олег Іваник,1994,Yes,Raw,B
1,Andriy Verkhovtsev,T3,73.5,,,,,,130,132.5,-135,132.5,,,,,,,132.5,75,M,Андрій Верховцев,1991,Yes,Raw,B
2,Bogdan Kuzmenko,T3,74,,,,,,130,-135,-135,130,,,,,,,130,75,M,Богдан Кузьменко,1991,Yes,Raw,B
3,Oleksandr Sagarovskyy,T3,72,,,,,,100,110,-115,110,,,,,,,110,75,M,Олександр Сагаровський,1991,Yes,Raw,B
1,Taras Gerasymchuk,J,74.5,,,,,,150,155,162.5,162.5,,,,,,,162.5,75,M,Тарас Герасимчук,1988,Yes,Raw,B
2,Dmytro Dashuk,J,73.8,,,,,,115,120,130,130,,,,,,,130,75,M,Дмитро Дашук,1988,Yes,Raw,B
3,Oleksandr Goloborod'ko,J,71.4,,,,,,110,120,125,125,,,,,,,125,75,M,Олександр Голобородько,1987,Yes,Raw,B
4,Oleksandr Shapovalov,J,73.7,,,,,,120,-125,125,125,,,,,,,125,75,M,Олександр Шаповалов,1990,Yes,Raw,B
5,Oleksandr Skorobogatyy,J,71.2,,,,,,110,115,120,120,,,,,,,120,75,M,Олександр Скоробогатий,1989,Yes,Raw,B
6,Oleksandr Tarasenko,J,75,,,,,,-120,120,-125,120,,,,,,,120,75,M,Олександр Тарасенко,1989,Yes,Raw,B
1,Roman Plakhotin,O,75,,,,,,160,170,-180,170,,,,,,,170,75,M,Роман Плахотін,1986,Yes,Raw,B
2,Dmytro Moroz,O,73.9,,,,,,155,160,-170,160,,,,,,,160,75,M,Дмитро Мороз,1976,Yes,Raw,B
3,Sergiy Odarchenko,O,72,,,,,,145,155,-160,155,,,,,,,155,75,M,Сергій Одарченко,1986,Yes,Raw,B
4,Viktor Balyka,O,70.1,,,,,,130,135,140,140,,,,,,,140,75,M,Віктор Балика,1982,Yes,Raw,B
5,Sergiy Kamenev,O,72.5,,,,,,130,140,-150,140,,,,,,,140,75,M,Сергій Каменєв,1985,Yes,Raw,B
6,Sergiy Khomenko,O,74.4,,,,,,120,130,135,135,,,,,,,135,75,M,Сергій Хоменко,1986,Yes,Raw,B
7,Oleksandr Dolgykh,O,74.3,,,,,,120,130,132.5,132.5,,,,,,,132.5,75,M,Олександр Долгих,1979,Yes,Raw,B
8,Valeriy Fursa,O,74.2,,,,,,120,130,-140,130,,,,,,,130,75,M,Валерій Фурса,1987,Yes,Raw,B
9,Oleg Zaporozhets,O,72,,,,,,110,120,-122.5,120,,,,,,,120,75,M,Олег Запорожець,1984,Yes,Raw,B
10,Artem Sarzhan,O,75,,,,,,110,115,-120,115,,,,,,,115,75,M,Артем Саржан,1984,Yes,Raw,B
1,Vitaliy Stolpak,M1,71.6,,,,,,120,-125,125,125,,,,,,,125,75,M,Виталий Столпак,1970,Yes,Raw,B
1,Andrey Koloda,T1,76.6,,,,,,100,105,107.5,107.5,,,,,,,107.5,82.5,M,Андрій Колода,1996,Yes,Raw,B
2,Oleksiy Slyusar,T1,78.2,,,,,,75,85,90,90,,,,,,,90,82.5,M,Олексій Слюсар,1995,Yes,Raw,B
1,Volodymyr Kononenko,T2,82.4,,,,,,115,122.5,130,130,-135.5,,,,,,130,82.5,M,Володимир Кононенко,1993,Yes,Raw,B
1,Ruslan Motuzkin,T3,78.5,,,,,,130,145,-150,145,,,,,,,145,82.5,M,Руслан Мотузкін,1993,Yes,Raw,B
2,Stanislav Shepil',T3,79.5,,,,,,120,125,130,130,,,,,,,130,82.5,M,Станіслав Шепіль,1992,Yes,Raw,B
3,Oleg Galchenko,T3,77.5,,,,,,115,120,122.5,122.5,,,,,,,122.5,82.5,M,Олег Гальченко,1992,Yes,Raw,B
4,Yevgen Agapov,T3,80.3,,,,,,112.5,115,-117.5,115,,,,,,,115,82.5,M,Євген Агапов,1991,Yes,Raw,B
1,Dmytro Gavrykh,J,82.4,,,,,,135,145,,145,,,,,,,145,82.5,M,Дмитро Гаврих,1989,Yes,Raw,B
2,Yevgen Lukyanov,J,80.4,,,,,,130,135,-145,135,,,,,,,135,82.5,M,Євген Лукьянов,1990,Yes,Raw,B
3,Dmytro Masnyy,J,80.9,,,,,,125,135,,135,,,,,,,135,82.5,M,Дмитро Масний,1990,Yes,Raw,B
4,Andrey Pavlov,J,82.4,,,,,,127.5,130,-135,130,,,,,,,130,82.5,M,Андрій Павлов,1988,Yes,Raw,B
1,Oleg Slyusar,O,82,,,,,,165,175,180,180,,,,,,,180,82.5,M,Олег Слюсар,1972,Yes,Raw,B
2,Valeriy Gudyma,O,80.6,,,,,,145,150,155,155,,,,,,,155,82.5,M,Валерій Гудима,1977,Yes,Raw,B
3,Yevgen Anishchenko,O,79,,,,,,145,150,,150,,,,,,,150,82.5,M,Євген Анищенко,1983,Yes,Raw,B
4,Andriy Goncharov,O,80.9,,,,,,150,-165,-165,150,,,,,,,150,82.5,M,Андрій Гончаров,1981,Yes,Raw,B
5,Yevgen Chernenko,O,82.2,,,,,,135,145,150,150,,,,,,,150,82.5,M,Євген Черненко,1974,Yes,Raw,B
6,Andriy Mazur,O,78.7,,,,,,135,145,-150,145,,,,,,,145,82.5,M,Андрій Мазур,1985,Yes,Raw,B
7,Volodymyr Trokhimets,O,80.3,,,,,,135,145,,145,,,,,,,145,82.5,M,Володимир Трохимець,1986,Yes,Raw,B
8,Dmytro Polikovskyy,O,80.9,,,,,,130,140,145,145,,,,,,,145,82.5,M,Дмитро Поліковський,1980,Yes,Raw,B
9,Maksim Kravchenko,O,81.8,,,,,,145,,,145,,,,,,,145,82.5,M,Максим Кравченко,1982,Yes,Raw,B
10,Oleksandr Kulgavyy,O,82.3,,,,,,145,-150,-150,145,,,,,,,145,82.5,M,Олександр Кульгавий,1978,Yes,Raw,B
11,Oleg Derevyanko,O,82.5,,,,,,130,140,145,145,,,,,,,145,82.5,M,Олег Дерев'янко,1973,Yes,Raw,B
12,Denis Kovalenko,O,80.2,,,,,,115,120,-125,120,,,,,,,120,82.5,M,Денис Коваленко,1982,Yes,Raw,B
13,Oleksandr Sara,O,81.4,,,,,,100,110,115,115,,,,,,,115,82.5,M,Олександр Сара,1983,Yes,Raw,B
1,Mykola Popov,M4,80.7,,,,,,90,95,100,100,,,,,,,100,82.5,M,Микола Попов,1954,Yes,Raw,B
1,Goga Nezheradze,T1,88.5,,,,,,-90,90,100,100,,,,,,,100,90,M,Гога Нежерадзе,1995,Yes,Raw,B
1,Aleksandr Asmolov,T2,82.6,,,,,,80,85,90,90,,,,,,,90,90,M,Александр Асмолов,1994,Yes,Raw,B
1,Oleksandr Chalyy,T3,89.1,,,,,,120,132.5,-135,132.5,,,,,,,132.5,90,M,Олександр Чалий,1992,Yes,Raw,B
2,Pavlo Lotash,T3,89.6,,,,,,120,-125,-125,120,,,,,,,120,90,M,Павло Лоташ,1992,Yes,Raw,B
1,Mykola Gatsenko,J,88.4,,,,,,140,150,,150,,,,,,,150,90,M,Микола Гаценко,1987,Yes,Raw,B
2,Vladyslav Borys,J,88,,,,,,140,-150,-150,140,,,,,,,140,90,M,Владислав Борис,1988,Yes,Raw,B
DQ,Anton Gavrylenko,J,84.5,,,,,,-135,-135,-135,,,,,,,,,90,M,Антон Гавриленко,1989,Yes,Raw,B
2,Maksim Fokin,O,89.8,,,,,,175,180,185,185,,,,,,,185,90,M,Максим Фокін,1983,Yes,Raw,B
3,Boris Stashuk,O,89,,,,,,175,180,-190,180,,,,,,,180,90,M,Борис Сташук,1985,Yes,Raw,B
4,Oleksandr Bakiev,O,87.6,,,,,,-160,165,170,170,,,,,,,170,90,M,Олександр Бакієв,1978,Yes,Raw,B
5,Oleksiy Slyusar,O,90,,,,,,165,-170,-172.5,165,,,,,,,165,90,M,Олексій Слюсар,1976,Yes,Raw,B
6,Oleksiy Poroshyn,O,88.6,,,,,,155,160,-170,160,,,,,,,160,90,M,Олексій Порошин,1977,Yes,Raw,B
7,Vladyslav Isayev,O,89.4,,,,,,150,155,160,160,,,,,,,160,90,M,Владислав Ісаєв,1985,Yes,Raw,B
8,Mykola Matviyenko,O,89.5,,,,,,155,160,-162.5,160,,,,,,,160,90,M,Микола Матвієнко,1984,Yes,Raw,B
9,Kostyantyn Yanishevskyy,O,85.4,,,,,,140,150,155,155,,,,,,,155,90,M,Констянтин Янішевський,1985,Yes,Raw,B
10,Oleksiy Bereza,O,88,,,,,,140,150,152.5,152.5,,,,,,,152.5,90,M,Олексій Береза,1984,Yes,Raw,B
11,Sergiy Melashych,O,87,,,,,,132.5,142.5,150,150,,,,,,,150,90,M,Сергій Мелашич,1984,Yes,Raw,B
12,Denys Kyrylychev,O,90,,,,,,145,150,-155,150,,,,,,,150,90,M,Денис Кириличев,1979,Yes,Raw,B
13,Gor Kazaryan,O,87.1,,,,,,125,132.5,137.5,137.5,,,,,,,137.5,90,M,Гор Казарян,1982,Yes,Raw,B
14,Dmytro Bobrovskyy,O,85.3,,,,,,120,127.5,132.5,132.5,,,,,,,132.5,90,M,Дмитро Бобровський,1971,Yes,Raw,B
DQ,Roman Zaretskyy,O,88.3,,,,,,-130,-132.5,-132.5,,,,,,,,,90,M,Роман Зарецький,1979,Yes,Raw,B
1,Rinat Zaripov,M1,89.5,,,,,,150,162.5,170,170,,,,,,,170,90,M,Рінат Заріпов,1970,Yes,Raw,B
2,Sergiy Yakuschenko,M1,88.3,,,,,,140,145,150,150,,,,,,,150,90,M,Сергій Якущенко,1971,Yes,Raw,B
3,Vadym Posypay,M1,89.6,,,,,,140,145,-147.5,145,,,,,,,145,90,M,Вадим Посипай,1968,Yes,Raw,B
4,Sergiy Zhukotskyy,M1,86,,,,,,140,-142.5,-145,140,,,,,,,140,90,M,Сергій Жукоцький,1966,Yes,Raw,B
1,Elman Gadzhiev,M3,87.7,,,,,,150,157.5,160.5,160.5,-162.5,,,,,,160.5,90,M,Ельман Гаджієв,1959,Yes,Raw,B
1,Danilo Ryasniy,T3,94.8,,,,,,155,165,-175,165,,,,,,,165,100,M,Данило Рясний,1992,Yes,Raw,B
2,Stepan Makaryshkin,T3,95,,,,,,135,140,142.5,142.5,,,,,,,142.5,100,M,Степан Макаришкін,1991,Yes,Raw,B
3,Andriy Potapenko,T3,98.3,,,,,,135,142.5,-147.5,142.5,,,,,,,142.5,100,M,Андрій Потапенко,1992,Yes,Raw,B
1,Igor Karaush,J,94.3,,,,,,155,160,-162.5,160,,,,,,,160,100,M,Ігор Карауш,1990,Yes,Raw,B
2,Volodymyr Dudko,J,94.1,,,,,,135,145,155,155,,,,,,,155,100,M,Володимир Дудко,1988,Yes,Raw,B
3,Oleksandr Belyy,J,99.9,,,,,,145,155,-162.5,155,,,,,,,155,100,M,Олександр Бєлий,1990,Yes,Raw,B
4,Rodion Donenko,J,92.2,,,,,,135,145,-150,145,,,,,,,145,100,M,Родіон Доненко,1989,Yes,Raw,B
DQ,Mykola Shevtsov,J,99.8,,,,,,-155,-155,-155,,,,,,,,,100,M,Микола Шевцов,1990,Yes,Raw,B
1,Oleksandr Reva,O,93.6,,,,,,160,180,185,185,,,,,,,185,100,M,Олександр Рева,1982,Yes,Raw,B
2,Oleksiy Kuzmin,O,97,,,,,,170,180,185,185,,,,,,,185,100,M,Олексій Кузьмін,1983,Yes,Raw,B
3,Volodymyr Zolotashko,O,98.7,,,,,,165,172.5,180,180,,,,,,,180,100,M,Володимир Золоташко,1971,Yes,Raw,B
4,Oleksandr Ageyenko,O,99,,,,,,160,167.5,175,175,,,,,,,175,100,M,Олександр Агеєнко,1976,Yes,Raw,B
5,Yuriy Chernyavskyy,O,95.2,,,,,,145,155,165,165,,,,,,,165,100,M,Юрій Чернявський,1972,Yes,Raw,B
6,Denys Trofimov,O,97.9,,,,,,160,-170,-170,160,,,,,,,160,100,M,Денис Трофімов,1979,Yes,Raw,B
7,Maxym Makogon,O,97.1,,,,,,150,155,-160,155,,,,,,,155,100,M,Максим Макогон,1971,Yes,Raw,B
8,Yuriy Muzychenko,O,94.4,,,,,,135,140,145,145,,,,,,,145,100,M,Юрій Музиченко,1986,Yes,Raw,B
9,Yuriy Pysarev,O,91.2,,,,,,140,-145,-150,140,,,,,,,140,100,M,Юрій Писарєв,1984,Yes,Raw,B
10,Kostyantyn Tarasyk,O,97.1,,,,,,125,135,-140,135,,,,,,,135,100,M,Костянтин Тарасик,1971,Yes,Raw,B
11,Dmitro Grigorev,O,98.3,,,,,,-135,135,-155,135,,,,,,,135,100,M,Дмитро Григорьєв,1971,Yes,Raw,B
12,Oleksandr Basyuk,O,92,,,,,,120,-125,-125,120,,,,,,,120,100,M,Олександр Басюк,1977,Yes,Raw,B
1,Pavlo Kipnyak,M1,96.9,,,,,,115,120,125,125,,,,,,,125,100,M,Павло Кіпняк,1969,Yes,Raw,B
1,Sergiy Kolesnik,M2,98.8,,,,,,135,145,155,155,,,,,,,155,100,M,Сергей Колесник,1963,Yes,Raw,B
1,Oleksiy Syzonenko,J,107,,,,,,-160,170,-187.5,170,,,,,,,170,110,M,Олексій Сизоненко,1988,Yes,Raw,B
1,Sergiy Korolenko,O,104.2,,,,,,185,200,-215,200,,,,,,,200,110,M,Сергій Короленко,1977,Yes,Raw,B
2,Oleksiy Chukhnenko,O,107,,,,,,160,180,187.5,187.5,,,,,,,187.5,110,M,Олексій Чухненко,1978,Yes,Raw,B
3,Pavlo Trygub,O,107.6,,,,,,167.5,180,182.5,182.5,,,,,,,182.5,110,M,Павло Тригуб,1973,Yes,Raw,B
4,Sergiy Borishanskyy,O,108.1,,,,,,160,175,180,180,,,,,,,180,110,M,Сергій Боришанський,1977,Yes,Raw,B
5,Andriy Savarets',O,101.9,,,,,,165,-170,175,175,,,,,,,175,110,M,Андрій Саварець,1984,Yes,Raw,B
6,Roman Ivanenko,O,108.1,,,,,,160,167.5,-175,167.5,,,,,,,167.5,110,M,Роман Іваненко,1976,Yes,Raw,B
7,Stanislav Kuznetsov,O,109.5,,,,,,150,160,165,165,,,,,,,165,110,M,Станіслав Кузнецов,1985,Yes,Raw,B
8,Vyacheslav Arkhipov,O,108.5,,,,,,140,150,160,160,,,,,,,160,110,M,В'ячеслав Архіпов,1970,Yes,Raw,B
DQ,Dzhonni Mkhitoryan,O,106,,,,,,-187.5,-187.5,-187.5,,,,,,,,,110,M,Джонні Мхіторян,1979,Yes,Raw,B
1,Oleksandr Stryga,M1,108.8,,,,,,180,190,200,200,,,,,,,200,110,M,Олександр Стрига,1967,Yes,Raw,B
2,Vyacheslav Arkhipov,M1,108.5,,,,,,140,150,160,160,,,,,,,160,110,M,В'ячеслав Архіпов,1970,Yes,Raw,B
3,Igor Kopan',M1,106.3,,,,,,-140,145,-150,145,,,,,,,145,110,M,Ігор Копань,1969,Yes,Raw,B
DQ,Mykola Zinovyev,M3,108.5,,,,,,-170,,,,,,,,,,,110,M,Микола Зінов'єв,1960,Yes,Raw,B
1,Oleksandr Kyslichenko,O,124.4,,,,,,190,-200,-200,190,,,,,,,190,125,M,Олександр Кисліченко,1986,Yes,Raw,B
2,Mykola Prezhyn,O,119.6,,,,,,175,185,187.5,187.5,,,,,,,187.5,125,M,Микола Прежин,1981,Yes,Raw,B
3,Andriy Kruzhylo,O,113.7,,,,,,175,182.5,185,185,,,,,,,185,125,M,Андрій Кружило,1978,Yes,Raw,B
4,Oleg Afanasyev,O,125,,,,,,170,175,177.5,177.5,,,,,,,177.5,125,M,Олег Афанасьев,1977,Yes,Raw,B
1,Vladislav Marchenko,M1,112.8,,,,,,125,130,-135,130,,,,,,,130,125,M,Владислав Марченко,1967,Yes,Raw,B
1,Oleksandr Kalkutin,M2,123.5,,,,,,170,-177.5,-177.5,170,,,,,,,170,125,M,Олександр Калкутін,1965,Yes,Raw,B
1,Dmytro Kurochkin,M4,111,,,,,,140,145,150,150,,,,,,,150,125,M,Дмитро Курочкін,1955,Yes,Raw,B
1,Viktor Kochmar,O,135.2,,,,,,210,217.5,220,220,,,,,,,220,140,M,Віктор Кочмар,1970,Yes,Raw,B
2,Oleksandr Shvab,O,125.3,,,,,,160,,,160,,,,,,,160,140,M,Олександр Шваб,1976,Yes,Raw,B
1,Viktor Kochmar,M1,135.2,,,,,,210,217.5,220,220,,,,,,,220,140,M,Віктор Кочмар,1970,Yes,Raw,B
1,Lina Zubrytska,J,49.9,,,,,,67.5,72.5,75,75,,,,,,,75,52,F,,1988,No,Raw,B
1,Anna Kadatska,O,55.6,,,,,,95,100,-105,100,,,,,,,100,56,F,Анна Кадацька,1977,No,Raw,B
1,Anna Kurkurina,O,70.5,,,,,,100,110,115,115,-120,,,,,,115,75,F,Анна Куркуріна,1966,No,Raw,B
1,Anna Kurkurina,M1,70.5,,,,,,100,110,115,115,-120,,,,,,115,75,F,Анна Куркуріна,1966,No,Raw,B
1,Tetyana Ovsiyenko,O,86.1,,,,,,57.5,60,-62.5,60,,,,,,,60,90,F,Тетяна Овсієнко,1975,No,Raw,B
1,Vladyslav Fedorenko,T3,59.7,,,,,,75,82.5,-87.5,82.5,,,,,,,82.5,60,M,Владислав Федоренко,1993,No,Raw,B
1,Danylo Korniyenko,J,59,,,,,,80,90,-95,90,,,,,,,90,60,M,Данило Корнієнко,1990,No,Raw,B
1,Ivan Kozykov,T2,66.1,,,,,,100,-107.5,-107.5,100,,,,,,,100,67.5,M,Іван Козиков,1994,No,Raw,B
1,Dmytro Belyaev,T3,65.6,,,,,,80,85,90,90,,,,,,,90,67.5,M,Дмитро Беляєв,1993,No,Raw,B
1,Oleksandr Krykun,J,64,,,,,,120,125,130,130,-135,,,,,,130,67.5,M,Олександр Крикун,1990,No,Raw,B
2,Pavlo Parakhonenko,J,66.2,,,,,,110,117.5,-122.5,117.5,,,,,,,117.5,67.5,M,Павло Парахоненко,1989,No,Raw,B
1,Volodymyr Kovalenko,O,65.9,,,,,,115,120,122.5,122.5,,,,,,,122.5,67.5,M,Володимир Коваленко,1986,No,Raw,B
2,Sergiy Lyashuk,O,66.8,,,,,,90,-100,100,100,,,,,,,100,67.5,M,Сергій Ляшук,1977,No,Raw,B
1,Ruslan Chuchvaga,T2,74,,,,,,110,117.5,-127.5,117.5,,,,,,,117.5,75,M,Руслан Чучвага,1993,No,Raw,B
1,Igor Gasyuk,J,72.9,,,,,,155,165,173,173,,,,,,,173,75,M,Игорь Гасюк,1988,No,Raw,B
2,Volodymyr Dopta,J,68.8,,,,,,120,127.5,-135,127.5,,,,,,,127.5,75,M,Володимир Допта,1989,No,Raw,B
3,Oleksandr Kovtun,J,74.8,,,,,,110,115,-117.5,115,,,,,,,115,75,M,Олександр Ковтун,1991,No,Raw,B
4,Valentyn Kucheryavyy,J,73.1,,,,,,110,-115,-115,110,,,,,,,110,75,M,Валентин Кучерявий,1990,No,Raw,B
1,Sergiy Maslyuchenko,O,74.2,,,,,,165,172.5,177.5,177.5,,,,,,,177.5,75,M,Сергій Маслюченко,1985,No,Raw,B
2,Andriy Kudryavtsev,O,73,,,,,,160,170,175,175,,,,,,,175,75,M,Андрій Кудрявцев,1974,No,Raw,B
3,Igor Gasyuk,O,72.9,,,,,,155,165,173,173,,,,,,,173,75,M,Игорь Гасюк,1988,No,Raw,B
4,Anton Gaydaenko,O,73.1,,,,,,150,157.5,165,165,,,,,,,165,75,M,Антон Гайдаєнко,1986,No,Raw,B
5,Anton Kudryashov,O,73,,,,,,150,160,-167.5,160,,,,,,,160,75,M,Антон Кудряшов,1986,No,Raw,B
6,Roman Sagaydak,O,73.8,,,,,,150,160,-167.5,160,,,,,,,160,75,M,Роман Сагайдак,1983,No,Raw,B
1,Peter Kravtsov,M6,73,,,,,,110,115,120,120,,,,,,,120,75,M,,1946,No,Raw,B
2,Viktor Glushenko,M6,73.8,,,,,,107.5,115,-120,115,,,,,,,115,75,M,Віктор Глушенко,1942,No,Raw,B
1,Yuriy Khymynyuk,T2,77.5,,,,,,90,100,107.5,107.5,,,,,,,107.5,82.5,M,Юрій Химинюк,1995,No,Raw,B
2,Igor Lutsenko,T2,80.5,,,,,,95,102.5,105,105,,,,,,,105,82.5,M,Ігор Луценко,1994,No,Raw,B
1,Kostyantyn Yakymenko,J,80.8,,,,,,140,145,-155,145,,,,,,,145,82.5,M,Костянтин Якименко,1989,No,Raw,B
2,Ivan Moroz,J,82.3,,,,,,115,125,135,135,,,,,,,135,82.5,M,Іван Мороз,1990,No,Raw,B
1,Vyacheslav Modval,O,77.5,,,,,,170,177.5,185,185,,,,,,,185,82.5,M,,1985,No,Raw,B
2,Andriy Avdeev,O,80.3,,,,,,120,130,137.5,137.5,,,,,,,137.5,82.5,M,Андрій Авдеєв,1983,No,Raw,B
1,Roman Shportko,J,88.5,,,,,,230,-240,240,240,,,,,,,240,90,M,Роман Шпортко,1989,No,Raw,B
2,Volodymyr Zhilin,J,89.2,,,,,,157.5,165,167.5,167.5,,,,,,,167.5,90,M,Володимир Жилін,1988,No,Raw,B
3,Oleg Gerasymov,J,88.2,,,,,,-155,160,165,165,,,,,,,165,90,M,Олег Герасімов,1988,No,Raw,B
1,Oleg Bilym,O,89.7,,,,,,207.5,-212.5,,207.5,,,,,,,207.5,90,M,Олег Білим,1983,No,Raw,B
2,Aleksandr Soborov,O,87.8,,,,,,160,170,180,180,,,,,,,180,90,M,,1984,No,Raw,B
3,Andriy Volkov,O,89.5,,,,,,180,-187.5,,180,,,,,,,180,90,M,Андрій Волков,1987,No,Raw,B
4,Viktor Babenko,O,88.4,,,,,,135,146,-150,146,,,,,,,146,90,M,Віктор Бабенко,1963,No,Raw,B
1,Viktor Babenko,M2,88.4,,,,,,135,146,-150,146,,,,,,,146,90,M,Віктор Бабенко,1963,No,Raw,B
1,Oleg Bazilevich,O,97,,,,,,230,240,-253,240,,,,,,,240,100,M,Олег Базилевич,1982,No,Raw,B
2,Sergey Didovyk,O,99.7,,,,,,210,225,232.5,232.5,,,,,,,232.5,100,M,Сергій Дідовик,1978,No,Raw,B
3,Aleksandr Scherbakov,O,93.5,,,,,,205,215,225,225,,,,,,,225,100,M,,1966,No,Raw,B
4,Maksim Kaydan,O,98.7,,,,,,185,195,205,205,,,,,,,205,100,M,Максим Кайдан,1985,No,Raw,B
5,Igor Yekimenko,O,98,,,,,,175,182.5,187.5,187.5,,,,,,,187.5,100,M,Ігор Єкименко,1976,No,Raw,B
6,Oleg Plashkov,O,94.7,,,,,,170,175,-182.5,175,,,,,,,175,100,M,Олег Плашков,1980,No,Raw,B
7,Andriy Goncharov,O,99.9,,,,,,165,170,175,175,,,,,,,175,100,M,Андрій Гончаров,1978,No,Raw,B
DQ,Mykhailo Marchyshyn,O,97.3,,,,,,-200,-200,-200,,,,,,,,,100,M,Михайло Марчишин,1985,No,Raw,B
1,Aleksandr Scherbakov,M1,93.5,,,,,,205,215,225,225,,,,,,,225,100,M,,1966,No,Raw,B
1,Vasyl Borisov,M6,91.2,,,,,,75,80,85,85,,,,,,,85,100,M,Василь Борисов,1942,No,Raw,B
1,Sergiy Chalyy,J,102.2,,,,,,-200,200,205,205,,,,,,,205,110,M,Сергій Чалий,1989,No,Raw,B
1,Vitaliy Gerasymov,O,107.9,,,,,,235,242.5,-250,242.5,,,,,,,242.5,110,M,Віталій Герасимов,1985,No,Raw,B
2,Sergiy Polutin,O,105.4,,,,,,225,235,,235,,,,,,,235,110,M,Сергій Полутін,1975,No,Raw,B
3,Dmytro Shtankov,O,109.1,,,,,,160,170,177.5,177.5,,,,,,,177.5,110,M,Дмитро Штанков,1984,No,Raw,B
1,Sergey Gromov,M1,104.2,,,,,,180,190,200,200,,,,,,,200,110,M,Сергей Громов,1966,No,Raw,B
2,Andriy Gimbarov,M1,106.5,,,,,,150,160,170,170,,,,,,,170,110,M,Андрій Гімбаров,1966,No,Raw,B
1,Kostyantyn Dmytriev,J,116,,,,,,180,200,205,205,,,,,,,205,125,M,Костянтин Дмитрієв,1987,No,Raw,B
1,Anton Begalko,O,110.2,,,,,,235,245,255,255,,,,,,,255,125,M,Антон Бегалко,1986,No,Raw,B
2,Igor Pober,O,125,,,,,,220,230,-232.5,230,,,,,,,230,125,M,Ігор Побер,1968,No,Raw,B
3,Vitaliy Chorniy,O,123.1,,,,,,210,220,-230,220,,,,,,,220,125,M,Віталій Чорний,1984,No,Raw,B
4,Mykhailo Lupandin,O,120.5,,,,,,180,190,197.5,197.5,,,,,,,197.5,125,M,Михайло Лупандін,1977,No,Raw,B
5,Andriy Chekachkov,O,110.9,,,,,,165,175,180,180,,,,,,,180,125,M,Андрій Чекачков,1980,No,Raw,B
6,Alexander Chekachkov,O,113.5,,,,,,160,170,175,175,,,,,,,175,125,M,Александр Чекачков,1971,No,Raw,B
1,Igor Pober,M1,125,,,,,,220,225,230,230,-232.5,,,,,,230,125,M,Ігор Побер,1968,No,Raw,B
2,Alexander Chekachkov,M1,113.5,,,,,,160,170,175,175,,,,,,,175,125,M,Александр Чекачков,1971,No,Raw,B
1,Sergiy Razzhyvaikin,J,125.4,,,,,,230,235,240,240,-245,,,,,,240,140,M,Сергій Разживайкін,1989,No,Raw,B
1,Andriy Grin,O,129.9,,,,,,250,260,-270,260,,,,,,,260,140,M,Андрій Гринь,1968,No,Raw,B
2,Sergiy Razzhyvaikin,O,125.4,,,,,,230,235,240,240,-245,,,,,,240,140,M,Сергій Разживайкін,1989,No,Raw,B
3,Oleg Dolzhenko,O,126,,,,,,210,220,230,230,,,,,,,230,140,M,Олег Долженко,1973,No,Raw,B
1,Andriy Grin,M1,129.9,,,,,,250,260,-270,260,,,,,,,260,140,M,Андрій Гринь,1968,No,Raw,B
1,Oleksandr Gonchar,O,142,,,,,,250,260,270,270,,,,,,,270,140+,M,Олександр Гончар,1978,No,Raw,B
2,Sergiy Laptev,O,140.1,,,,,,150,160,-170,160,,,,,,,160,140+,M,Сергій Лаптєв,1974,No,Raw,B
1,Olexiy Gornyy,T3,59.9,,,,,,115,-125,125,125,130,,,,,,125,60,M,Олексій Горний,1992,Yes,Multi-ply,B
2,Pavel Isakov,T3,58.8,,,,,,95,-102.5,-102.5,95,,,,,,,95,60,M,Павел Исаков,1991,Yes,Multi-ply,B
1,Stanislav Chygyryns'kyy,T2,63,,,,,,65,-70,-75,65,,,,,,,65,67.5,M,Станіслав Чигиринський,1994,Yes,Multi-ply,B
1,Artem Stukalov,T3,66.2,,,,,,122.5,-130,,122.5,,,,,,,122.5,67.5,M,Артем Стукалов,1992,Yes,Multi-ply,B
DQ,Denys Rekhletskyy,T3,66.78,,,,,,-141,-141,-141,,,,,,,,,67.5,M,Денис Рехлецький,1991,Yes,Multi-ply,B
1,Vusal Gumbatov,J,66.7,,,,,,-130,130,150,150,,,,,,,150,67.5,M,Вусал Гумбатов,1989,Yes,Multi-ply,B
1,Igor Zhuk #1,J,74.8,,,,,,120,-150,-150,120,,,,,,,120,75,M,Игорь Жук,1988,Yes,Multi-ply,B
1,Roman Plakhotin,O,75,,,,,,190,200,,200,,,,,,,200,75,M,Роман Плахотін,1986,Yes,Multi-ply,B
1,Andriy Zhylenko,T3,82.3,,,,,,-175,175,-182.5,175,,,,,,,175,82.5,M,Андрій Жиленко,1991,Yes,Multi-ply,B
1,Dmytro Masnyy,J,80.9,,,,,,155,-162.5,-162.5,155,,,,,,,155,82.5,M,Дмитро Масний,1990,Yes,Multi-ply,B
1,Andriy Dyatlov,O,78.2,,,,,,190,202.5,210,210,,,,,,,210,82.5,M,Андрій Дятлов,1985,Yes,Multi-ply,B
2,Konstantin Sapunkov,O,81.1,,,,,,160,170,175,175,,,,,,,175,82.5,M,Константин Сапунков,1981,Yes,Multi-ply,B
1,Vitaliy Garkavenko,T2,88.7,,,,,,140,-150,155,155,,,,,,,155,90,M,Віталій Гаркавенко,1994,Yes,Multi-ply,B
1,Gennadiy Yazev,J,87.5,,,,,,-170,-170,170,170,,,,,,,170,90,M,Геннадій Язєв,1990,Yes,Multi-ply,B
1,Volodymyr Grammatik,O,86.8,,,,,,175,185,-190,185,,,,,,,185,90,M,Володимир Грамматік,1982,Yes,Multi-ply,B
2,Vyacheslav Shadorin,O,87.6,,,,,,175,180,-185,180,,,,,,,180,90,M,Вячеслав Шадорин,1986,Yes,Multi-ply,B
3,Dmytro Khaychenko,O,88.9,,,,,,170,180,-185,180,,,,,,,180,90,M,Дмитро Хайченко,1984,Yes,Multi-ply,B
1,Denys Kovalyov,O,97,,,,,,210,220,225,225,,,,,,,225,100,M,Денис Ковальов,1978,Yes,Multi-ply,B
2,Sergiy Shumskyy,O,93.6,,,,,,145,150,160,160,,,,,,,160,100,M,Сергій Шумський,1985,Yes,Multi-ply,B
1,Volodymyr Chygyrynskyy,M2,97.6,,,,,,155,167.5,175,175,,,,,,,175,100,M,Володимир Чигиринський,1962,Yes,Multi-ply,B
1,Vitaliy Bobchenko,O,109.8,,,,,,305.5,310,315,315,,,,,,,315,110,M,Віталій Бобченко,1979,Yes,Multi-ply,B
2,Andriy Lomnitskiy,O,109,,,,,,215,225,-240,225,,,,,,,225,110,M,Андрій Ломницький,1980,Yes,Multi-ply,B
1,Borys Kovbasyuk,M1,105.2,,,,,,175,185,-195,185,,,,,,,185,110,M,Борис Ковбасюк,1966,Yes,Multi-ply,B
2,Vyacheslav Arkhipov,M1,108.5,,,,,,160,170,177.5,177.5,,,,,,,177.5,110,M,В'ячеслав Архіпов,1970,Yes,Multi-ply,B
1,Yevgen Golovchenko,M6,105,,,,,,130,140,-150,140,,,,,,,140,110,M,Євген Головченко,1946,Yes,Multi-ply,B
1,Dmytro Sharoyko,O,120,,,,,,240,245,250,250,,,,,,,250,125,M,Дмитро Шаройко,1972,Yes,Multi-ply,B
2,Oleksandr Taranishyn,O,110.4,,,,,,-190,190,210,210,,,,,,,210,125,M,Олександр Таранішин,1982,Yes,Multi-ply,B
1,Oleksandr Shvab,O,125.3,,,,,,195,205,210,210,,,,,,,210,140,M,Олександр Шваб,1976,Yes,Multi-ply,B
DQ,Anna Kadatska,O,55.6,,,,,,-115,-115,-115,,,,,,,,,56,F,Анна Кадацька,1977,No,Multi-ply,B
1,Oleksandr Kovalenko,O,66.7,,,,,,190,202.5,-210,202.5,,,,,,,202.5,67.5,M,Олександр Коваленко,1983,No,Multi-ply,B
DQ,Igor Andrusyk,J,98.8,,,,,,-140,-140,-140,,,,,,,,,100,M,Ігор Андрусик,1988,No,Multi-ply,B
1,Roman Sagaydak,O,73.8,,,,,,190,-200,200,200,,,,,,,200,75,M,Роман Сагайдак,1983,No,Multi-ply,B
2,Anton Gaydaenko,O,73.1,,,,,,175,185,192.5,192.5,,,,,,,192.5,75,M,Антон Гайдаєнко,1986,No,Multi-ply,B
1,Roman Pichugin,T3,79,,,,,,85,95,100,100,,,,,,,100,82.5,M,Роман Пічугін,1992,No,Multi-ply,B
1,Dmytro Dragomyrov,J,77.2,,,,,,120,130,-145,130,,,,,,,130,82.5,M,Дмитро Драгомиров,1987,No,Multi-ply,B
1,Sergiy Naleykin,O,81.5,,,,,,300,-315,-315,300,,,,,,,300,82.5,M,Сергій Налейкін,1981,No,Multi-ply,B
2,Roman Klymashko,O,81.3,,,,,,180,195,-205,195,,,,,,,195,82.5,M,Роман Климашко,1986,No,Multi-ply,B
1,Volodymyr Zhilin,J,89.2,,,,,,240,250,-255,250,,,,,,,250,90,M,Володимир Жилін,1988,No,Multi-ply,B
DQ,Sergiy Ivanov,J,88.1,,,,,,-240,-240,-240,,,,,,,,,90,M,Сергій Іванов,1990,No,Multi-ply,B
1,Oleksandr Bochkaryov,O,90,,,,,,245,255,-260,255,,,,,,,255,90,M,Олександр Бочкарьов,1977,No,Multi-ply,B
2,Volodymyr Zhilin,O,89.2,,,,,,240,250,-255,250,,,,,,,250,90,M,Володимир Жилін,1988,No,Multi-ply,B
3,Dmytro Derevyanko,O,89.9,,,,,,-225,-225,225,225,,,,,,,225,90,M,Дмитро Дерев'янко,1984,No,Multi-ply,B
4,Denys Borodenko,O,88.9,,,,,,-210,210,220,220,,,,,,,220,90,M,Денис Бороденко,1981,No,Multi-ply,B
5,Viktor Babenko,O,88.4,,,,,,176,180,-185,180,,,,,,,180,90,M,Віктор Бабенко,1963,No,Multi-ply,B
DQ,Sergiy Ivanov,O,88.1,,,,,,-240,-240,-240,,,,,,,,,90,M,Сергій Іванов,1990,No,Multi-ply,B
1,Valery Poryadin,M1,89.8,,,,,,140,-150,-150,140,,,,,,,140,90,M,Валерий Порядин,1966,No,Multi-ply,B
1,Viktor Babenko,M2,88.4,,,,,,176,180,-185,180,,,,,,,180,90,M,Віктор Бабенко,1963,No,Multi-ply,B
2,Igor Shubin,M2,85.9,,,,,,130,,,130,,,,,,,130,90,M,Ігор Шубін,1964,No,Multi-ply,B
1,Oleksandr Dorgobuzov,J,94.2,,,,,,260,270,-280,270,,,,,,,270,100,M,Олександр Доргобузов,1988,No,Multi-ply,B
2,Ivan Malovychko,J,90.8,,,,,,180,190,-200,190,,,,,,,190,100,M,Іван Маловичко,1990,No,Multi-ply,B
1,Sergey Didovyk,O,99.7,,,,,,290,300,-310,300,,,,,,,300,100,M,Сергій Дідовик,1978,No,Multi-ply,B
2,Oleksandr Kucher,O,96,,,,,,280,-300,-302.5,280,,,,,,,280,100,M,Олександр Кучер,1985,No,Multi-ply,B
3,Oleksandr Dorgobuzov,O,94.2,,,,,,260,270,-280,270,,,,,,,270,100,M,Олександр Доргобузов,1988,No,Multi-ply,B
5,Maksim Kaydan,O,98.7,,,,,,210,222.5,232.5,232.5,,,,,,,232.5,100,M,Максим Кайдан,1985,No,Multi-ply,B
6,Sergiy Yasynskyy,O,99.7,,,,,,190,200,210,210,,,,,,,210,100,M,Сергій Ясинський,1984,No,Multi-ply,B
7,Oleg Zhulynskyy,O,95.1,,,,,,-190,190,-200,190,,,,,,,190,100,M,Олег Жулинський,1980,No,Multi-ply,B
1,Anton Begalko,O,109.8,,,,,,310,320,-325,320,,,,,,,320,110,M,Антон Бегалко,1986,No,Multi-ply,B
2,Stanislav Nikolaenko,O,109.9,,,,,,-240,240,-252.5,240,,,,,,,240,110,M,Станіслав Ніколаєнко,1978,No,Multi-ply,B
DQ,Vitaliy Umrykhin,O,101.9,,,,,,-235,-235,-235,,,,,,,,,110,M,Віталій Умрихін,1984,No,Multi-ply,B
1,Sergey Gromov,M1,104.2,,,,,,250,260,265,265,,,,,,,265,110,M,Сергей Громов,1966,No,Multi-ply,B
1,Fedir Verboviy,O,113.3,,,,,,260,-270,-270,260,,,,,,,260,125,M,Федір Вербовий,1973,No,Multi-ply,B
2,Vladyslav Fesun,O,112.2,,,,,,220,-230,230,230,,,,,,,230,125,M,Владислав Фесун,1967,No,Multi-ply,B
3,Alexander Chekachkov,O,113.5,,,,,,200,210,220,220,,,,,,,220,125,M,Александр Чекачков,1971,No,Multi-ply,B
4,Andriy Chekachkov,O,110.9,,,,,,200,-210,,200,,,,,,,200,125,M,Андрій Чекачков,1980,No,Multi-ply,B
DQ,Vitaliy Chorniy,O,123.1,,,,,,-280,,,,,,,,,,,125,M,Віталій Чорний,1984,No,Multi-ply,B
DQ,Sergiy Polutin,O,110.1,,,,,,,,,,,,,,,,,125,M,Сергій Полутін,1975,No,Multi-ply,B
1,Vladyslav Fesun,M1,112.2,,,,,,220,-230,230,230,,,,,,,230,125,M,Владислав Фесун,1967,No,Multi-ply,B
2,Alexander Chekachkov,M1,113.5,,,,,,200,210,220,220,,,,,,,220,125,M,Александр Чекачков,1971,No,Multi-ply,B
DQ,Oleksandr Blagovidov,M1,117,,,,,,-265,-265,-265,,,,,,,,,125,M,Олександр Благовидов,1971,No,Multi-ply,B
1,Sergiy Laptev,O,139.1,,,,,,155,,,155,,,,,,,155,140,M,Сергій Лаптєв,1974,No,Multi-ply,B
1,Aleksey Lisogor,O,151,,,,,,250,-290,-300,250,,,,,,,250,140+,M,Алексей Лисогор,1986,No,Multi-ply,B
