Place,Name,WeightClassKg,Sex,Event,Equipment,Tested,Division,BirthDate,BirthYear,BodyweightKg,Squat1Kg,Squat2Kg,Squat3Kg,Best3SquatKg,Squat4Kg,Bench1Kg,Bench2Kg,Bench3Kg,Best3BenchKg,Bench4Kg,Deadlift1Kg,Deadlift2Kg,Deadlift3Kg,Best3DeadliftKg,Deadlift4Kg,TotalKg
1,Alevtina Belykh,44,F,SBD,Wraps,Yes,16-17,1994-05-01,,43.8,-45,45,52.5,52.5,,22.5,27.5,-30,27.5,,50,55.5,60.5,60.5,62.5,140
1,Anna Gamajunova,44,F,SBD,Wraps,Yes,Open,1986-04-20,,41.75,40,50,55,55,,30,35,40,40,-42.5,45,55,60,60,,155
1,Oksana Rumjantseva,52,F,SBD,Wraps,Yes,Open,1978-11-01,,52,-100,100,105,105,,45,47.5,-50,47.5,,115,120,127.5,127.5,,280
2,Oksana Koveza,52,F,SBD,Wraps,Yes,Open,1976-01-21,,50.25,77.5,-80,-80,77.5,,57.5,60,62.5,62.5,,115,122.5,132.5,132.5,,272.5
3,Olesja Korotaeva,52,F,SBD,Wraps,Yes,Open,1983-03-22,,50.85,52.5,-57.5,-60,52.5,,32.5,-37.5,40,40,,85,-92.5,100,100,,192.5
1,Lilija Mjazhitova,56,F,SBD,Wraps,Yes,16-17,1993-04-29,,55.9,45,50,55,55,,30,37.5,-40,37.5,,-80,95,-105,95,,187.5
1,Natalija Petrienko,56,F,SBD,Wraps,Yes,20-23,1989-11-15,,55,65,75,-82.5,75,,35,40,-42.5,40,,75,85,-93,85,,200
1,Svetlana Maletskaja,56,F,SBD,Wraps,Yes,Open,1983-06-04,,55,-80,80,-85.5,80,,-55,55,-57.5,55,,-112.5,-117.5,117.5,117.5,,252.5
1,Tat'jana Muromtseva,60,F,SBD,Wraps,Yes,20-23,1989-12-15,,59.7,95,-100,-100,95,,55,62.5,-65,62.5,,95,-100,102.5,102.5,,260
1,Tat'jana Mazaeva,60,F,SBD,Wraps,Yes,Open,1977-12-02,,58.3,95,100,102.5,102.5,,67.5,72.5,-75,72.5,,120,130,135,135,,310
2,Julija Sivak,60,F,SBD,Wraps,Yes,Open,1983-02-25,,57.75,67.5,75,77.5,77.5,,42.5,45,47.5,47.5,,105,112.5,115,115,,240
DQ,Galina Kalinina,60,F,SBD,Wraps,Yes,Open,1981-10-29,,59.7,-95,95,100,100,,-57.5,-57.5,-57.5,,,,,,,,
1,Nina Savel'eva,67.5,F,SBD,Wraps,Yes,Open,1973-03-16,,67.4,110,115,120,120,,-90,92.5,97.5,97.5,-100,110,120,130,130,,347.5
2,Alena Sokolova,67.5,F,SBD,Wraps,Yes,Open,1977-03-20,,66.5,85,95,-105,95,,67.5,-72.5,72.5,72.5,,120,130,140,140,,307.5
1,Elizaveta Sprogis,90,F,SBD,Wraps,Yes,Open,1977-08-24,,85.75,-95,-95,95,95,,60,-65,65,65,,122.5,127.5,130,130,,290
1,Vladislav Karpov,52,M,SBD,Wraps,Yes,13-15,1996-06-08,,52,70,77.5,82.5,82.5,,50,55,57.5,57.5,,95,106,107.5,107.5,,247.5
1,Dmitrij Kucherjavenko,52,M,SBD,Wraps,Yes,16-17,1994-04-18,,48.6,65,70,75,75,,42.5,47.5,-50,47.5,,100,115,-125,115,,237.5
1,Astemir Abazov,52,M,SBD,Wraps,Yes,20-23,1989-07-24,,46.5,60,70,77.5,77.5,80,50,55,57.5,57.5,,80,95,105,105,107.5,240
1,Nikolay Grachev,52,M,SBD,Wraps,Yes,50-54,1956-04-16,,49.2,82.5,85,87.5,87.5,,62.5,65,67.5,67.5,,122.5,127.5,130,130,,285
1,Nikolay Grachev,52,M,SBD,Wraps,Yes,Open,1956-04-16,,49.2,82.5,85,87.5,87.5,,62.5,65,67.5,67.5,,122.5,127.5,130,130,,285
2,Astemir Abazov,52,M,SBD,Wraps,Yes,Open,1989-07-24,,46.5,60,70,77.5,77.5,80,50,55,57.5,57.5,,80,95,105,105,107.5,240
1,Dzhamaladin Umashev,56,M,SBD,Wraps,Yes,18-19,1992-07-16,,53.7,-110,110,120,120,,70,80,-85,80,,170,-180,180,180,,380
1,Anton Zlobin,56,M,SBD,Wraps,Yes,20-23,1987-08-30,,55.7,-90,90,110,110,,70,80,,80,,140,150,160,160,,350
1,Nikolaj Vanichev,56,M,SBD,Wraps,Yes,Open,1978-10-09,,56,115,125,135,135,,105,-115,-115,105,,170,185,-200,185,,425
1,Kubatbek Kubanychbekov,60,M,SBD,Wraps,Yes,16-17,1993-10-25,,58.1,100,110,-120,110,,60,-70,-70,60,,150,170,180,180,,350
2,Evgenij Dragan,60,M,SBD,Wraps,Yes,16-17,1993-05-29,,58.95,-110,110,-120,110,,80,-87.5,-87.5,80,,150,160,-170,160,,350
1,Azamat Alymbek,60,M,SBD,Wraps,Yes,18-19,1992-04-27,,58.5,120,-130,140.5,140.5,,-95,95,-98,95,,-175,175,190,190,,425
2,Ali Umashev Bajram,60,M,SBD,Wraps,Yes,18-19,1991-04-16,,57.5,-120,120,130,130,-140.5,75,85,95,95,,170,-180,-180,170,,395
1,Narek Ispirjan,60,M,SBD,Wraps,Yes,20-23,1989-07-09,,59.9,135,145,-150,145,,100,105,110,110,,-185,190,205,205,,460
2,Igor Kuznetsov,60,M,SBD,Wraps,Yes,20-23,1989-08-17,,59.55,135,-142.5,147.5,147.5,,90,95,100,100,,170,185,-197.5,185,,432.5
3,Vitalij Orlov,60,M,SBD,Wraps,Yes,20-23,1986-09-24,,57.55,90,105,110,110,,80,,-90,80,,110,120,130,130,,320
1,Maksim Sukhobok,60,M,SBD,Wraps,Yes,45-49,1965-01-01,,58.7,135,150.5,,150.5,,90,95,,95,,175,-188,-188,175,,420
1,Aleksandr Dambinov,60,M,SBD,Wraps,Yes,70-74,1936-03-12,,58.7,80,-90,-90,80,,62.5,65,-67.5,65,,145,-150,-150,145,,290
1,Maksim Sukhobok,60,M,SBD,Wraps,Yes,Open,1965-01-01,,58.7,135,150.5,,150.5,,90,95,,95,,175,-188,-188,175,,420
2,Dzhakhid Sattarov,60,M,SBD,Wraps,Yes,Open,1986-04-15,,59.6,140,145,-147.5,145,,110,115,,115,,-145,145,160,160,,420
1,Artem Ulanov,67.5,M,SBD,Wraps,Yes,13-15,1996-01-09,,66.6,85,-95,-100,85,,50,,-55,50,,110,115,120,120,,255
1,Edgar Gasparjan,67.5,M,SBD,Wraps,Yes,18-19,1992-08-09,,66.35,130,140,155,155,,125,-130,,125,,165,180,200,200,,480
1,Petr Kucherjavykh,67.5,M,SBD,Wraps,Yes,20-23,1988-10-19,,65.75,-150,150,160.5,160.5,,95,102.5,105,105,,200,212.5,222.5,222.5,,487.5
2,Ravshanbek Abdrashit,67.5,M,SBD,Wraps,Yes,20-23,1990-05-25,,66.55,150,160,-165,160,,110,115.5,-120,115.5,,200,212.5,-216,212.5,,487.5
3,Aleksej Golovko,67.5,M,SBD,Wraps,Yes,20-23,1988-06-29,,64.9,110,120,130,130,,80,90,-100,90,,140,180,-185.5,180,,400
1,Vladimir Lobachev,67.5,M,SBD,Wraps,Yes,65-69,1941-05-10,,67,100,110,-120,110,,75,85,-91,85,,140,152.5,155,155,,350
1,Jurij Kiselev,67.5,M,SBD,Wraps,Yes,70-74,1937-11-12,,64.9,95,-110,110,110,,65,72.5,77.5,77.5,,-140,160,175,175,,362.5
1,Vladimir Bakajsa,67.5,M,SBD,Wraps,Yes,Open,1985-02-18,,67.4,150,155,162.5,162.5,,115,120,-122.5,120,,220,227.5,232.5,232.5,-235,515
2,Sergej Perevalov,67.5,M,SBD,Wraps,Yes,Open,1966-08-01,,66.8,-150,-155,160,160,,125,-135,135,135,,170,180,-190,180,,475
3,Maksim Tovstonog,67.5,M,SBD,Wraps,Yes,Open,1983-06-05,,66.35,130,140,-145,140,,-110,110,115,115,,160,180,-195,180,,435
1,Ruslan Olekhov,75,M,SBD,Wraps,Yes,16-17,1994-03-22,,72.9,147.5,152.5,157.5,157.5,,97.5,-102.5,105,105,,157.5,165,170,170,,432.5
1,Sergej Komyshev,75,M,SBD,Wraps,Yes,18-19,1991-05-17,,74.6,170,180,-185,180,,140,145,-150.5,145,,230,240,-245,240,,565
2,Vladimir Babin,75,M,SBD,Wraps,Yes,18-19,1992-08-09,,73.1,180,-185,-185,180,,107.5,112.5,115,115,,252.5,260,-265,260,,555
3,Ivan Arshinov,75,M,SBD,Wraps,Yes,18-19,1991-09-04,,74.8,165,175,185,185,,140,150,155,155,,200,210,-215,210,,550
4,Andrej Pigarev,75,M,SBD,Wraps,Yes,18-19,1991-03-12,,70.3,180,190,-195,190,,100,105,-110,105,,200,210,-215,210,,505
5,Betal Gubzhev,75,M,SBD,Wraps,Yes,18-19,1992-07-13,,73.85,155,-165,-170,155,,85,-92.5,-92.5,85,,190,200,-210,200,,440
DQ,Aleksej Vistorobskij,75,M,SBD,Wraps,Yes,18-19,1992-05-18,,73.15,-105,-105,-105,,,,,,,,,,,,,
1,Denis Kulikov,75,M,SBD,Wraps,Yes,20-23,1987-10-03,,75,195,205,-210,205,,135,140,145,145,,205,215,-220,215,,565
2,Murat Shibzukhov,75,M,SBD,Wraps,Yes,20-23,1987-10-12,,72.15,185,200,-202.5,200,,130,135,-137.5,135,,200,-220,-220,200,,535
3,Mikhail Jakovenko,75,M,SBD,Wraps,Yes,20-23,1988-07-08,,69.15,130,140,-150,140,,-85,85,-95,85,,180,190,200,200,,425
1,Vladimir Prjazhentsev,75,M,SBD,Wraps,Yes,40-44,1965-12-04,,72.4,177.5,-187.5,,177.5,,115,-125,,115,,190,215,-223,215,,507.5
1,Igor' Parasceva,75,M,SBD,Wraps,Yes,45-49,1964-03-31,,74.4,160,170,175,175,,110,-115,,110,,180,200,-210,200,,485
1,Andrej Konovalenko,75,M,SBD,Wraps,Yes,Open,1982-08-20,,74.2,197.5,202.5,205,205,,130,135,-137.5,135,,210,215,220,220,,560
2,Mikhail Glotov,75,M,SBD,Wraps,Yes,Open,1980-12-04,,74.4,160,170,-175,170,,110,-115,115,115,,-190,190,205,205,,490
3,Artur Abramov,75,M,SBD,Wraps,Yes,Open,1981-07-22,,74.3,-150,150,-160,150,,90,-100,-100,90,,150,160,180,180,,420
DQ,Aleksandr Sadovnikov,75,M,SBD,Wraps,Yes,Open,1983-01-25,,73.4,-140,-160,,,,,,,,,,,,,,
1,Artur Korchagin,82.5,M,SBD,Wraps,Yes,16-17,1981-07-22,,76.2,140,-150,150,150,,100,105,-110,105,,180,190,-200,190,,445
1,Nikolaj Balugin,82.5,M,SBD,Wraps,Yes,20-23,1987-07-24,,76.1,165,172.5,-177.5,172.5,,120,125,-127.5,125,,190,200,210,210,,507.5
2,Vladimir Gumennyj,82.5,M,SBD,Wraps,Yes,20-23,1987-08-19,,79.3,155,165,-175,165,,110,-122.5,-122.5,110,,205,215,222.5,222.5,,497.5
3,Sergej Gurkovskij,82.5,M,SBD,Wraps,Yes,20-23,1990-08-17,,75.5,160,165,-170,165,,100,,,100,,-180,180,-200,180,,445
1,Konstantin Bazhin,82.5,M,SBD,Wraps,Yes,40-44,1967-07-26,,78.8,130,140,-145,140,,95,-105,-105,95,,165,175,190,190,,425
DQ,Vjacheslav Chevordaev,82.5,M,SBD,Wraps,Yes,60-64,1948-04-06,,82,175,185,-195,185,,90,-95,,90,,-210,-222.5,-222.5,,,
1,Vladimir Tkachenko,82.5,M,SBD,Wraps,Yes,65-69,1945-07-18,,79.75,-160,170,185,185,,95,102.5,-105,102.5,,185,195,-200,195,,482.5
2,Valerij Antipov,82.5,M,SBD,Wraps,Yes,65-69,1943-11-07,,80,120,-130,-130,120,,-90,-90,90,90,,135,142.5,,142.5,,352.5
1,Andrej Mochalov,82.5,M,SBD,Wraps,Yes,Open,1974-06-26,,82.5,215,225,235,235,,92.5,102.5,-112.5,102.5,,260,280,285,285,,622.5
2,Andrej Omel'chenko,82.5,M,SBD,Wraps,Yes,Open,1981-09-09,,82,210,220,230,230,,150,155,-160,155,,220,235,-245,235,,620
3,Aleksandr Novikov,82.5,M,SBD,Wraps,Yes,Open,1985-03-10,,79,180,195,-200,195,,-130,130,135,135,,220,225,230,230,,560
4,Aleksandr Leonidov,82.5,M,SBD,Wraps,Yes,Open,1981-09-05,,82.5,180,190,-200,190,,125,130,-132.5,130,,205,220,-242.5,220,,540
5,Konstantin Zhekov,82.5,M,SBD,Wraps,Yes,Open,1972-10-26,,82.4,170,180,185,185,,125,130,-135,130,,200,207.5,212.5,212.5,,527.5
1,Kirill Khvostov,90,M,SBD,Wraps,Yes,13-15,1995-08-26,,88.6,110,125,-130,125,,75,-82.5,-82.5,75,,-140,150,160,160,,360
1,Artur Kodzhojan,90,M,SBD,Wraps,Yes,18-19,1991-12-17,,89.35,-185,-195,195,195,,120,127.5,,127.5,,240,-252.5,-252.5,240,,562.5
1,Konstantin Kozlov,90,M,SBD,Wraps,Yes,20-23,1990-01-03,,86.45,135,-145,-150,135,,87.5,95,,95,,155,165,-170,165,,395
1,Sergej Talalaev,90,M,SBD,Wraps,Yes,40-44,1968-09-07,,88.5,160,165,-170,165,,130,-137.5,137.5,137.5,,180,195,-200,195,,497.5
2,Valerij Sytnikov,90,M,SBD,Wraps,Yes,40-44,1970-02-28,,87.6,145,152.5,160,160,,110,-120,125,125,,-180,190,210,210,,495
3,Bakhtijar Mukhametov,90,M,SBD,Wraps,Yes,40-44,1970-02-18,,88.65,-120,130,-160,130,,142.5,150,-155,150,,-185,195.5,-220,195.5,,475
1,Aleksandr Leontev,90,M,SBD,Wraps,Yes,45-49,1961-01-24,,89.8,215,220,,220,,-145,145,,145,,215,225,236,236,,601
2,Eduard Tarasov,90,M,SBD,Wraps,Yes,45-49,1962-08-12,,89.05,105,120,132.5,132.5,,105,115,-117.5,115,,155,170,-177.5,170,,417.5
1,Nikolaj Dobrokhotov,90,M,SBD,Wraps,Yes,50-54,1957-09-04,,88.35,170,175,182.5,182.5,,130,135,140,140,,210,-217.5,-217.5,210,,532.5
1,Igor' Nesterov,90,M,SBD,Wraps,Yes,55-59,1953-04-20,,88.4,170,180,182.5,182.5,,115,-120,-120,115,,170,180,190,190,,487.5
1,Valerij Litovchenko,90,M,SBD,Wraps,Yes,60-64,1948-06-23,,88.75,135,145,155,155,,75,80,-82.5,80,,165,180,-190,180,,415
1,Vjacheslav Yakushov,90,M,SBD,Wraps,Yes,65-69,1941-07-13,,82.6,140,150,155,155,,90,95,,95,,180,-190,,180,,430
1,Nikolaj Zhukov,90,M,SBD,Wraps,Yes,Open,1978-10-16,,88.7,240,252.5,260,260,,170,-177.5,-177.5,170,,260,-275,-280,260,,690
2,Aleksej Golionko,90,M,SBD,Wraps,Yes,Open,1979-07-25,,90,220,-240,-240,220,,170,175,180,180,,242.5,255,-265,255,,655
3,Denis Astakhov,90,M,SBD,Wraps,Yes,Open,1984-05-21,,88.4,-240,-245,245,245,,-135,135,-137.5,135,,260,-265,,260,,640
4,Pavel Bychkov,90,M,SBD,Wraps,Yes,Open,1975-08-19,,89.3,185,-190,190,190,,135,137.5,-140,137.5,,-215,-222.5,222.5,222.5,,550
1,Georgij Zaborovskij,100,M,SBD,Wraps,Yes,18-19,1992-03-01,,92.45,200,210,215,215,,150,160,170,170,,220,240,-260,240,,625
1,Sergej Razudalov,100,M,SBD,Wraps,Yes,20-23,1990-06-11,,96.4,230,245,255,255,,180,200,205,205,,250,270,290,290,,750
2,Andrej Poberezhnyj,100,M,SBD,Wraps,Yes,20-23,1986-09-06,,99.15,-220,220,-230,220,,160,167.5,,167.5,,270,280,290,290,,677.5
3,Sergej Georgiev,100,M,SBD,Wraps,Yes,20-23,1987-01-18,,95.85,220,230,240,240,,150,-155,,150,,-240,240,250,250,,640
4,Oleg Dogadin,100,M,SBD,Wraps,Yes,20-23,1989-07-21,,99.2,-210,-210,210,210,,140,147.5,-155,147.5,,240,260,-285,260,,617.5
5,Kirill Lomanov,100,M,SBD,Wraps,Yes,20-23,1987-07-15,,97.75,160,170,-182.5,170,,117.5,-122.5,,117.5,,220,-235,,220,,507.5
1,Igor Dolmatov,100,M,SBD,Wraps,Yes,50-54,1958-05-08,,98.9,170,180,-190,180,,110,-115,120,120,,170,-190,-195,170,,470
1,Vladimir Balakirev,100,M,SBD,Wraps,Yes,60-64,1948-01-08,,96.2,150,160,,160,,-115,115,,115,,160,170,175,175,,450
1,Pavel Cheredov,100,M,SBD,Wraps,Yes,Open,1984-10-02,,96.2,200,210,225,225,,190,195,200,200,,250,260,265,265,,690
2,Andrej Poberezhnyj,100,M,SBD,Wraps,Yes,Open,1986-09-06,,99.15,-220,220,-230,220,,160,167.5,,167.5,,270,280,290,290,,677.5
3,Maksim Makarov,100,M,SBD,Wraps,Yes,Open,1985-03-03,,97.1,220,235,-240,235,,170,180,-185,180,,210,230,245,245,,660
1,Bogdan Boiko,110,M,SBD,Wraps,Yes,16-17,1992-11-24,,109.9,120,-155,-155,120,,110,-120,120,120,,-175,175,-200,175,,415
1,Il'ja Dukorskij,110,M,SBD,Wraps,Yes,18-19,1987-09-23,,100.5,170,185,-201,185,,135,145,-155,145,,220,230,,230,,560
1,Vladimir Chernyshov,110,M,SBD,Wraps,Yes,60-64,1948-09-04,,108.6,170,180,-185,180,,95,102.5,107.5,107.5,,185,195,-202.5,195,,482.5
1,Aleksandr Grekhnev,110,M,SBD,Wraps,Yes,Open,1980-03-28,,107.2,230,245,-250,245,,177.5,190,-200,190,,290,300,310,310,,745
2,Andrej Fedoseev,110,M,SBD,Wraps,Yes,Open,1974-03-03,,109.3,225,235,-242.5,235,,175,185,190.5,190.5,,260,273,-275,273,,698.5
3,Nikolaj Egorov,110,M,SBD,Wraps,Yes,Open,1978-07-28,,105.1,170,180,185,185,,155,165,170,170,,185,,200,200,,555
1,Aleksej Oleshko,110,M,SBD,Wraps,Yes,Open,1980-06-03,,106.4,-165,170,-182.5,170,,150,155,-162.5,155,,190,202.5,-210,202.5,,527.5
1,Igor Ziganchin,125,M,SBD,Wraps,Yes,50-54,1960-06-23,,120.4,240,250,257.5,257.5,,175,182.5,187.5,187.5,,245,260,270,270,,715
1,Aleksandr Zajtsev,125,M,SBD,Wraps,Yes,Open,1980-04-06,,115.7,260,290,300,300,,200,210,-220,210,,280,300,-310,300,,810
2,Nikolaj Krasotkin,125,M,SBD,Wraps,Yes,Open,1981-12-07,,123.4,240,255,262.5,262.5,,135,142.5,-150,142.5,,270,285,295,295,,700
3,Evgenij Kiselev,125,M,SBD,Wraps,Yes,Open,1978-06-04,,117.5,230,-250,,230,,180,190,-192.5,190,,240,,250,250,,670
DQ,Aslanbek Kushkhov,125,M,SBD,Wraps,Yes,Open,1984-05-16,,123.5,270,280,-285,280,,215,232.5,237.5,237.5,,-285,-285,-285,,,
1,Aleksandr Burlakov,140,M,SBD,Wraps,Yes,50-54,1959-01-07,,126.6,185,195,205,205,,-155,155,162.5,162.5,,180,190,200,200,,567.5
DD,Aleksandr Esaulov,140,M,SBD,Wraps,Yes,Open,1982-02-08,,125.2,220,240,260,260,,165,180,-190,180,,260,280,-300,280,,
DQ,Vladimir Glotov,140,M,SBD,Wraps,Yes,Open,1975-07-22,,128.2,215,230,245,245,,170,180,-190,180,,-220,,-250,,,
1,Irina Dudyreva,48,F,SBD,Multi-ply,Yes,Open,1990-04-15,,47.1,100,110,-117.5,110,,70,75,80,80,,-110,110,120,120,,310
1,Nadezhda Davidova,56,F,SBD,Multi-ply,Yes,40-44,1968-08-21,,54.5,95,100,-105,100,,47.5,52.5,-55,52.5,,110,120,-122.5,120,,272.5
1,Julija Nikitchenko,67.5,F,SBD,Multi-ply,Yes,Open,1981-01-17,,64.1,-125,135,-142.5,135,,72.5,77.5,-82.5,77.5,,130,-140,-140,130,,342.5
1,Il'ja Zubakin,56,M,SBD,Multi-ply,Yes,13-15,1996-09-15,,52.5,75,85,100,100,,55,60,62.5,62.5,,90,107.5,120,120,,282.5
1,Aleksej Surkhaev,56,M,SBD,Multi-ply,Yes,16-17,1993-12-26,,55.6,155,165,175,175,,100,-110,-110,100,,160,170,172.5,172.5,,447.5
1,Vitalij Mikhin,60,M,SBD,Multi-ply,Yes,16-17,1993-12-11,,59.4,145,160,-170.5,160,,90,95,100,100,,170,190.5,,190.5,,450
1,Azamat Alymbek,60,M,SBD,Multi-ply,Yes,18-19,1992-04-27,,58.6,180,190,,190,,85,102.5,107.5,107.5,,-200,200,,200,,497.5
2,Kubatbek Kubanychbekov,60,M,SBD,Multi-ply,Yes,18-19,1993-10-25,,58.1,-160,160,175,175,,80,85,,85,,175,185,190,190,,450
1,Petr Kucherjavykh,67.5,M,SBD,Multi-ply,Yes,20-23,1988-10-19,,65,200,220,-230.5,220,,130,-140,-140,130,,220,-235,235,235,,585
2,Ravshanbek Abdrashit,67.5,M,SBD,Multi-ply,Yes,20-23,1990-05-25,,67.3,190,210,225,225,228,120,133,137.5,137.5,,-220,220,-227.5,220,,582.5
DQ,Aleksandr Rek,67.5,M,SBD,Multi-ply,Yes,20-23,1987-07-13,,65.4,-225,-225,-232.5,,,,,,,,,,,,,
DQ,Zaur Gusenov,67.5,M,SBD,Multi-ply,Yes,20-23,,,67.2,-240,-240,-240,,,,,,,,,,,,,
1,Jurij Kiselev,67.5,M,SBD,Multi-ply,Yes,70-74,1937-11-12,,64.9,100,125,,125,,70,80,,80,,140,160,,160,,365
1,Igor' Filipov,67.5,M,SBD,Multi-ply,Yes,Open,1984-10-05,,66.9,160,170,-177.5,170,,-100,100,-110,100,,190,205,-212.5,205,,475
DQ,Zaur Gusenov,67.5,M,SBD,Multi-ply,Yes,Open,,1986,67.2,-240,-240,-240,,,,,,,,,,,,,
1,Sergej Komyshev,75,M,SBD,Multi-ply,Yes,18-19,1991-05-17,,74.6,220,235,,235,,-160,160,170,170,,240,250,265,265,,670
2,Alexander Karpenko,75,M,SBD,Multi-ply,Yes,18-19,1992-04-25,,75,-245,-245,245,245,,170,177.5,-182.5,177.5,,230,237.5,247.5,247.5,,670
3,Dmitrij Yakovlev,75,M,SBD,Multi-ply,Yes,18-19,1992-02-11,,70.9,230,-240,-240,230,,125,135,140,140,,200,-220,-220,200,,570
1,Sapatbaj Kurbanbekov,75,M,SBD,Multi-ply,Yes,20-23,1989-09-11,,67.6,190,200,-210,200,,90,115,-125,115,,-180,,180,180,,495
1,Alexander Karpenko,75,M,SBD,Multi-ply,Yes,Open,1992-04-25,,75,250,260,-270,260,,175,180,-185,180,,230,237.5,247.5,247.5,,687.5
2,Andrej Djatlov,75,M,SBD,Multi-ply,Yes,Open,1981-03-12,,73,250,260,-270,260,,170,177.5,-182.5,177.5,,220,-232.5,-232.5,220,,657.5
1,Georgiy Lazaridi,82.5,M,SBD,Multi-ply,Yes,75-79,1933-08-18,,78.5,170,-180,180,180,,85,-90,90,90,,180,190,,190,,460
1,Andrej Mochalov,82.5,M,SBD,Multi-ply,Yes,Open,1974-06-26,,82.5,250,280,305,305,,110,120,130,130,,250,-275,275,275,,710
2,Sergej Vorob''ev,82.5,M,SBD,Multi-ply,Yes,Open,1977-11-15,,81.2,150,160,170,170,,85,-100,100,100,,-180,180,-200,180,,450
1,Bakhtijar Mukhametov,90,M,SBD,Multi-ply,Yes,40-44,1970-02-18,,89.1,100,,,100,,-100,100,,100,,100,,,100,,300
1,Aleksej Golionko,90,M,SBD,Multi-ply,Yes,Open,1979-07-25,,90,240,260,280,280,,210,220,230,230,,245,260,-270,260,,770
1,Rushan Sulejmanov,100,M,SBD,Multi-ply,Yes,18-19,1990-10-10,,92.8,140,160,170,170,,100,-105,-105,100,,-150,-150,150,150,,420
1,Vasilij Fursa,100,M,SBD,Multi-ply,Yes,Open,1979-08-05,,90.5,260,280,-300.5,280,,-175,175,-185,175,,-245,245,255,255,,710
2,Dmitrij Kurinov,100,M,SBD,Multi-ply,Yes,Open,1974-04-08,,90.5,250,260,270,270,-280.5,150,-160,-160,150,,250,260,265,265,,685
1,Stanislav Moskalenko,110,M,SBD,Multi-ply,Yes,16-17,1992-11-13,,104.8,-280,280,-300,280,,190,200,210,210,,-240,240,260,260,-280,750
DQ,Oleg Zverev,110,M,SBD,Multi-ply,Yes,Open,1974-05-20,,105.4,255,270,280,280,,-215,-215,-215,,,,,,,,
1,Vladimir Blinkov,125,M,SBD,Multi-ply,Yes,Open,1978-11-03,,117.3,350,-365,,350,,235,,,235,,285,300,-315,300,,885
1,Aleksandr Esaulov,140,M,SBD,Multi-ply,Yes,Open,1982-02-08,,125.2,220,250,270,270,,165,175,-185,175,,270,285,,285,,730
2,Denis Makeev,140,M,SBD,Multi-ply,Yes,Open,1983-04-22,,127.7,-210,210,220,220,,160,170,175,175,,260,265,,265,,660
1,Marija Lapshova,44,F,B,Raw,Yes,18-19,1991-03-19,,43.3,,,,,,45,-50,50,50,,,,,,,50
1,Ekaterina Obrazumova,44,F,B,Raw,Yes,20-23,1987-08-29,,44,,,,,,47.5,-52.5,52.5,52.5,,,,,,,52.5
1,Irina Pokornaja,44,F,B,Raw,Yes,Open,1977-09-11,,43.5,,,,,,55,60,,60,,,,,,,60
2,Anna Gamajunova,44,F,B,Raw,Yes,Open,1986-04-20,,42,,,,,,32.5,37.5,-40,37.5,,,,,,,37.5
1,Marija Djukova,48,F,B,Raw,Yes,Open,1984-06-18,,46.9,,,,,,50,55,-57.5,55,,,,,,,55
1,Olga Isakova,52,F,B,Raw,Yes,16-17,1994-07-20,,51.1,,,,,,52.5,57.5,-60,57.5,,,,,,,57.5
1,Julija Tarasova,52,F,B,Raw,Yes,Open,1973-09-12,,52,,,,,,67.5,72.5,-75,72.5,,,,,,,72.5
2,Oksana Koveza,52,F,B,Raw,Yes,Open,1976-01-21,,50.5,,,,,,57.5,-60,62.5,62.5,,,,,,,62.5
3,Natalija Bubenschikova,52,F,B,Raw,Yes,Open,1973-09-07,,49.5,,,,,,57.5,-62.5,-62.5,57.5,,,,,,,57.5
4,Olga Sittsova,52,F,B,Raw,Yes,Open,1982-11-16,,50.5,,,,,,52.5,55,-57.5,55,,,,,,,55
1,Alena Sotnikova,56,F,B,Raw,Yes,20-23,1989-08-29,,55.7,,,,,,40,-47.5,-47.5,40,,,,,,,40
1,Nadezhda Vlasova,56,F,B,Raw,Yes,Open,1982-03-24,,53.8,,,,,,50,52.5,-55,52.5,,,,,,,52.5
2,Tat'jana Solonenko,56,F,B,Raw,Yes,Open,1981-05-20,,54.1,,,,,,-45,47.5,-52.5,47.5,,,,,,,47.5
1,Dar'ja Golomazova,60,F,B,Raw,Yes,20-23,1988-04-15,,57.9,,,,,,57.5,-62.5,-62.5,57.5,,,,,,,57.5
1,Anastasija Rakcheeva,60,F,B,Raw,Yes,Open,1971-01-19,,59.2,,,,,,85,90,-95,90,,,,,,,90
2,Anastasija Yablonskaja,60,F,B,Raw,Yes,Open,1989-04-22,,59.6,,,,,,77.5,-82.5,82.5,82.5,,,,,,,82.5
1,Svetlana Kovylina,67.5,F,B,Raw,Yes,18-19,1991-02-24,,62.6,,,,,,60,65,67.5,67.5,,,,,,,67.5
1,Alisa Skopina,67.5,F,B,Raw,Yes,20-23,1990-05-31,,61.6,,,,,,47.5,52.5,57.5,57.5,,,,,,,57.5
1,Natal'ja Goncharova,67.5,F,B,Raw,Yes,Open,1974-09-06,,62.5,,,,,,80,-82.5,-82.5,80,,,,,,,80
2,Galina Kalinina,67.5,F,B,Raw,Yes,Open,1981-10-29,,61.6,,,,,,52.5,57.5,-62.5,57.5,,,,,,,57.5
1,Dar'ja Seljaeva,75,F,B,Raw,Yes,20-23,1988-10-02,,71.3,,,,,,75,77.5,-80,77.5,,,,,,,77.5
1,Elizaveta Sprogis,90,F,B,Raw,Yes,Open,1977-08-24,,85.5,,,,,,62.5,67.5,-70,67.5,,,,,,,67.5
1,Svetlana Kabaeva,90+,F,B,Raw,Yes,45-49,1965-05-25,,111.1,,,,,,60,-72.5,-72.5,60,,,,,,,60
1,Ivan Gorelkin,52,M,B,Raw,Yes,16-17,1994-02-08,,49.9,,,,,,65,70,-72.5,70,,,,,,,70
1,Azamat Alymbek,52,M,B,Raw,Yes,18-19,1992-04-27,,48.3,,,,,,85,92.5,-98.5,92.5,,,,,,,92.5
2,Kaplan Skaljakho,52,M,B,Raw,Yes,18-19,1990-08-28,,48.3,,,,,,72.5,82.5,-90,82.5,,,,,,,82.5
1,Kaplan Skaljakho,52,M,B,Raw,Yes,Open,1990-08-28,,48.5,,,,,,72.5,82.5,-90,82.5,,,,,,,82.5
1,Maksim Shumilov,56,M,B,Raw,Yes,18-19,1991-11-30,,54.2,,,,,,85,95,-100,95,,,,,,,95
1,Sergej Karazija,56,M,B,Raw,Yes,20-23,1987-11-30,,55.8,,,,,,125,130,-135,130,,,,,,,130
1,Jurij Nauman,56,M,B,Raw,Yes,Open,1986-05-13,,56,,,,,,110,-117.5,117.5,117.5,,,,,,,117.5
2,Ruslan Kudrjavtsev,56,M,B,Raw,Yes,Open,1993-10-25,,53.5,,,,,,100,105,-110,105,,,,,,,105
1,Sergej Korolev,60,M,B,Raw,Yes,16-17,1993-12-07,,57.7,,,,,,-95,95,-100,95,,,,,,,95
DQ,Aleksej Surkhaev,60,M,B,Raw,Yes,16-17,1993-12-26,,55.6,,,,,,-90,,,,,,,,,,
1,Andzor Badrakov,60,M,B,Raw,Yes,20-23,1989-01-31,,59.2,,,,,,100,107.5,-115,107.5,,,,,,,107.5
1,Anton Kirillov,60,M,B,Raw,Yes,Open,1986-06-11,,57.5,,,,,,135,-140,-140,135,,,,,,,135
2,Aleksandr Fjodorov,60,M,B,Raw,Yes,Open,1976-10-14,,59.9,,,,,,110,115,117.5,117.5,,,,,,,117.5
3,Dzhakhid Sattarov,60,M,B,Raw,Yes,Open,1986-04-15,,59.6,,,,,,110,115,-117.5,115,,,,,,,115
4,Din Nigamatullin,60,M,B,Raw,Yes,Open,1978-10-01,,59,,,,,,100,-105,-110,100,,,,,,,100
5,Nikolaj Lopin,60,M,B,Raw,Yes,Open,1983-07-11,,58.7,,,,,,97.5,-105,-105,97.5,,,,,,,97.5
1,Konstantin Sokolovskij,67.5,M,B,Raw,Yes,13-15,1995-04-30,,65.5,,,,,,85,95,100,100,102.5,,,,,,100
1,Vladimir Jushkevich,67.5,M,B,Raw,Yes,18-19,1991-11-05,,65.9,,,,,,-100,100,-102.5,100,,,,,,,100
1,Pavel Mironov,67.5,M,B,Raw,Yes,20-23,1988-09-24,,65.7,,,,,,130,-135,-135,130,,,,,,,130
1,Ruslan Korotkov,67.5,M,B,Raw,Yes,Open,1980-12-19,,67.5,,,,,,135,145,150,150,,,,,,,150
2,Vladimir Stegantsev,67.5,M,B,Raw,Yes,Open,1985-07-21,,64.4,,,,,,142.5,-147.5,,142.5,,,,,,,142.5
3,Pavel Mironov,67.5,M,B,Raw,Yes,Open,1988-09-24,,65.7,,,,,,130,-135,-135,130,,,,,,,130
4,Viktor Mychko,67.5,M,B,Raw,Yes,Open,1980-01-11,,67.2,,,,,,115,-125,130,130,,,,,,,130
5,Ruslan Bajramov,67.5,M,B,Raw,Yes,Open,1986-05-02,,67.1,,,,,,115,120,125,125,,,,,,,125
6,Andrej Zhilin,67.5,M,B,Raw,Yes,Open,1980-04-05,,67,,,,,,117.5,-122.5,122.5,122.5,,,,,,,122.5
1,Maksim Ershov,75,M,B,Raw,Yes,16-17,1993-07-07,,71.7,,,,,,115,120,-122.5,120,,,,,,,120
2,Vladislav Kadin,75,M,B,Raw,Yes,16-17,1993-03-26,,69.5,,,,,,110,-115,-115,110,,,,,,,110
1,Sergej Komyshev,75,M,B,Raw,Yes,18-19,1991-05-17,,74.8,,,,,,135,145.5,-147.5,145.5,,,,,,,145.5
2,Vjacheslav Prikhod'ko,75,M,B,Raw,Yes,18-19,1968-10-15,,69.1,,,,,,110,115,-120,115,,,,,,,115
3,Aleksej Vistorobskij,75,M,B,Raw,Yes,18-19,1992-05-18,,73.2,,,,,,-105,105,110,110,,,,,,,110
1,Stepan Dolushkin,75,M,B,Raw,Yes,20-23,1987-04-08,,75,,,,,,125,135,-142.5,135,,,,,,,135
2,Evgenij Grebenschikov,75,M,B,Raw,Yes,20-23,1988-08-22,,73.1,,,,,,125,132.5,-142.5,132.5,,,,,,,132.5
1,Evgenij Kol'tsov,75,M,B,Raw,Yes,40-44,1967-01-18,,74.4,,,,,,-122.5,122.5,125,125,,,,,,,125
2,Vladimir Prjazhentsev,75,M,B,Raw,Yes,40-44,1965-12-04,,73.3,,,,,,100,,,100,,,,,,,100
1,Aleksej Loshenkov,75,M,B,Raw,Yes,55-59,1951-03-27,,73.8,,,,,,-105,110,-115,110,,,,,,,110
1,Gennadij Pereladov,75,M,B,Raw,Yes,70-74,1936-06-06,,71.5,,,,,,85,-90,90,90,,,,,,,90
1,Sergej Grishko,75,M,B,Raw,Yes,Open,1980-01-07,,75,,,,,,190,195,-200,195,,,,,,,195
2,Artem Larionov,75,M,B,Raw,Yes,Open,1978-05-14,,74.3,,,,,,155,160,-162.5,160,,,,,,,160
3,Dmitrij Prozorov,75,M,B,Raw,Yes,Open,1985-03-12,,74.2,,,,,,132.5,-140,140,140,,,,,,,140
4,Aleksej Lapin,75,M,B,Raw,Yes,Open,1986-05-22,,74.3,,,,,,140,-150,-150,140,,,,,,,140
5,Nikolaj Kravchenko,75,M,B,Raw,Yes,Open,1986-11-03,,72.8,,,,,,135,-140,,135,,,,,,,135
6,Dmitrij Firsaev,75,M,B,Raw,Yes,Open,1983-11-26,,72,,,,,,115,120,125,125,,,,,,,125
DQ,Dmitrij Korneev,75,M,B,Raw,Yes,Open,1987-02-15,,73.4,,,,,,-105,,-105,,,,,,,,
1,Aleksandr Korchagin,82.5,M,B,Raw,Yes,16-17,1992-05-31,,75.3,,,,,,100,107.5,-110,107.5,,,,,,,107.5
1,Mikhail Zakharov,82.5,M,B,Raw,Yes,18-19,1992-02-14,,80.6,,,,,,120,-127.5,-127.5,120,,,,,,,120
1,Maksim Bulimin,82.5,M,B,Raw,Yes,20-23,1987-02-24,,79.3,,,,,,150,160,172.5,172.5,,,,,,,172.5
2,Nikolaj Balugin,82.5,M,B,Raw,Yes,20-23,1987-07-24,,76.9,,,,,,120,125,-127.5,125,,,,,,,125
3,Andrej Litvinov,82.5,M,B,Raw,Yes,20-23,1988-01-06,,81.3,,,,,,125,-132.5,-132.5,125,,,,,,,125
1,Aleksej Trofimov,82.5,M,B,Raw,Yes,20-23,1989-07-24,,78.4,,,,,,-102.5,102.5,-115,102.5,,,,,,,102.5
DQ,Mikhail Belan,82.5,M,B,Raw,Yes,20-23,1988-10-11,,80.5,,,,,,-115,-115,-115,,,,,,,,
1,Eduard Meljaev,82.5,M,B,Raw,Yes,40-44,1970-08-18,,81.7,,,,,,180,187.5,193,193,,,,,,,193
2,Aleksandr Vorobev,82.5,M,B,Raw,Yes,40-44,1967-02-18,,81.3,,,,,,135,140,-145,140,,,,,,,140
1,Vladimir Reshetnikov,82.5,M,B,Raw,Yes,50-54,1960-04-16,,82.2,,,,,,172.5,182.5,,182.5,,,,,,,182.5
1,Vladimir Kornishin,82.5,M,B,Raw,Yes,55-59,1952-01-04,,77,,,,,,117.5,122.5,-125,122.5,,,,,,,122.5
1,Vjacheslav Jakushov,82.5,M,B,Raw,Yes,65-69,1941-07-13,,82,,,,,,85,92.5,95,95,,,,,,,95
1,Aleksandr Bulimin,82.5,M,B,Raw,Yes,Open,1987-02-24,,77.9,,,,,,185,192.5,-200,192.5,,,,,,,192.5
2,Andrej Galajda,82.5,M,B,Raw,Yes,Open,1972-02-07,,80.9,,,,,,180,185,-190,185,,,,,,,185
3,Aleksandr Drosin,82.5,M,B,Raw,Yes,Open,1982-02-21,,81.9,,,,,,165,172.5,175,175,,,,,,,175
4,Nikolaj Perevedentsev,82.5,M,B,Raw,Yes,Open,1982-11-03,,80.3,,,,,,145,150,-155,150,,,,,,,150
5,Nikolaj Militsianov,82.5,M,B,Raw,Yes,Open,1979-07-23,,82,,,,,,140,150,,150,,,,,,,150
6,Viktor Najdenov,82.5,M,B,Raw,Yes,Open,1987-01-25,,80,,,,,,-140,145,-150,145,,,,,,,145
7,Sergej Falameev,82.5,M,B,Raw,Yes,Open,1978-07-03,,82.1,,,,,,120,130,135,135,,,,,,,135
8,Sergej Kornakov,82.5,M,B,Raw,Yes,Open,1973-07-30,,81.9,,,,,,132.5,-145,,132.5,,,,,,,132.5
9,Mikhail Belan,82.5,M,B,Raw,Yes,Open,1988-10-11,,80.5,,,,,,-115,-115,115,115,,,,,,,115
1,Maksim Zelenov,90,M,B,Raw,Yes,16-17,1993-02-19,,83.1,,,,,,-95,95,-100,95,,,,,,,95
1,Artem Logunov,90,M,B,Raw,Yes,18-19,1991-01-30,,85.7,,,,,,165,175,,175,,,,,,,175
2,Artem Kobanov,90,M,B,Raw,Yes,18-19,1992-01-10,,87,,,,,,-125,125,-137.5,125,,,,,,,125
1,Andrej Sapozhonkov,90,M,B,Raw,Yes,20-23,1987-06-26,,84.7,,,,,,180,185,187.5,187.5,,,,,,,187.5
2,Roman Stefanchishen,90,M,B,Raw,Yes,20-23,1987-06-24,,89,,,,,,170,180,-187.5,180,,,,,,,180
1,Bakhtijar Mukhametov,90,M,B,Raw,Yes,40-44,1970-02-18,,89.1,,,,,,145,155,-160,155,,,,,,,155
2,Sergej Talalaev,90,M,B,Raw,Yes,40-44,1968-09-07,,88.5,,,,,,130,-137.5,137.5,137.5,,,,,,,137.5
1,Vladimir Bykovskij,90,M,B,Raw,Yes,45-49,1965-03-21,,88.2,,,,,,130,137.5,-142.5,137.5,,,,,,,137.5
2,Sergej Jakovlev,90,M,B,Raw,Yes,45-49,1963-04-06,,87,,,,,,80,-85,-85,80,,,,,,,80
1,Andrej Salov,90,M,B,Raw,Yes,50-54,1959-10-18,,85.4,,,,,,130,140,145,145,,,,,,,145
1,Mikhail Aleksakov,90,M,B,Raw,Yes,55-59,1954-12-04,,88.6,,,,,,110,115,-120,115,,,,,,,115
DQ,Aleksej Alekseev,90,M,B,Raw,Yes,55-59,1988-04-15,,88.6,,,,,,-110,,,,,,,,,,
1,Fedor Chesnokov,90,M,B,Raw,Yes,60-64,1947-02-16,,87.5,,,,,,130,140,-145,140,,,,,,,140
1,Aleksandr Andrianov,90,M,B,Raw,Yes,65-69,1944-09-04,,88.9,,,,,,115,125,130,130,,,,,,,130
1,Vitaliy Svirnenko,90,M,B,Raw,Yes,80-84,1927-11-07,,90,,,,,,40,50,52.5,52.5,,,,,,,52.5
1,Vladimir Konchakov,90,M,B,Raw,Yes,Open,1973-05-25,,89.1,,,,,,160,170,180,180,,,,,,,180
2,Aleksej Golionko,90,M,B,Raw,Yes,Open,1979-07-25,,89.8,,,,,,170,-180,-180,170,,,,,,,170
3,Nikolaj Karakcheev,90,M,B,Raw,Yes,Open,1974-06-18,,85.8,,,,,,165,-175,-175,165,,,,,,,165
4,Evgenij Karaschuk,90,M,B,Raw,Yes,Open,1986-07-28,,88.5,,,,,,147.5,155,160,160,,,,,,,160
5,Pavel Rysenkov,90,M,B,Raw,Yes,Open,1978-08-11,,88.9,,,,,,155,-160,160,160,,,,,,,160
6,Evgenij Chirkov,90,M,B,Raw,Yes,Open,1983-04-21,,88.1,,,,,,147.5,155,-160,155,,,,,,,155
7,Sergej El'tischev,90,M,B,Raw,Yes,Open,1981-06-06,,88.2,,,,,,-120,137.5,150,150,,,,,,,150
8,Aleksej Kocheshkov,90,M,B,Raw,Yes,Open,1976-02-15,,87.6,,,,,,142.5,147.5,-155,147.5,,,,,,,147.5
9,Aleksandr Potapenko,90,M,B,Raw,Yes,Open,1975-08-05,,87.4,,,,,,145,-155,-155,145,,,,,,,145
10,Sergej Kiselev,90,M,B,Raw,Yes,Open,1981-09-18,,86.1,,,,,,-130,140,-155,140,,,,,,,140
DQ,Dmitrij Nosov,90,M,B,Raw,Yes,Open,1971-03-14,,89.6,,,,,,-155,,,,,,,,,,
DQ,Denis Drozhnjak,100,M,B,Raw,Yes,16-17,1993-06-17,,97.5,,,,,,-130,-130,,,,,,,,,
1,Evgenij Makarevich,100,M,B,Raw,Yes,20-23,1987-05-15,,97,,,,,,170,182.5,-187.5,182.5,,,,,,,182.5
2,Dmitrij Kuleshov,100,M,B,Raw,Yes,20-23,1988-02-15,,97.4,,,,,,170,180,-187.5,180,,,,,,,180
3,Viktor Shefer,100,M,B,Raw,Yes,20-23,1986-09-03,,98.8,,,,,,170,-180,-185,170,,,,,,,170
4,Dmitrij Khaljov,100,M,B,Raw,Yes,20-23,1989-03-13,,90.9,,,,,,155,-165,-170,155,,,,,,,155
1,Aleksandr Gorjunov,100,M,B,Raw,Yes,40-44,1966-12-03,,93.3,,,,,,-150,150,152.5,152.5,,,,,,,152.5
1,Vladimir Balakirev,100,M,B,Raw,Yes,60-64,1948-01-08,,96.2,,,,,,105,110,,110,,,,,,,110
1,Sergei Zaitsev,100,M,B,Raw,Yes,Open,1977-10-13,,96.2,,,,,,190,202.5,207.5,207.5,,,,,,,207.5
2,Pavel Cheredov,100,M,B,Raw,Yes,Open,1984-10-02,,97,,,,,,195,200,-210,200,,,,,,,200
3,Sergej Lygin,100,M,B,Raw,Yes,Open,1979-10-23,,91.7,,,,,,180,187.5,-200,187.5,,,,,,,187.5
4,Igor Kuznetsov,100,M,B,Raw,Yes,Open,1989-08-17,,98.9,,,,,,-177.5,185,-192.5,185,,,,,,,185
5,Vitalij Malakhov,100,M,B,Raw,Yes,Open,1972-01-05,,100,,,,,,-180,180,-187.5,180,,,,,,,180
6,Dmitrij Proklin,100,M,B,Raw,Yes,Open,1976-05-09,,93.5,,,,,,-170,-170,170,170,,,,,,,170
7,Roman Krasichkov,100,M,B,Raw,Yes,Open,1973-09-06,,95.2,,,,,,165,170,-172.5,170,,,,,,,170
8,Sergej Varchev,100,M,B,Raw,Yes,Open,1980-10-31,,94.4,,,,,,-162.5,162.5,165,165,,,,,,,165
9,Sergej Prudnikov,100,M,B,Raw,Yes,Open,1981-03-31,,95.7,,,,,,145,162.5,-187.5,162.5,,,,,,,162.5
10,Igor Balashov,100,M,B,Raw,Yes,Open,1978-08-22,,99.3,,,,,,142.5,150,152.5,152.5,,,,,,,152.5
11,Aleksej Korovushkin,100,M,B,Raw,Yes,Open,1985-02-12,,98.3,,,,,,145,-150,150,150,,,,,,,150
12,Grigorij Korjakin,100,M,B,Raw,Yes,Open,1974-10-13,,95.1,,,,,,-142.5,-142.5,142.5,142.5,,,,,,,142.5
DQ,Andrej Sharov,100,M,B,Raw,Yes,Open,1974-02-07,,98.9,,,,,,-180,-180,-180,,,,,,,,
DQ,Ashamaz Tlostanov,100,M,B,Raw,Yes,Open,1985-11-24,,99.2,,,,,,-157.5,-157.5,-162.5,,,,,,,,
DQ,Roman Kostarev,110,M,B,Raw,Yes,16-17,1993-04-13,,108.1,,,,,,-155,-157.5,-157.5,,,,,,,,
1,Pavel Guzev,110,M,B,Raw,Yes,40-44,1966-05-29,,108.6,,,,,,157.5,167.5,170,170,,,,,,,170
2,Evgenij Farkhutdinov,110,M,B,Raw,Yes,40-44,1968-03-09,,108.5,,,,,,155,162.5,-170,162.5,,,,,,,162.5
3,Nikolaj Semenov,110,M,B,Raw,Yes,40-44,1969-03-28,,107.1,,,,,,145,152.5,-155,152.5,,,,,,,152.5
1,Vasilij Chernyshenko,110,M,B,Raw,Yes,45-49,1963-05-25,,109.4,,,,,,140,-147.5,,140,,,,,,,140
1,Roman Tikhonov,110,M,B,Raw,Yes,Open,1976-07-11,,107.4,,,,,,197.5,205,212.5,212.5,,,,,,,212.5
2,Denis Grebnev,110,M,B,Raw,Yes,Open,1986-04-12,,101.5,,,,,,210,-222.5,-222.5,210,,,,,,,210
3,Maksim Makarov,110,M,B,Raw,Yes,Open,1985-03-03,,107.65,,,,,,180,185,190,190,,,,,,,190
4,Ivan Matjushenko,110,M,B,Raw,Yes,Open,1984-11-16,,109.8,,,,,,167.5,175,182.5,182.5,,,,,,,182.5
5,Evgenij Farkhutdinov,110,M,B,Raw,Yes,Open,1968-03-09,,108.5,,,,,,155,162.5,-170,162.5,,,,,,,162.5
DQ,Roman Vyryvaev,110,M,B,Raw,Yes,Open,1983-02-19,,109.3,,,,,,-195,-195,-195,,,,,,,,
1,Denis Ogloblin,125,M,B,Raw,Yes,40-44,1967-05-12,,117.3,,,,,,195,200,,200,,,,,,,200
1,Anatolij Kalinin,125,M,B,Raw,Yes,45-49,1965-08-15,,122.7,,,,,,130,150,,150,,,,,,,150
1,Andrej Zavgorodnij,125,M,B,Raw,Yes,Open,1981-04-04,,122.6,,,,,,235,-240,240,240,,,,,,,240
2,Aslanbek Kushkhov,125,M,B,Raw,Yes,Open,1984-05-16,,124.2,,,,,,215,-225,-225,215,,,,,,,215
3,Denis Ogloblin,125,M,B,Raw,Yes,Open,1967-05-12,,117.3,,,,,,195,200,,200,,,,,,,200
DD,Sergej Milovanov,125,M,B,Raw,Yes,Open,1973-09-14,,117.5,,,,,,190,200,-210,200,,,,,,,
5,Aleksandr Oreshkin,125,M,B,Raw,Yes,Open,1982-08-21,,122.1,,,,,,175,180,,180,,,,,,,180
6,Dmitrij Brushnevskij,125,M,B,Raw,Yes,Open,1978-01-31,,122.7,,,,,,165,175,,175,,,,,,,175
7,Aleksej Nikulin,125,M,B,Raw,Yes,Open,1982-02-01,,122.9,,,,,,-175,175,-180,175,,,,,,,175
8,Ivan Zakharevich,125,M,B,Raw,Yes,Open,1984-01-27,,123.8,,,,,,175,-190,-202.5,175,,,,,,,175
DQ,Konstantin Agureev,125,M,B,Raw,Yes,Open,1975-02-06,,116.2,,,,,,-175,-175,-175,,,,,,,,
1,Nikolaj Timofeev,140,M,B,Raw,Yes,Open,1982-07-30,,132.8,,,,,,185,195,200,200,,,,,,,200
2,Roman Marachev,140,M,B,Raw,Yes,Open,1988-05-16,,131.75,,,,,,172.5,182.5,195,195,,,,,,,195
3,Sergej Mukhan'ko,140,M,B,Raw,Yes,Open,1980-04-27,,131.2,,,,,,170,-175,-175,170,,,,,,,170
DQ,Sergej Kolesnichenko,140,M,B,Raw,Yes,Open,1979-11-19,,132.6,,,,,,-200,-205,-205,,,,,,,,
DQ,Roman Mishurenkov,140,M,B,Raw,Yes,Open,1982-02-16,,139.1,,,,,,-172.5,-172.5,-172.5,,,,,,,,
1,Igor Nasteka,140+,M,B,Raw,Yes,45-49,1964-08-09,,140.4,,,,,,182.5,190,,190,,,,,,,190
1,Irina Dudyreva,48,F,B,Multi-ply,Yes,Open,1990-04-15,,47.7,,,,,,70,75,78,78,80,,,,,,78
DQ,Kaplan Skaljakho,52,M,B,Multi-ply,Yes,18-19,1990-08-28,,48.3,,,,,,-95,-102.5,-102.5,,,,,,,,
1,Boris Anfjorov,52,M,B,Multi-ply,Yes,Open,1983-07-19,,51,,,,,,100,105,-110.5,105,,,,,,,105
1,Il'ja Zubakin,60,M,B,Multi-ply,Yes,13-15,1996-09-15,,52.9,,,,,,55,60,-62.5,60,,,,,,,60
1,Vitalij Mikhin,60,M,B,Multi-ply,Yes,16-17,1993-12-11,,56,,,,,,95,100,105,105,,,,,,,105
1,Konstantin Karlov,60,M,B,Multi-ply,Yes,20-23,1989-06-17,,59.5,,,,,,115,122.5,-132.5,122.5,,,,,,,122.5
2,Igor Kuznetsov,60,M,B,Multi-ply,Yes,20-23,1989-08-17,,59,,,,,,120,-130,-130,120,,,,,,,120
1,Aleksandr Dobrokhodov,60,M,B,Multi-ply,Yes,Open,1981-12-11,,60,,,,,,117.5,122.5,127.5,127.5,,,,,,,127.5
1,Orkhan Kjazimov,67.5,M,B,Multi-ply,Yes,20-23,1988-02-29,,66.2,,,,,,140,150,-157.5,150,,,,,,,150
2,Sergej Rjabykh,67.5,M,B,Multi-ply,Yes,20-23,1987-07-11,,66.8,,,,,,140,-145.5,145.5,145.5,,,,,,,145
3,Zaur Gusenov,67.5,M,B,Multi-ply,Yes,20-23,,,67.4,,,,,,145,-155,-160,145,,,,,,,145
4,Konstantin Zhigulin,67.5,M,B,Multi-ply,Yes,20-23,1987-10-03,,67.4,,,,,,145,-162.5,-162.5,145,,,,,,,145
1,Jurij Kiselev,67.5,M,B,Multi-ply,Yes,70-74,1937-11-12,,65.1,,,,,,70,80,,80,,,,,,,80
1,Ruslan Korotkov,67.5,M,B,Multi-ply,Yes,Open,1980-12-19,,67.5,,,,,,170,175,,175,,,,,,,175
2,Dmitrij Matosjan,67.5,M,B,Multi-ply,Yes,Open,1976-04-02,,65.3,,,,,,155,160,-165,160,,,,,,,160
3,Aleksandr Isaev,67.5,M,B,Multi-ply,Yes,Open,1987-12-07,,67,,,,,,155,-162.5,-162.5,155,,,,,,,155
4,Sergej Baldin,67.5,M,B,Multi-ply,Yes,Open,1979-06-21,,66.7,,,,,,-130,140,,140,,,,,,,140
DQ,Dmitrij Kalistratov,67.5,M,B,Multi-ply,Yes,Open,1977-03-05,,67.5,,,,,,-162.5,,,,,,,,,,
1,Evgenij Kol'tsov,75,M,B,Multi-ply,Yes,40-44,1967-01-18,,74.3,,,,,,135,140,147.5,147.5,,,,,,,147.5
1,Sergej Grishko,75,M,B,Multi-ply,Yes,Open,1980-01-07,,75,,,,,,200,210,-222.5,210,,,,,,,210
2,Andrej Djatlov,75,M,B,Multi-ply,Yes,Open,1981-03-12,,75,,,,,,170,180,-190,180,,,,,,,180
3,Nikolaj Kravchenko,75,M,B,Multi-ply,Yes,Open,1986-11-03,,72.8,,,,,,162.5,-170,-170,162.5,,,,,,,162.5
4,Ruslan Alberstein,75,M,B,Multi-ply,Yes,Open,1973-01-09,,74.8,,,,,,-137.5,137.5,-140,137.5,,,,,,,137.5
1,Alexander Karpenko,82.5,M,B,Multi-ply,Yes,18-19,1992-04-25,,76.4,,,,,,170,177.5,182.5,182.5,185,,,,,,182.5
1,Rinat Abubekirov,82.5,M,B,Multi-ply,Yes,20-23,1986-10-01,,80.9,,,,,,200,205.5,207.5,207.5,,,,,,,207.5
1,Konstantin Smirnov,82.5,M,B,Multi-ply,Yes,45-49,1962-07-15,,80.7,,,,,,125,-132.5,132.5,132.5,,,,,,,132.5
1,Vladimir Reshetnikov,82.5,M,B,Multi-ply,Yes,50-54,1960-04-16,,81.7,,,,,,185,-190,195.5,195.5,,,,,,,195.5
1,Vyacheslav Yakushov,82.5,M,B,Multi-ply,Yes,65-69,1941-07-13,,81.15,,,,,,95,105,110,110,,,,,,,110
1,Viktor Mistratov,82.5,M,B,Multi-ply,Yes,Open,1981-02-10,,81,,,,,,210,220,230,230,,,,,,,230
2,Andrej Suetin,82.5,M,B,Multi-ply,Yes,Open,1983-10-13,,78.4,,,,,,-185,195,200,200,,,,,,,200
3,Vladimir Zhukov,82.5,M,B,Multi-ply,Yes,Open,1985-02-01,,79.5,,,,,,185,195,-205,195,,,,,,,195
4,Maksim Netkach,82.5,M,B,Multi-ply,Yes,Open,1977-05-11,,81.1,,,,,,195,-202.5,-202.5,195,,,,,,,195
5,Aleksej Gasanov,82.5,M,B,Multi-ply,Yes,Open,1982-04-13,,82.1,,,,,,-195,-195,195,195,,,,,,,195
6,Ernest Gazarjan,82.5,M,B,Multi-ply,Yes,Open,1979-09-29,,80,,,,,,150,160,-165,160,,,,,,,160
7,Andrej Bulganov,82.5,M,B,Multi-ply,Yes,Open,1978-08-29,,80.3,,,,,,152.5,-162.5,-170,152.5,,,,,,,152.5
DQ,Denis Dobrjanskij,82.5,M,B,Multi-ply,Yes,Open,1977-12-06,,82,,,,,,-185,-195,-195,,,,,,,,
DQ,Artem Logunov,90,M,B,Multi-ply,Yes,18-19,1991-01-30,,85.7,,,,,,-183,-183,-190,,,,,,,,
1,Bakhtijar Mukhametov,90,M,B,Multi-ply,Yes,40-44,1970-02-18,,89.5,,,,,,-180,180,-200,180,,,,,,,180
1,Aleksandr Andrianov,90,M,B,Multi-ply,Yes,65-69,1944-09-04,,88.7,,,,,,-140,140,-150,140,,,,,,,140
1,Aleksej Golionko,90,M,B,Multi-ply,Yes,Open,1979-07-25,,89.8,,,,,,220,230,-240,230,,,,,,,230
2,Rinat Nizamov,90,M,B,Multi-ply,Yes,Open,1973-09-18,,89.1,,,,,,212.5,217.5,-222.5,217.5,,,,,,,217.5
3,Vladimir Galkin,90,M,B,Multi-ply,Yes,Open,1975-10-19,,87.4,,,,,,-200,200,-207.5,200,,,,,,,200
4,Denis Pikljaev,90,M,B,Multi-ply,Yes,Open,1981-11-14,,89,,,,,,180,190,-200,190,,,,,,,190
DQ,Aleksandr Metelev,90,M,B,Multi-ply,Yes,Open,1972-11-24,,84.7,,,,,,-210,-210,-210,,,,,,,,
1,Ruslan Kulebjakin,100,M,B,Multi-ply,Yes,18-19,1991-02-26,,98.4,,,,,,-170,170,192.5,192.5,,,,,,,192.5
1,Vladimir Verbov,100,M,B,Multi-ply,Yes,20-23,1986-12-02,,93.7,,,,,,-150,150,-170,150,,,,,,,150
1,Sergej Kosarev,100,M,B,Multi-ply,Yes,40-44,1968-01-18,,92.7,,,,,,-165,175,-182.5,175,,,,,,,175
1,Valerij Kurochkin,100,M,B,Multi-ply,Yes,Open,1978-11-09,,98.8,,,,,,200,210,-230,210,,,,,,,210
DQ,Dmitrij Purgaev,100,M,B,Multi-ply,Yes,Open,1983-11-10,,97.6,,,,,,-215,-215,-215,,,,,,,,
DQ,Nikolaj Solov'ev,100,M,B,Multi-ply,Yes,Open,1968-06-21,,99.4,,,,,,-250,-250,-250,,,,,,,,
1,Aleksandr Kvasnikov,110,M,B,Multi-ply,Yes,20-23,1987-04-07,,106.9,,,,,,190,-210,-210,190,,,,,,,190
2,Vasilij Filatov,110,M,B,Multi-ply,Yes,20-23,1986-09-29,,109,,,,,,180,-202.5,-202.5,180,,,,,,,180
1,Pavel Kucherov,110,M,B,Multi-ply,Yes,40-44,1969-01-24,,104.4,,,,,,230,-235,,230,,,,,,,230
2,Evgenij Farkhutdinov,110,M,B,Multi-ply,Yes,40-44,1968-03-09,,109.5,,,,,,-200,-200,200,200,,,,,,,200
1,Andrej Zapylikhin,110,M,B,Multi-ply,Yes,45-49,1960-09-07,,109.6,,,,,,202.5,-210,-210,202.5,,,,,,,202.5
DQ,Igor' Simanovskij,110,M,B,Multi-ply,Yes,45-49,1965-03-28,,109.9,,,,,,-240,-240,-240,,,,,,,,
1,Grachik Egozar'jan,110,M,B,Multi-ply,Yes,55-59,1952-08-10,,109.5,,,,,,-215,215,-235,215,,,,,,,215
1,Roman Shulenin,110,M,B,Multi-ply,Yes,Open,1975-03-28,,105.6,,,,,,-205,205,-215,205,,,,,,,205
DQ,Aleksej Voronkov,125,M,B,Multi-ply,Yes,20-23,1989-03-13,,116,,,,,,-240,-240,,,,,,,,,
1,Artem Sedov,125,M,B,Multi-ply,Yes,Open,1979-03-18,,113.2,,,,,,-200,-200,200,200,,,,,,,200
DQ,Grigorij Molchanov,125,M,B,Multi-ply,Yes,Open,1976-03-15,,112.5,,,,,,-180,-187.5,-187.5,,,,,,,,
1,Roman Marachev,140,M,B,Multi-ply,Yes,Open,1988-05-16,,131.75,,,,,,-210,215,-222.5,215,,,,,,,215
1,Gjunel' Talibova,48,F,SBD,Wraps,No,Open,1982-04-06,,48,90,95,100,100,102.5,60,65,-70,65,,135,145,-150,145,,310
1,Andrej Kim,60,M,SBD,Wraps,No,Open,1986-06-27,,58.9,155,170.5,180,180,,-100,105,115,115,-122.5,190,215,225.5,225.5,,520
1,Radik Akhatov,67.5,M,SBD,Wraps,No,Open,1984-01-30,,67.5,-170,,170,170,,130,-140,-140,130,,-200,200,220,220,,520
1,Peter Kravtsov,75,M,SBD,Wraps,No,60-64,1946-02-01,,72,160,170,175,175,,100,105,-110,105,,175,185,190,190,,470
1,Dmitrij Solonnikov,75,M,SBD,Wraps,No,Open,1982-07-03,,72.8,175,192.5,-200,192.5,,110,-112.5,127.5,127.5,,-205,205,220,220,,540
2,Konstantin Sapunkov,75,M,SBD,Wraps,No,Open,1981-09-02,,75,175,182.5,-187.5,182.5,,135,140,145,145,,200,210,-215,210,,537.5
1,Roman Koroglishvili,82.5,M,SBD,Wraps,No,18-19,1992-07-17,,81.5,120,140,162.5,162.5,,135,145,,145,,215,235,,235,,542.5
1,Aleksej Lenkin,82.5,M,SBD,Wraps,No,20-23,1988-01-25,,80.4,190,200,205,205,,127.5,132.5,135,135,,230,240,250,250,,590
2,Evgenij Kurochkin,82.5,M,SBD,Wraps,No,20-23,1989-06-11,,82.5,195,-205,-205,195,,140,145,-150,145,,-215,215,,215,,555
1,Konstantin Dremenkov,82.5,M,SBD,Wraps,No,40-44,1966-07-21,,80.3,-170,175,185,185,,150,-155,-155,150,,215,230,237.5,237.5,,572.5
1,Yuriy Chepets,82.5,M,SBD,Wraps,No,65-69,1943-04-19,,80.3,195,205,,205,,130,150,-152.5,150,,185,202.5,207.5,207.5,210,562.5
1,Arsenij Filippov,82.5,M,SBD,Wraps,No,Open,1989-06-02,,82,200,220,230,230,,-130,130,140,140,,220,240,265,265,,635
DQ,Konstantin Gorjunov,82.5,M,SBD,Wraps,No,Open,1985-08-24,,80.1,180,195,205,205,,-160,,,,,,,,,,
1,Igor' Kuchebo,90,M,SBD,Wraps,No,18-19,1992-03-13,,89,-230,-230,230,230,,155,-165,-165,155,,240,260,-270,260,,645
2,Pavel Sudakov,90,M,SBD,Wraps,No,18-19,1991-07-12,,89.7,170,200.5,-205,200.5,,125,132.5,-140,132.5,,210,230,240,240,,572.5
1,Denis Lobanov,90,M,SBD,Wraps,No,20-23,1986-11-10,,88.1,150,160,-167.5,160,,120,130,-135,130,,200,212.5,225,225,,515
1,Ivan Dmitriev,90,M,SBD,Wraps,No,40-44,1970-06-12,,89.3,-225,-230,242.5,242.5,,175,182.5,-187.5,182.5,,300,315,327.5,327.5,,752.5
2,Vladimir Sadreev,90,M,SBD,Wraps,No,40-44,1969-01-29,,86.3,220,-235,-235,220,,-160,160,-165,160,,215,230,-237.5,230,,610
3,Eduard Isakov,90,M,SBD,Wraps,No,40-44,1966-07-18,,87.9,150,160,-170,160,,140,150,-155,150,,170,180,,180,,490
DQ,Andrej Belykh,90,M,SBD,Wraps,No,40-44,1969-07-19,,89.5,210,,,210,,160,170,175,175,,-227.5,,,,,
1,Aleksandr Tsvetkov,90,M,SBD,Wraps,No,50-54,1957-04-10,,88,175,190,197.5,197.5,,90,100,,100,,190,210,222.5,222.5,,520
1,Volodymyr Nagaluk,90,M,SBD,Wraps,No,55-59,1951-09-21,,90,-160,-160,160,160,,85,90,-95,90,,190,,,190,,440
1,Evgenij Khudoleev,90,M,SBD,Wraps,No,60-64,1946-09-10,,89,150,170,-180,170,,120,130,132.5,132.5,,180,205,215,215,,517.5
DQ,Sergej Druzhkov,90,M,SBD,Wraps,No,60-64,1950-01-01,,86.8,190.5,-195,,190.5,,140.5,147.5,152.5,152.5,,-182.5,-182.5,-182.5,,,
1,Valerij Filippov,90,M,SBD,Wraps,No,65-69,1943-07-17,,87.3,150,-160,160,160,,100,105,-107.5,105,,210,-220,230,230,,495
1,Denis Gornostaev,90,M,SBD,Wraps,No,Open,1978-04-09,,87.5,230,245,-252.5,245,,175.5,-182.5,182.5,182.5,,-245,250,-265,250,,677.5
DQ,Andrej Belykh,90,M,SBD,Wraps,No,Open,1969-07-19,,89.5,210,,,210,,160,170,175,175,,-227.5,,,,,
1,Dmitrij Svistunov,100,M,SBD,Wraps,No,18-19,1990-11-11,,90.6,200,220,-230,220,,135,140,-145,140,,210,230,,230,,590
1,Lev Golov,100,M,SBD,Wraps,No,20-23,1989-08-19,,97.2,220,230,235,235,,150,157.5,-162.5,157.5,,280,295,305,305,,697.5
1,Sergej Rumjantsev,100,M,SBD,Wraps,No,40-44,1966-08-28,,95,240,245,,245,,185,190,-195,190,,-255,,255,255,,690
2,Oleg Vrublevskij,100,M,SBD,Wraps,No,40-44,1968-05-10,,90.5,160,170,177.5,177.5,,125,135,140,140,,190,200,205,205,,522.5
1,Vjacheslav Frank,100,M,SBD,Wraps,No,45-49,1962-03-03,,97,155,165,175,175,,127.5,132.5,-135,132.5,,180,-195,195,195,,502.5
1,Aslanbek Abaev,100,M,SBD,Wraps,No,50-54,1959-06-28,,91.3,230,240,245,245,,175,185,190,190,,240,250,255,255,,690
1,Anatolij Sholokhov,100,M,SBD,Wraps,No,55-59,1953-11-30,,92.6,200,220,230,230,,150,165,-175,165,,220,240,-250,240,,635
2,Pavel Laptenok,100,M,SBD,Wraps,No,55-59,1953-01-26,,99.1,-185,192.5,-202.5,192.5,,135,145,-150,145,,180,200,215,215,,552.5
1,Sergej Luk'janov,100,M,SBD,Wraps,No,Open,1986-06-02,,98.6,255,265,270,270,,175,185,190,190,,290,300,310,310,,770
DD,Viktor Petukhov,100,M,SBD,Wraps,No,Open,1979-07-08,,99.6,-240,240,,240,,-160,,160,160,,300,310,-320,310,,
3,Sergej Rumjantsev,100,M,SBD,Wraps,No,Open,1966-08-28,,95,240,245,,245,,185,190,-195,190,,-255,,255,255,,690
4,Sergej Panteleev,100,M,SBD,Wraps,No,Open,1982-10-28,,96.5,-230,240,245,245,,160,165,170,170,,250,-272.5,,250,,665
5,Sergej Nefedov,100,M,SBD,Wraps,No,Open,1980-06-14,,94.7,180,195,205,205,,130,145,155,155,,220,240,-250,240,,600
6,Vladimir Khromej,100,M,SBD,Wraps,No,Open,1980-03-11,,97.9,150,160,165,165,,-130,140,-150,140,,150,-180,-180,150,,455
DQ,Pavel Shibaev,100,M,SBD,Wraps,No,Open,1975-07-22,,96.7,220,-247.5,,220,,170,-180,-180,170,,,,,,,
DQ,Aleksej Belanchik,100,M,SBD,Wraps,No,Open,1976-06-29,,100,-200,-200,-200,,,,,,,,,,,,,
1,Igor Potapov,110,M,SBD,Wraps,No,20-23,1987-06-16,,103.9,165,175,-180,175,,-135,135,142.5,142.5,,195,-205,205,205,,522.5
1,Andrej Kovtunov,110,M,SBD,Wraps,No,40-44,1969-04-14,,107.8,240,250,-265,250,,160,180,-200,180,,200,250,280,280,,710
2,Vadim Kulikov,110,M,SBD,Wraps,No,40-44,1967-02-18,,104.9,-262.5,262.5,-267.5,262.5,,150,157.5,162.5,162.5,,260,267.5,-285,267.5,,692.5
1,Sergej Starodubskij,110,M,SBD,Wraps,No,Open,1977-12-20,,109.4,310,-331,-331,310,,220,-231,231,231,,290,320,-343,320,,861
2,Andrej Ajvazov,110,M,SBD,Wraps,No,Open,1982-11-07,,106.6,-280,280,-305,280,,180,190,-195,190,,300,-343,-343,300,,770
3,Valerij Sabel'nikov,110,M,SBD,Wraps,No,Open,1971-08-13,,108.8,-230,230,-240,230,,180,190,192.5,192.5,,280,300,-310,300,,722.5
4,Aleksandr Bondarjanskij,110,M,SBD,Wraps,No,Open,1976-08-23,,100.1,175,-185,-190,175,,125,-130,-135,125,,190,-205,210,210,,510
1,Nikolaj Iov,125,M,SBD,Wraps,No,18-19,1990-09-02,,124,180,-210,220,220,,140,160,180,180,,200,230,255,255,,655
1,Sergej Gusev,125,M,SBD,Wraps,No,20-23,1987-03-17,,113.6,-250,255,,255,,170,180,-182.5,180,,275,-297.5,-297.5,275,,710
1,Amirkhan Shomakhov,125,M,SBD,Wraps,No,40-44,1965-11-23,,119.4,230,,,230,,170,,,170,,230,,,230,,630
1,Mikhail Verbenkin,125,M,SBD,Wraps,No,Open,1980-08-05,,121.4,250,-260,-265,250,,180,-195,195,195,,270,-290,290,290,,735
2,Roman Khabarov,125,M,SBD,Wraps,No,Open,1972-07-21,,124.9,270,280,,280,,170,180,190,190,,-265,-265,265,265,,735
3,Dmitrij Vasin,125,M,SBD,Wraps,No,Open,1976-06-04,,116.6,210,220,-230,220,,-160,-160,160,160,,-250,250,260,260,,640
DQ,Kirill Aleskovskij,125,M,SBD,Wraps,No,Open,1974-06-19,,121,-210,-210,-210,,,,,,,,,,,,,
1,Aleksandr Tsvetaev,140,M,SBD,Wraps,No,20-23,1987-11-08,,137.4,260,270,275,275,,200,205,,205,,280,-290,,280,,760
1,Igor Lomov,140,M,SBD,Wraps,No,Open,1970-10-29,,131.2,220,240,-260,240,,225,-235,235,235,,290,-325,,290,,765
1,Dmitrij Antipov,140+,M,SBD,Wraps,No,Open,1979-07-02,,161.9,270,285,292.5,292.5,,190,-197.5,-197.5,190,,-270,277.5,285,285,,767.5
1,Natal'ja Poljakova,56,F,B,Raw,No,Open,1975-06-28,,55.9,,,,,,67.5,-77.5,-77.5,67.5,,,,,,,67.5
1,Veronika Kudisova,60,F,B,Raw,No,40-44,1969-07-02,,56.5,,,,,,45,-50,50,50,,,,,,,50
1,Natalja Konovalova,60,F,B,Raw,No,Open,1988-09-14,,59,,,,,,95,102.5,105,105,-111,,,,,,105
1,Elena Sheverdina,75,F,B,Raw,No,40-44,1968-02-14,,75,,,,,,120,125,130,130,-132.5,,,,,,130
1,Elena Sheverdina,75,F,B,Raw,No,Open,1968-02-14,,75,,,,,,120,125,130,130,-132.5,,,,,,130
1,Oleg Grudinin,52,M,B,Raw,No,20-23,1986-10-06,,36.3,,,,,,50,55,57.5,57.5,,,,,,,57.5
1,Oleg Grudinin,52,M,B,Raw,No,Open,1986-10-06,,36.3,,,,,,50,55,57.5,57.5,,,,,,,57.5
1,Dmitrij Davydov,56,M,B,Raw,No,20-23,1987-02-04,,55.9,,,,,,90,95,-97.5,95,,,,,,,95
1,Andrej Kim,60,M,B,Raw,No,Open,1986-06-27,,58.9,,,,,,100,115.5,117.5,117.5,,,,,,,117.5
1,Aleksandr Sorochinskij,67.5,M,B,Raw,No,20-23,1988-06-18,,61.6,,,,,,110,117.5,125,125,,,,,,,125
1,Aleksandr Davydtsev,75,M,B,Raw,No,20-23,1987-10-25,,73.4,,,,,,145,147.5,-150,147.5,,,,,,,147.5
1,Peter Kravtsov,75,M,B,Raw,No,60-64,1946-02-01,,72.5,,,,,,-100,100,,100,,,,,,,100
1,Igor' Peredrij,75,M,B,Raw,No,Open,1977-07-16,,75,,,,,,165,170,-175,170,,,,,,,170
2,Ruslan Shlykov,75,M,B,Raw,No,Open,1974-08-07,,73.5,,,,,,-152.5,-152.5,152.5,152.5,,,,,,,152.5
3,Aleksandr Davydtsev,75,M,B,Raw,No,Open,1987-10-25,,73.4,,,,,,145,147.5,-150,147.5,,,,,,,147.5
4,Konstantin Sapunkov,75,M,B,Raw,No,Open,1981-09-02,,75,,,,,,135,140,142.5,142.5,,,,,,,142.5
5,Nikolaj Petrokovich,75,M,B,Raw,No,Open,1979-08-17,,72.7,,,,,,130,140,-150,140,,,,,,,140
1,Roman Mjasnikov,82.5,M,B,Raw,No,16-17,1993-03-29,,82.4,,,,,,-115,115,117.5,117.5,,,,,,,117.5
DQ,Denis Sobolev,82.5,M,B,Raw,No,16-17,1992-11-29,,78,,,,,,-110,-110,-110,,,,,,,,
1,Roman Koroglishvili,82.5,M,B,Raw,No,18-19,1992-07-17,,81.2,,,,,,135,145,,145,,,,,,,145
1,Denis Akimov,82.5,M,B,Raw,No,20-23,1988-06-29,,81.8,,,,,,-120,125,-130,125,,,,,,,125
1,Dmitrij Kukharenko,82.5,M,B,Raw,No,40-44,1969-01-22,,79.1,,,,,,177.5,-182.5,-182.5,177.5,,,,,,,177.5
1,Nikolaj Krasnov,82.5,M,B,Raw,No,50-54,1960-07-22,,79.2,,,,,,155,165,-172.5,165,,,,,,,165
2,Boris Kuznetsov,82.5,M,B,Raw,No,50-54,1958-01-09,,81.3,,,,,,120,127.5,-130,127.5,,,,,,,127.5
3,Valerij Stojanov,82.5,M,B,Raw,No,50-54,1957-11-25,,80.8,,,,,,110,117.5,-120,117.5,,,,,,,117.5
1,Yuriy Chepets,82.5,M,B,Raw,No,65-69,1943-04-19,,81.3,,,,,,143,150,-152.5,150,,,,,,,150
1,Andrej Bogatkov,82.5,M,B,Raw,No,Open,1975-05-12,,81.7,,,,,,160,165,167.5,167.5,,,,,,,167.5
2,Artem Arkhipov,82.5,M,B,Raw,No,Open,1982-03-24,,78.1,,,,,,140,157.5,165,165,,,,,,,165
3,Vladimir Borisov,82.5,M,B,Raw,No,Open,1981-11-17,,76.5,,,,,,150,160,162.5,162.5,,,,,,,162.5
4,Vadim Perebinosov,82.5,M,B,Raw,No,Open,1975-05-27,,81.4,,,,,,155,162.5,-170,162.5,,,,,,,162.5
1,Svjatoslav Gajsin,90,M,B,Raw,No,20-23,1989-02-18,,88.8,,,,,,200,210,-215,210,,,,,,,210
1,Aleksandr Scherbakov,90,M,B,Raw,No,40-44,1966-07-28,,89.3,,,,,,200,210,212.5,212.5,,,,,,,212.5
2,Georgij Avdonin,90,M,B,Raw,No,40-44,1969-09-10,,89,,,,,,150,155,160,160,,,,,,,160
3,Dmitrij Gorelikov,90,M,B,Raw,No,40-44,1968-06-20,,88.8,,,,,,130,135,-140,135,,,,,,,135
1,Sergej Druzhkov,90,M,B,Raw,No,60-64,1950-01-01,,87,,,,,,143.5,146.5,150,150,-152.5,,,,,,150
2,Evgenij Malyshev,90,M,B,Raw,No,60-64,1949-03-04,,84.6,,,,,,-125,125,-130,125,,,,,,,125
1,Aleksandr Scherbakov,90,M,B,Raw,No,Open,,,89.3,,,,,,200,210,212.5,212.5,,,,,,,212.5
2,Svjatoslav Gajsin,90,M,B,Raw,No,Open,1989-02-18,,88.8,,,,,,200,210,-215,210,,,,,,,210
3,Aleksej Ponosov,90,M,B,Raw,No,Open,1983-08-12,,89.6,,,,,,180,187.5,195,195,,,,,,,195
4,Sergej Ushakov,90,M,B,Raw,No,Open,1974-07-25,,87.5,,,,,,-190,190,192.5,192.5,,,,,,,192.5
5,Aleksej Blintsov,90,M,B,Raw,No,Open,1980-03-13,,84.5,,,,,,170,180,-192.5,180,,,,,,,180
6,Aleksandr Volgin,90,M,B,Raw,No,Open,,,88.8,,,,,,170,-180,-180,170,,,,,,,170
1,Jurij Shmelev,100,M,B,Raw,No,40-44,,,95.6,,,,,,160,167.5,170,170,,,,,,,170
1,Aslanbek Abaev,100,M,B,Raw,No,50-54,1959-06-28,,92.4,,,,,,175,-190,-192.5,175,,,,,,,175
1,Damir Kuzeev,100,M,B,Raw,No,55-59,1952-05-14,,91.8,,,,,,160,170,-175,170,,,,,,,170
2,Anatolij Sholokhov,100,M,B,Raw,No,55-59,1953-11-30,,92.7,,,,,,160,-170,-170,160,,,,,,,160
1,Vladimir Bolshov,100,M,B,Raw,No,60-64,1947-09-30,,96.7,,,,,,-130,130,135,135,,,,,,,135
1,Vadim Kakhuta,100,M,B,Raw,No,Open,1981-08-15,,99.1,,,,,,235,245,252.5,252.5,,,,,,,252.5
2,Sergej Popov,100,M,B,Raw,No,Open,1977-01-05,,98,,,,,,220,230,-237.5,230,,,,,,,230
3,Anas Nuriev,100,M,B,Raw,No,Open,1973-08-02,,95.9,,,,,,190,200,-210,200,,,,,,,200
4,Aleksandr Pagin,100,M,B,Raw,No,Open,1978-04-26,,97.8,,,,,,180,190,195,195,,,,,,,195
1,Anton Begalko,110,M,B,Raw,No,20-23,1986-11-06,,109.4,,,,,,210,220,225,225,,,,,,,225
2,Stanislav Kolachev,110,M,B,Raw,No,20-23,1987-03-20,,104.4,,,,,,195,205,,205,,,,,,,205
3,Dmitrij Dolgov,110,M,B,Raw,No,20-23,1986-10-03,,108,,,,,,190,200,205,205,,,,,,,205
4,Igor Potapov,110,M,B,Raw,No,20-23,1987-06-16,,102.6,,,,,,-140,140,-145,140,,,,,,,140
1,Vadim Shamkov,110,M,B,Raw,No,40-44,1967-04-13,,107,,,,,,170,177.5,-182.5,177.5,,,,,,,177.5
1,Andrej Samojlov,110,M,B,Raw,No,45-49,1961-10-08,,107.1,,,,,,210,215,,215,,,,,,,215
2,Aleksandr Gruzinskij,110,M,B,Raw,No,45-49,1965-05-31,,106.1,,,,,,190,200,-202.5,200,,,,,,,200
3,Aleksandr Dmitriev,110,M,B,Raw,No,45-49,1964-08-01,,103.3,,,,,,180,-187.5,-187.5,180,,,,,,,180
4,Mikhail Petrov,110,M,B,Raw,No,45-49,1963-04-30,,105.7,,,,,,180,-190,-190,180,,,,,,,180
1,Pavel Laptenok,110,M,B,Raw,No,55-59,1953-01-26,,100.2,,,,,,140,147.5,150,150,,,,,,,150
1,Oleg Sajdentsal',110,M,B,Raw,No,Open,1975-03-14,,108.7,,,,,,235,240,242.5,242.5,,,,,,,242.5
2,Vasilij Fedjaev,110,M,B,Raw,No,Open,1982-10-26,,103.7,,,,,,220,230,240,240,,,,,,,240
3,Dmitrij Tenetko,110,M,B,Raw,No,Open,1975-08-11,,105.2,,,,,,215,230,-240,230,,,,,,,230
4,Jakov Berman,110,M,B,Raw,No,Open,1972-06-22,,107.7,,,,,,200,-210,-210,200,,,,,,,200
5,Aleksandr Pavlov,110,M,B,Raw,No,Open,1976-01-16,,103.7,,,,,,187.5,-195,195,195,,,,,,,195
6,Jurij Molodtsov,110,M,B,Raw,No,Open,1975-02-07,,101.3,,,,,,-150,-160,170,170,,,,,,,170
DQ,Rafail Dzhamalutdinov,110,M,B,Raw,No,Open,1985-10-26,,107.3,,,,,,-202.5,,,,,,,,,,
1,Nikolaj Iov,125,M,B,Raw,No,18-19,1990-09-02,,123.2,,,,,,140,160,-182.5,160,,,,,,,160
1,Vjacheslav Prikhod'ko,125,M,B,Raw,No,40-44,1968-10-15,,122.3,,,,,,225,-230,-230,225,,,,,,,225
2,Jurij Maksimov,125,M,B,Raw,No,40-44,1967-12-17,,114.9,,,,,,150,-160,160,160,,,,,,,160
DQ,Sergej Lylov,125,M,B,Raw,No,40-44,1968-12-27,,119.1,,,,,,-180,-180,-180,,,,,,,,
DQ,Mikhail Toropov,125,M,B,Raw,No,50-54,1960-08-09,,112.7,,,,,,-160,-160,-162.5,,,,,,,,
1,Vjacheslav Prikhod'ko,125,M,B,Raw,No,Open,1968-10-15,,122.3,,,,,,225,-230,-230,225,,,,,,,225
2,Artem Dolenjan,125,M,B,Raw,No,Open,1978-06-19,,125,,,,,,-220,225,-230,225,,,,,,,225
3,Anton Matveev,125,M,B,Raw,No,Open,1971-05-18,,113.2,,,,,,200,-210,-210,200,,,,,,,200
1,Viktor Kozlov,140,M,B,Raw,No,45-49,1963-03-23,,125.3,,,,,,212.5,217.5,220,220,,,,,,,220
1,Evgenij Guljaev,140,M,B,Raw,No,Open,1976-05-11,,135.8,,,,,,230,235,,235,,,,,,,235
1,Sergej Novikov,140+,M,B,Raw,No,Open,1977-01-28,,143,,,,,,170,,,170,,,,,,,170
1,Darja Markova,44,F,SBD,Multi-ply,No,13-15,1995-04-27,,43.8,110,115,-122.5,115,,-65,-65,65,65,,80,90,100,100,,280
1,Agnessa Antipova,52,F,SBD,Multi-ply,No,Open,1988-03-09,,51.5,185,-192.5,192.5,192.5,,105,-110,110,110,-113,145,155,-163,155,,457.5
1,Marija Shmyrina,75,F,SBD,Multi-ply,No,18-19,1990-09-19,,74.7,150,-160,-162.5,150,,90,-95,-95,90,,145,-157.5,,145,,385
1,Elena Povolotskaja,82.5,F,SBD,Multi-ply,No,Open,1978-02-16,,76,225,245,,245,,145,-152.5,-152.5,145,,215,-232.5,-232.5,215,,605
1,Valentin Bondarchuk,56,M,SBD,Multi-ply,No,13-15,1995-11-08,,54,-125,135,-145,135,,50,60,-65,60,,100,110,-115,110,,305
1,Daniil Bulgakov,56,M,SBD,Multi-ply,No,20-23,1986-11-24,,55.3,-145,-145,145,145,,105,-112.5,117.5,117.5,,145,160,167.5,167.5,,430
1,Artem Filimonov,60,M,SBD,Multi-ply,No,16-17,1994-04-05,,59.4,80,90,-115,90,,65,75,-80,75,,120,-140,-140,120,,285
1,Andrej Kim,60,M,SBD,Multi-ply,No,Open,1986-06-27,,58.9,180,200,230,230,,130,-140,-140,130,,190,210,-245,210,,570
DQ,Evgenij Gansh,60,M,SBD,Multi-ply,No,Open,1992-04-10,,59.7,225,-240,-240,225,,-125,-125,-125,,,,,,,,
1,Artem Pisarenko,75,M,SBD,Multi-ply,No,16-17,1993-09-01,,72.6,-225,235,255,255,,120,-125,125,125,,200,205,210,210,,590
DQ,Gennadij Vasjuchkov,75,M,SBD,Multi-ply,No,16-17,1995-01-22,,73,-225.5,-230,230,230,,-125,-125,-125,,,220,,,220,,
1,Svjatoslav Smirnov,75,M,SBD,Multi-ply,No,20-23,,,72,215,225,-235,225,,-130,-135,135,135,,200,215,225,225,,585
1,Vjacheslav Jurov,75,M,SBD,Multi-ply,No,Open,1991-02-17,,74.8,-300,310,325,325,,205,-215,220,220,,265,275,285,285,,830
2,Aleksej Lazarev,75,M,SBD,Multi-ply,No,Open,1985-04-06,,74.9,310,-320,320,320,,185,195,200,200,,260,270,-302.5,270,,790
3,Anatolij Glazunov,75,M,SBD,Multi-ply,No,Open,1972-02-09,,74.6,300,320,-330,320,,170,190,-200,190,,240,-260,-260,240,,750
4,German Petjanov,75,M,SBD,Multi-ply,No,Open,1985-07-26,,74.5,230,260,290,290,,140,150,155,155,,240,250,260,260,,705
5,Vladimir Petjanov,75,M,SBD,Multi-ply,No,Open,1985-07-26,,71.4,-230,230,270,270,,-145,145,162.5,162.5,,245.5,-260,-260,245.5,,677.5
1,Vadim Vandakurov,82.5,M,SBD,Multi-ply,No,16-17,1992-10-14,,81.9,310,-330,340,340,,170,180,-185,180,,280,300,-310,300,,820
1,Roman Koroglishvili,82.5,M,SBD,Multi-ply,No,18-19,1992-07-17,,81.5,100,,,100,,190,-197.5,-197.5,190,,100,,,100,,390
1,Viktor Prilipa,90,M,SBD,Multi-ply,No,55-59,1955-03-27,,90,-240,-240,240,240,,150,-160,-160,150,,220,230,-240,230,,620
1,Valeriy Glazunov,82.5,M,SBD,Multi-ply,No,60-64,1948-12-18,,80.5,270,300,-320,300,,160,175,-187.5,175,,220,-240,,220,,695
1,Vadim Vandakurov,82.5,M,SBD,Multi-ply,No,Open,1992-10-14,,81.9,310,-330,340,340,,170,180,-185,180,,280,300,-310,300,,820
2,Andrej Darbinjan,82.5,M,SBD,Multi-ply,No,Open,1977-03-03,,82.4,230,247.5,257.5,257.5,,145,-155,155,155,,245,-260,262.5,262.5,,675
1,Denis Mosharov,90,M,SBD,Multi-ply,No,18-19,1992-01-31,,90,270,-285,-285,270,,160,-170,170,170,,-240,240,,240,,680
DQ,Dmitrij Ogorodov,90,M,SBD,Multi-ply,No,18-19,1990-11-03,,88.3,-260,,,,,,,,,,,,,,,
1,Vasilij Ludin,90,M,SBD,Multi-ply,No,20-23,1988-04-20,,88.9,305,325,-345,325,,190,-205,205,205,,-250,250,-300,250,,780
2,Sergej Mironov,90,M,SBD,Multi-ply,No,20-23,1987-07-18,,86.6,255,265,-275,265,,165,170,-175,170,,270,-280,-280,270,,705
3,Evgenij Mamtsev,90,M,SBD,Multi-ply,No,20-23,1987-02-01,,90,260,270,275,275,,-160,160,,160,,240,245,-250,245,,680
1,Nikita Morozov,90,M,SBD,Multi-ply,No,40-44,1968-06-18,,83.1,-240,240,270,270,,150,170,-180,170,,240,250,,250,,690
DQ,Andrej Belykh,90,M,SBD,Multi-ply,No,40-44,1969-07-19,,89.5,210,,,210,,,,,,,,,,,,
1,Valerij Filippov,90,M,SBD,Multi-ply,No,65-69,1943-07-17,,87.4,200,-210,-210,200,,100,105,-110,105,,-240,-240,240,240,,545
DD,Viktor Petukhov,90,M,SBD,Multi-ply,No,Open,1979-07-08,,90,-330,-330,330,330,,-200,200,-210,200,,300,-320,-320,300,,
DQ,Andrej Belykh,90,M,SBD,Multi-ply,No,Open,1969-07-19,,89.5,210,,,210,,,,,,,,,,,,
DQ,Stepan Novikov,90,M,SBD,Multi-ply,No,Open,1982-11-25,,89.6,-370,-390,-390,,,,,,,,,,,,,
DQ,Eldar Mammadov,90,M,SBD,Multi-ply,No,Open,,1978,89.9,270,285,-305,285,,190,-200,-202.5,190,,-250,-250,-250,,,
1,Timur Emel'janov,100,M,SBD,Multi-ply,No,16-17,1993-05-07,,96.5,240,280,300,300,,160,170,-175,170,,210,240,-250,240,,710
1,Aleksandr Panaskin,100,M,SBD,Multi-ply,No,18-19,1991-06-27,,95.7,300,-320,-340,300,,190,210,225,225,,250,275,-290,275,,800
DQ,Evgenij Panferov,100,M,SBD,Multi-ply,No,18-19,1991-03-31,,98.2,-260,-280,-290,,,,,,,,,,,,,
DQ,Maksim Avtukhov,100,M,SBD,Multi-ply,No,18-19,1990-09-22,,98.2,-310,-310,-310,,,,,,,,,,,,,
1,Aleksandr Zagorodnikov,100,M,SBD,Multi-ply,No,20-23,1989-04-27,,95.4,240,250,255,255,,170,-180,180,180,,-240,240,-250,240,,675
2,Aleksandr Evsjutkin,100,M,SBD,Multi-ply,No,20-23,1988-03-07,,94.3,-190,190,200,200,,-130,130,-150,130,,190,200,210,210,,540
DQ,Aleksej Zinjagin,100,M,SBD,Multi-ply,No,20-23,1988-01-26,,99.2,-280,-280,280,280,,-180,-180,-180,,,250,,,250,,
1,Dmitrij Chertushkin,100,M,SBD,Multi-ply,No,45-49,1965-08-15,,98,220,-230,230,230,,-190,-195,195,195,,200,215,230,230,,655
1,Mikhail Levchenko #1,100,M,SBD,Multi-ply,No,50-54,1960-07-03,,90.7,180,-190,190,190,,120,130,137.5,137.5,,180,190,200,200,,527.5
1,Anatolij Sholokhov,100,M,SBD,Multi-ply,No,55-59,1953-11-30,,92.6,240,-260,-260,240,,180,-195,,180,,210,240,,240,,660
1,Ruslan Akhmetov,110,M,SBD,Multi-ply,No,50-54,1960-04-11,,108.4,240,250,-260,250,,150,160,,160,,200,230,,230,,640
1,Anatolij Dergilev,110,M,SBD,Multi-ply,No,60-64,1950-05-22,,104.8,170,190,200,200,,130,140,-150,140,,100,,,100,,440
1,Sergej Galkin,110,M,SBD,Multi-ply,No,Open,1971-04-13,,105.1,-240,240,255,255,,230,-245,-245,230,,220,240,-260,240,,725
1,Mikhail Glazunov,125,M,SBD,Multi-ply,No,Open,1974-02-09,,121.8,-380,380,420,420,,260,280,-290,280,,340,370,390,390,,1090
2,Aleksej Milovanov,125,M,SBD,Multi-ply,No,Open,1976-06-25,,122,-350,350,,350,,185,-205,-205,185,,285,300,-310,300,,835
DQ,Artem Savel'ev,125,M,SBD,Multi-ply,No,Open,1988-11-02,,113.3,-370,-370,-385,,,,,,,,,,,,,
DQ,Dmitrij Ushakov,140,M,SBD,Multi-ply,No,Open,1990-08-06,,131.1,-280,,,,,,,,,,,,,,,
1,Darja Markova,44,F,B,Multi-ply,No,Open,1995-04-27,,43.8,,,,,,65,-72.5,72.5,72.5,,,,,,,72.5
1,Nadezhda Talikova,60,F,B,Multi-ply,No,Open,1960-04-01,,58.8,,,,,,57.5,-62.5,-62.5,57.5,,,,,,,57.5
DQ,Anna Turaeva,82.5,F,B,Multi-ply,No,Open,1978-08-18,,78.3,,,,,,-175,-175,-175,,,,,,,,
1,Daniil Bulgakov,56,M,B,Multi-ply,No,20-23,1986-11-24,,55.7,,,,,,100,110,120,120,,,,,,,120
1,Artem Filimonov,60,M,B,Multi-ply,No,16-17,1994-04-05,,59.4,,,,,,70,77.5,-80,77.5,,,,,,,77.5
1,Evgenij Gansh,60,M,B,Multi-ply,No,18-19,1992-04-10,,59.7,,,,,,120,132.5,-145,132.5,,,,,,,132.5
2,Konstantin Zamulin,60,M,B,Multi-ply,No,18-19,1992-01-25,,55.7,,,,,,-100,100,-117.5,100,,,,,,,100
1,Timur Mukhamed'janov,67.5,M,B,Multi-ply,No,20-23,1988-03-10,,66.7,,,,,,-160,160,-165,160,,,,,,,160
1,Aleksandr Rode,67.5,M,B,Multi-ply,No,Open,1981-04-14,,67.5,,,,,,225,238,-242.5,238,,,,,,,238
DQ,Il'jas Musaev,67.5,M,B,Multi-ply,No,Open,1988-02-01,,65.9,,,,,,-190,-190,-192.5,,,,,,,,
DQ,Ivan Ionov,67.5,M,B,Multi-ply,No,Open,1982-04-19,,67.1,,,,,,-140,-140,-140,,,,,,,,
DQ,Oleg Kesaev,75,M,B,Multi-ply,No,20-23,1987-09-04,,74.2,,,,,,-180,-180,-180,,,,,,,,
1,Igor Kuimov,75,M,B,Multi-ply,No,45-49,1962-07-28,,75,,,,,,175,207.5,-210,207.5,,,,,,,207.5
1,Igor' Peredrij,75,M,B,Multi-ply,No,Open,1977-07-16,,75,,,,,,185,195,205,205,,,,,,,205
2,JUrij Kachkovskij,75,M,B,Multi-ply,No,Open,1978-04-03,,75,,,,,,-190,190,-202.5,190,,,,,,,190
3,Konstantin Sapunkov,75,M,B,Multi-ply,No,Open,1981-09-02,,75,,,,,,-150,150,157.5,157.5,,,,,,,157.5
DQ,Maksim Volkov,75,M,B,Multi-ply,No,Open,1984-09-05,,74.4,,,,,,-192.5,-192.5,-192.5,,,,,,,,
1,Roman Koroglishvili,82.5,M,B,Multi-ply,No,18-19,1992-07-17,,81.2,,,,,,190,-196,196,196,-200.5,,,,,,196
1,Vasilij Semin,82.5,M,B,Multi-ply,No,20-23,1987-08-09,,80.5,,,,,,200,205,-212.5,205,,,,,,,205
2,Evgenij Kuchin,82.5,M,B,Multi-ply,No,20-23,1987-02-20,,82.5,,,,,,190,205,-212.5,205,,,,,,,205
1,Konstantin Dremenkov,82.5,M,B,Multi-ply,No,40-44,1966-07-21,,82.2,,,,,,-192.5,192.5,-200,192.5,,,,,,,192.5
1,Valerij Stojanov,82.5,M,B,Multi-ply,No,50-54,1957-11-25,,80.8,,,,,,125,135,-140,135,,,,,,,135
1,Anton Girnik,82.5,M,B,Multi-ply,No,Open,1978-09-15,,81.85,,,,,,205,-217.5,217.5,217.5,,,,,,,217.5
DQ,Georgij Jakimenkov,82.5,M,B,Multi-ply,No,Open,1984-01-13,,82.3,,,,,,-207.5,-207.5,-207.5,,,,,,,,
DQ,Jurij Korikov,82.5,M,B,Multi-ply,No,Open,1962-04-24,,82.5,,,,,,-195,-195,-195,,,,,,,,
1,Dmitrij Ogorodov,90,M,B,Multi-ply,No,18-19,1990-11-03,,88.1,,,,,,-170,-170,170,170,,,,,,,170
1,Maksim Stepanov,90,M,B,Multi-ply,No,20-23,1988-07-18,,88,,,,,,-150,150,-170,150,,,,,,,150
DQ,Andrej Zharenov,90,M,B,Multi-ply,No,20-23,1988-06-27,,89,,,,,,-260,-260,-260,,,,,,,,
1,Georgij Avdonin,90,M,B,Multi-ply,No,40-44,1969-09-10,,89,,,,,,200,-207.5,-207.5,200,,,,,,,200
2,Eduard Isakov,90,M,B,Multi-ply,No,40-44,1966-07-18,,88.1,,,,,,180,-190,-190,180,,,,,,,180
3,Artur Druzhinin,90,M,B,Multi-ply,No,40-44,1968-08-28,,89.6,,,,,,-170,-180,180,180,,,,,,,180
1,Jurij Petrjakov,90,M,B,Multi-ply,No,45-49,1964-02-23,,89.2,,,,,,210,220,230,230,,,,,,,230
1,Aleksandr Petrov,90,M,B,Multi-ply,No,50-54,1960-07-17,,90,,,,,,225,235,240.5,240.5,245,,,,,,240.5
1,Sergej Druzhkov,90,M,B,Multi-ply,No,60-64,1950-01-01,,87,,,,,,182.5,-200,,182.5,,,,,,,182.5
2,Evgenij Khudoleev,90,M,B,Multi-ply,No,60-64,1946-09-10,,89.4,,,,,,170,-180,-180,170,,,,,,,170
1,Evgenij Nechaev,90,M,B,Multi-ply,No,Open,1978-02-10,,90,,,,,,-300,300,-315,300,,,,,,,300
2,Aleksandr Petrov,90,M,B,Multi-ply,No,Open,1960-07-17,,90,,,,,,225,235,240.5,240.5,245,,,,,,240
3,JUrij Geras'kin,90,M,B,Multi-ply,No,Open,1971-11-21,,87,,,,,,230,-240,-240,230,,,,,,,230
4,Igor Kalita,90,M,B,Multi-ply,No,Open,1982-06-23,,88.8,,,,,,-220,220,-225,220,,,,,,,220
5,Vladimir Starchenko,90,M,B,Multi-ply,No,Open,1975-02-07,,89,,,,,,210,-217.5,-222.5,210,,,,,,,210
6,Eldar Mammadov,90,M,B,Multi-ply,No,Open,,1978,90,,,,,,180,190,195,195,,,,,,,195
DQ,Igor Kirichenko,90,M,B,Multi-ply,No,Open,1975-02-24,,88.3,,,,,,-235,,,,,,,,,,
DQ,Dmitrij Popov,90,M,B,Multi-ply,No,Open,1984-01-01,,90,,,,,,-205,,,,,,,,,,
DQ,Andrej Borsuk,90,M,B,Multi-ply,No,Open,1976-04-05,,90,,,,,,-202.5,-202.5,-202.5,,,,,,,,
1,Timur Emel'janov,100,M,B,Multi-ply,No,16-17,1993-05-07,,95.9,,,,,,175,-185,190,190,,,,,,,190
1,Aleksandr Panaskin,100,M,B,Multi-ply,No,18-19,1991-06-27,,96.6,,,,,,-100,,210,210,,,,,,,210
DQ,Roman Brekhov,100,M,B,Multi-ply,No,20-23,1990-02-24,,95.1,,,,,,-200,-200,-200,,,,,,,,
DQ,Dmitrij Krymskij,100,M,B,Multi-ply,No,20-23,1989-10-31,,98.3,,,,,,-240,-240,-240,,,,,,,,
1,Aleksej Sender,100,M,B,Multi-ply,No,40-44,1965-09-08,,98.4,,,,,,240,252.5,-260,252.5,,,,,,,252.5
1,Konstantin Lapshin,100,M,B,Multi-ply,No,45-49,1964-10-21,,99.5,,,,,,230,-240,-240,230,,,,,,,230
2,Dmitrij Chertushkin,100,M,B,Multi-ply,No,45-49,1965-08-15,,98.3,,,,,,190,200,-215,200,,,,,,,200
1,Damir Kuzeev,100,M,B,Multi-ply,No,55-59,1952-05-14,,91.8,,,,,,195,-205,-205,195,,,,,,,195
2,Anatolij Sholokhov,100,M,B,Multi-ply,No,55-59,1953-11-30,,92.7,,,,,,180,-200,,180,,,,,,,180
1,Aleksej Merkulov,100,M,B,Multi-ply,No,Open,1983-07-24,,95.6,,,,,,-280,285,-305,285,,,,,,,285
2,Mikhail Schegol'kov,100,M,B,Multi-ply,No,Open,1972-04-17,,93.8,,,,,,240,250,255,255,,,,,,,255
3,Kirill Cherepenkin,100,M,B,Multi-ply,No,Open,,,96.3,,,,,,-230,230,240,240,,,,,,,240
4,Maksim Avtukhov,100,M,B,Multi-ply,No,Open,1990-09-22,,98.5,,,,,,-190,190,-200,190,,,,,,,190
DQ,Aleksandr Tarakin,100,M,B,Multi-ply,No,Open,1986-02-10,,99.7,,,,,,-190,-190,-190,,,,,,,,
1,Denis Knjazev,110,M,B,Multi-ply,No,20-23,1987-09-11,,109.4,,,,,,-285,285,300,300,,,,,,,300
1,Oleg Orekhov,110,M,B,Multi-ply,No,40-44,1965-05-07,,104.1,,,,,,-220,220,-230,220,,,,,,,220
DQ,Vladimir Tolmachev,110,M,B,Multi-ply,No,40-44,1965-11-14,,102.8,,,,,,-165,-170,-170,,,,,,,,
1,Ruslan Akhmetov,110,M,B,Multi-ply,No,50-54,1960-04-11,,107.55,,,,,,150,-175,180,180,,,,,,,180
1,Pavel Laptenok,110,M,B,Multi-ply,No,55-59,1953-01-26,,100.2,,,,,,155,-170,175,175,,,,,,,175
1,Denis Knjazev,110,M,B,Multi-ply,No,Open,1987-09-11,,109.4,,,,,,-285,285,300,300,,,,,,,300
2,Andrej Likhman,110,M,B,Multi-ply,No,Open,1977-05-01,,108.7,,,,,,270,280,-300,280,,,,,,,280
3,Jaroslav Golubev,110,M,B,Multi-ply,No,Open,1980-02-02,,108.3,,,,,,250,260,-280,260,,,,,,,260
4,Sergej Baranovskij,110,M,B,Multi-ply,No,Open,1986-04-02,,107.5,,,,,,210,220,-225,220,,,,,,,220
5,Rafail Dzhamalutdinov,110,M,B,Multi-ply,No,Open,1985-10-26,,107.3,,,,,,202.5,-210,-210,202.5,,,,,,,202.5
DQ,Viktor Fursov,110,M,B,Multi-ply,No,Open,1974-05-09,,105.7,,,,,,-235,-240,-240,,,,,,,,
1,Viktor Najdenov,125,M,B,Multi-ply,No,20-23,1987-01-25,,115.2,,,,,,345,355,366,366,,,,,,,366
2,Andrej Zverev,125,M,B,Multi-ply,No,20-23,1987-12-10,,122.4,,,,,,260,280,-290,280,,,,,,,280
1,Oleg Zajtsev,125,M,B,Multi-ply,No,40-44,1969-04-19,,118.4,,,,,,190,202.5,210,210,,,,,,,210
1,Evgenij Arapov,125,M,B,Multi-ply,No,45-49,1963-05-19,,115.1,,,,,,255,265,275,275,,,,,,,275
2,Aleksandr Erozidi,125,M,B,Multi-ply,No,45-49,1965-04-29,,122.5,,,,,,250,-260,-260,250,,,,,,,250
1,Viktor Najdenov,125,M,B,Multi-ply,No,Open,1987-01-25,,115.2,,,,,,345,355,366,366,,,,,,,366
2,Sergej Molchanov,125,M,B,Multi-ply,No,Open,1973-03-15,,117.1,,,,,,-315,315,325,325,,,,,,,325
3,Viktor Klimov,125,M,B,Multi-ply,No,Open,1975-03-10,,115.9,,,,,,-300,300,-315,300,,,,,,,300
4,Timur Andreev,125,M,B,Multi-ply,No,Open,1983-07-17,,114.3,,,,,,280,-300,-300,280,,,,,,,280
5,Andrej Zverev,125,M,B,Multi-ply,No,Open,1987-12-10,,122.4,,,,,,260,280,-290,280,,,,,,,280
6,Sergej Sevost'janov,125,M,B,Multi-ply,No,Open,1973-07-31,,122.1,,,,,,220,232.5,-240,232.5,,,,,,,232.5
1,Viktor Kozlov,140,M,B,Multi-ply,No,45-49,1963-03-23,,125.3,,,,,,215,222.5,225,225,,,,,,,225
1,Vladimir Shmyrin,140,M,B,Multi-ply,No,Open,1984-05-13,,126.3,,,,,,-230,230,-240,230,,,,,,,230
1,Oleg Kozyrev,140+,M,B,Multi-ply,No,Open,1975-03-01,,196.1,,,,,,260,270,,270,,,,,,,270
DQ,Sergej Novikov,140+,M,B,Multi-ply,No,Open,1977-01-28,,143,,,,,,-260,-260,-260,,,,,,,,
