Place,Sex,Name,Event,Division,WeightClassKg,Equipment,BodyweightKg,Best3SquatKg,Best3BenchKg,Best3DeadliftKg,TotalKg,BirthYear
1,M,Jeff Douglas,BD,MR-Jr,75,Raw,73.6,,122.5,185,307.5,1963
1,M,Tyler Brockner,B,MR-O,100,Raw,94.3,,117.5,,117.5,
1,M,Steve Petrencak,B,MR-M1b,67.5,Raw,66.8,,137.5,,137.5,1968
1,M,Jason Ross,B,MR-M1b,82.5,Raw,82.3,,155,,155,1969
1,M,Gary Reale,B,MR-M3a,75,Raw,74.1,,95,,95,1953
1,F,Brianna Baker,B,FR-T2,52,Raw,51.2,,55.5,,55.5,1998
DD,M,Denny Yanoscik,SBD,MR-M4a,100,Raw,93.8,60,60,60,,
1,M,Drew Dyson,SBD,MR-T1,60,Raw,58.7,72.5,60,117.5,250,2000
1,M,Justin Mayberry,SBD,MR-T3,60,Raw,60,102.5,70,160,332.5,1995
1,M,Alex McQuillen,SBD,MR-T3,67.5,Raw,66.8,157.5,105,192.5,455,1995
2,M,Tony Mathews,SBD,MR-T3,75,Raw,74.1,192.5,122.5,202.5,517.5,1995
1,M,Pete Fischer,SBD,MR-T3,82.5,Raw,79.8,185,122.5,242.5,550,1995
1,M,Austin Ramsey,SBD,MR-T3,100,Raw,99,230,135,237.5,602.5,1996
1,M,Avery Clark,SBD,M-T2,67.5,Single-ply,66.4,132.5,102.5,200,435,2000
1,M,Binh Nguyen,SBD,MR-Jr,60,Raw,59.3,120,80,100,300,1993
1,M,Graham Coghlan,SBD,MR-Jr,75,Raw,73.8,175,110,212.5,497.5,1994
1,M,Matthew Guzik,SBD,MR-Jr,82.5,Raw,79.8,222.5,135,257.5,615,1992
2,M,Keith Schneider,SBD,MR-Jr,82.5,Raw,76.5,185,120,250,555,1992
1,M,Dan Artmayer,SBD,MR-Jr,90,Raw,89.7,230,152.5,265,647.5,1993
2,M,Sean Moser,SBD,MR-Jr,90,Raw,88.5,200,165,260,625,1993
3,M,Shawn Stickely,SBD,MR-Jr,90,Raw,87,215,122.5,235,572.5,
3,M,Jeremy Diamond,SBD,MR-Jr,90,Raw,82.8,175,125,212.5,512.5,
5,M,Logan Awwiller,SBD,MR-Jr,90,Raw,86.4,167.5,120,202.5,490,1992
1,M,Dean McFarlin,SBD,MR-Jr,100,Raw,97.2,197.5,122.5,215,535,1991
2,M,Joseph Fazio,SBD,MR-Jr,100,Raw,96.2,167.5,150,212.5,530,1991
4,M,Abe Chevlin,SBD,MR-Jr,100,Raw,91.2,177.5,117.5,217.5,512.5,
1,M,Tyler Cook,SBD,MR-Jr,110,Raw,107.1,232.5,167.5,285,685,1991
2,M,Ron Brinker,SBD,MR-O,60,Raw,59.8,145,75,150,370,1975
1,M,Kevin Bombik,SBD,MR-O,67.5,Raw,66,180,115,217.5,512.5,1985
5,M,Billy Luther,SBD,MR-O,75,Raw,74.4,192.5,132.5,227.5,552.5,1991
1,M,Zeesha Braslawscce,SBD,MR-O,75,Raw,73.1,177.5,112.5,190,480,
7,M,Evan Byrne,SBD,MR-O,75,Raw,74.1,177.5,112.5,182.5,472.5,1990
8,M,Travis Harold,SBD,MR-O,75,Raw,74.1,160,115,192.5,467.5,1989
10,M,Boomer Pearsall,SBD,MR-O,75,Raw,74.1,152.5,97.5,180,430,
1,M,Jeff Hanselman,SBD,MR-O,82.5,Raw,81.3,240,147.5,290,677.5,1989
2,M,Lloyd Summers,SBD,MR-O,82.5,Raw,81.7,235,175,265,675,
3,M,Eric May,SBD,MR-O,82.5,Raw,80.2,222.5,127.5,270,620,1989
4,M,Joe Candito,SBD,MR-O,82.5,Raw,80.8,195,147.5,235,577.5,1989
6,M,Korey Kunze,SBD,MR-O,82.5,Raw,81,170,105,200,475,1985
9,M,Gabriel Landis,SBD,MR-O,82.5,Raw,81,147.5,100,207.5,455,1986
1,M,Kris Hunt,SBD,MR-O,90,Raw,89.9,282.5,155,295,732.5,1982
2,M,Ryan Patrick,SBD,MR-O,90,Raw,89.3,187.5,137.5,265,590,1985
1,M,Jake Monroe,SBD,MR-O,100,Raw,98.5,230,142.5,272.5,645,1988
2,M,Ben Weddle,SBD,MR-O,100,Raw,97.3,205,142.5,227.5,575,1984
3,M,Anthony Seamans,SBD,MR-O,100,Raw,99.1,192.5,115,210,517.5,1988
3,M,Gary Castor,SBD,MR-O,100,Raw,91.2,142.5,92.5,167.5,402.5,1976
1,M,Dave Stallard,SBD,MR-O,110,Raw,107.3,250,155,250,655,
2,M,Vincent Cifani,SBD,MR-O,110,Raw,105.4,232.5,137.5,250,620,1984
4,M,Bill Rogner,SBD,MR-O,110,Raw,100.8,115,92.5,155,362.5,
2,M,Ben Parks,SBD,MR-O,125,Raw,121.1,260,145,272.5,677.5,1982
1,M,Ryan Risner,SBD,MR-O,125+,Raw,136.5,260,202.5,272.5,735,1983
3,M,Jason Tiemeier,SBD,MR-O,125+,Raw,138.7,235,147.5,262.5,645,1990
1,M,Chip Beck,SBD,MR-M1a,125,Raw,117.6,232.5,172.5,257.5,662.5,1972
1,M,Ken Bray,SBD,MR-M1b,82.5,Raw,80.2,205,125,262.5,592.5,1969
1,M,Tom Mazzotta,SBD,MR-M1b,90,Raw,87.3,160,102.5,202.5,465,
1,M,Vic Fazio,SBD,MR-M1b,100,Raw,97.6,232.5,125,250,607.5,1962
1,M,Phil Drenik,SBD,M-M2b,60,Single-ply,59.4,167.5,85,190,442.5,1956
1,M,Bradford Olson,SBD,MR-M2a,67.5,Raw,67.2,170,125,205,500,
1,M,Phillip San Miguel,SBD,MR-M2a,90,Raw,88.1,125,110,150,385,
1,M,Dave Schneider,SBD,MR-M2b,100,Raw,97,220,122.5,265,607.5,1956
1,M,Blake Panik,SBD,MR-Y2,67.5,Raw,62.8,105,70,170,345,2001
2,M,Joshua Novak,SBD,MR-Y2,67.5,Raw,65.4,75,65,135,275,2001
1,F,Allie Perry,SBD,FR-T1,90,Raw,89,82.5,45,100,227.5,2000
1,F,Jennica Baldridge,SBD,FR-T2,60,Raw,58.2,92.5,60,125,277.5,1998
1,F,Shelby Miles,SBD,FR-T2,75,Raw,69.8,117.5,72.5,140,330,1998
1,F,Mia Cano,SBD,FR-T3,60,Raw,59.9,115,60,145,320,1996
1,F,Erin McArdle,SBD,FR-Jr,60,Raw,57.3,117.5,75,135,327.5,1991
2,F,Alexis Blackwell,SBD,FR-Jr,60,Raw,57.7,70,37.5,110,217.5,1994
1,F,Tina Torbati,SBD,FR-Jr,67.5,Raw,64.9,95,52.5,132.5,280,1992
2,F,Chelsea Neeley,SBD,FR-Jr,67.5,Raw,67.4,87.5,55,107.5,250,1992
3,F,Cassandra Prenger,SBD,FR-Jr,67.5,Raw,64,85,50,87.5,222.5,
1,F,Casey Macek,SBD,FR-Jr,90+,Raw,95,85,52.5,117.5,255,1991
1,F,Missy Hunt,SBD,FR-O,56,Raw,54.8,107.5,62.5,135,305,
1,F,Amanda Shay,SBD,FR-O,60,Raw,59.2,110,70,165,345,1990
1,F,Ella Diller,SBD,FR-O,67.5,Raw,66.5,112.5,70,132.5,315,1990
2,F,Carrye Stallard,SBD,FR-O,67.5,Raw,64.7,100,65,115,280,1978
2,F,Alexandra Donald,SBD,FR-O,75,Raw,74.1,122.5,85,165,372.5,1990
3,F,Karina Baymiller,SBD,FR-O,75,Raw,73.3,140,70,145,355,1988
5,F,Suzanne Whitt,SBD,FR-O,75,Raw,74.1,105,55,137.5,297.5,
1,F,Kim Price,SBD,FR-O,82.5,Raw,80,150,75,187.5,412.5,1983
6,F,Qudsiah Khan,SBD,FR-O,82.5,Raw,77.9,102.5,57.5,132.5,292.5,1982
4,F,Roberta Castor,SBD,FR-O,90,Raw,83.5,120,70,147.5,337.5,1982
1,F,Mona Mezaros,SBD,FR-O,90,Raw,88.2,60,40,95,195,
1,F,Sandra San Miguel,SBD,FR-M1b,60,Raw,57.8,65,40,95,200,
1,F,Jerriann Doll,SBD,FR-M1b,90+,Raw,98.8,112.5,90,150,352.5,1968
1,F,Tracy Power,SBD,FR-M2a,75,Raw,72.8,100,52.5,97.5,250,1961
1,F,Helen Northcott,SBD,FR-M2b,90,Raw,84.8,85,45,97.5,227.5,1959
1,F,Janet Sharp,SBD,FR-M3a,67.5,Raw,66.6,75,42.5,115,232.5,1953
1,F,Jan Koenig,SBD,FR-M3a,90+,Raw,104.7,90,70,150,310,
1,M,Graham Coghlan,BD,MR-Jr,75,Raw,73.8,,110,212.5,322.5,1994
1,M,Keith Schneider,BD,MR-Jr,82.5,Raw,76.5,,120,250,370,1992
1,M,Sean Moser,BD,MR-Jr,90,Raw,88.5,,165,260,425,1993
2,M,Shawn Stickely,BD,MR-Jr,90,Raw,87,,122.5,235,357.5,
2,M,Jeremy Diamond,BD,MR-Jr,90,Raw,82.8,,125,212.5,337.5,
1,M,Tyler Cook,BD,MR-Jr,110,Raw,107.1,,167.5,285,452.5,1991
2,M,Billy Luther,BD,MR-O,75,Raw,74.4,,132.5,227.5,360,1991
1,M,Lloyd Summers,BD,MR-O,82.5,Raw,81.7,,175,265,440,
1,M,Joe Wharton,BD,MR-O,100,Raw,99,,150,245,395,1988
1,M,Derrick Young,BD,MR-O,110,Raw,107,,195,282.5,477.5,1990
1,M,Paul Felder,BD,MR-O,125,Raw,121.6,,172.5,270,442.5,1983
1,M,Steve Petrencak,BD,MR-M1b,67.5,Raw,66.8,,137.5,167.5,305,1968
1,M,Ralph Young,BD,MR-M2a,90,Raw,88.1,,182.5,245,427.5,1963
1,M,Dave Schneider,BD,MR-M2b,100,Raw,97,,122.5,265,387.5,1956
1,M,Blake Panik,BD,MR-Y2,67.5,Raw,62.8,,70,170,240,2001
1,M,Gary Reale,BD,MR-M3a,75,Raw,74.1,,95,117.5,212.5,1953
1,F,Erin McArdle,BD,FR-Jr,60,Raw,57.3,,75,135,210,1991
1,F,Helen Daher,BD,FR-O,52,Raw,50.8,,67.5,122.5,190,1989
1,F,Jackie Kendziorski,BD,FR-O,56,Raw,53.5,,50,110,160,1982
1,F,Amanda Shay,BD,FR-O,60,Raw,59.2,,70,165,235,1990
2,F,Alexandra Donald,BD,FR-O,75,Raw,74.1,,85,165,250,1990
3,F,Karina Baymiller,BD,FR-O,75,Raw,73.3,,70,145,215,1988
1,F,Kim Price,BD,FR-O,82.5,Raw,80,,75,187.5,262.5,1983
1,F,Jerriann Doll,BD,FR-M1b,90+,Raw,98.8,,90,150,240,1968
2,F,Suzanne Wilcox,BD,FR-M1b,90+,Raw,113.1,,30,90,120,1965
1,F,Peggy Beno,BD,FR-M2b,52,Raw,50.9,,42.5,87.5,130,1959
1,F,Jan Koenig,BD,FR-M3a,90+,Raw,104.7,,70,150,220,
1,F,Tonnie Alliance,BD,FR-M3b,67.5,Raw,65.3,,42.5,105,147.5,1945
