Division,WeightClassKg,Place,Name,Team,BodyweightKg,Best3SquatKg,Best3BenchKg,Best3DeadliftKg,TotalKg,Equipment,Event,Sex
Boys,51.71,1,Ethan Stack,Scurry-Rosser,48.81,99.79,61.23,122.47,283.5,Single-ply,SBD,M
Boys,51.71,2,Diego Rivera,Mexia,47.45,111.13,61.23,108.86,281.23,Single-ply,SBD,M
Boys,51.71,3,Corbin Donoho,Corsicana Mildred,50.71,90.72,47.63,106.59,244.94,Single-ply,SBD,M
Boys,51.71,4,Chad Collup,Scurry-Rosser,49.26,72.57,34.02,97.52,204.12,Single-ply,SBD,M
Boys,51.71,NS,Tristen Ussery,Blooming Grove,,,,,,Single-ply,SBD,M
Boys,55.79,1,Brodie Cantu,Dawson,52.98,113.4,74.84,122.47,310.71,Single-ply,SBD,M
Boys,55.79,2,Chase Kirby,Dawson,55.79,111.13,68.04,120.2,299.37,Single-ply,SBD,M
Boys,55.79,3,Charlie Ivey,Malakoff,54.16,95.25,61.23,102.06,258.55,Single-ply,SBD,M
Boys,55.79,4,Alec Bailey,Mexia,53.52,136.08,,117.93,254.01,Single-ply,SD,M
Boys,55.79,NS,David Dilbeck,Blooming Grove,,,,,,Single-ply,SD,M
Boys,59.87,DQ,Cody McQueen,Fairfield,55.97,,,,,Single-ply,SD,M
Boys,59.87,1,Cameron Yates,Scurry-Rosser,58.06,142.88,79.38,158.76,381.02,Single-ply,SBD,M
Boys,59.87,2,Tylor Chandler,Scurry-Rosser,57.06,108.86,70.31,167.83,347,Single-ply,SBD,M
Boys,59.87,3,Jonathan Hernandez,Malakoff,57.79,129.27,70.31,131.54,331.12,Single-ply,SBD,M
Boys,59.87,4,Ulises Ramirez,Fairfield,59.78,136.08,58.97,129.27,324.32,Single-ply,SBD,M
Boys,67.13,5,Jose Rodriguez,Fairfield,60.06,124.74,58.97,138.35,322.05,Single-ply,SBD,M
Boys,59.87,6,Bryce Ivey,Malakoff,58.24,122.47,58.97,138.35,319.78,Single-ply,SBD,M
Boys,59.87,7,Jacoby Fortson,Groesbeck,57.06,99.79,74.84,113.4,288.03,Single-ply,SBD,M
Boys,59.87,8,Joseph Stegall,Malakoff,59.87,102.06,52.16,108.86,263.08,Single-ply,SBD,M
Boys,67.13,1,Devin Eggins,Fairfield,65.77,176.9,99.79,181.44,458.13,Single-ply,SBD,M
Boys,67.13,2,Jt Jones,Teague,66.22,167.83,86.18,172.37,426.38,Single-ply,SBD,M
Boys,67.13,3,Maverick Jewell,Teague,66.77,170.1,74.84,181.44,426.38,Single-ply,SBD,M
Boys,74.84,4,Brant Hamilton,Malakoff,67.36,154.22,90.72,181.44,426.38,Single-ply,SBD,M
Boys,67.13,5,Ian Norwood,Dawson,64.68,129.27,77.11,156.49,362.87,Single-ply,SBD,M
Boys,67.13,6,Shawn Caudle,Rice,62.05,117.93,88.45,154.22,360.61,Single-ply,SBD,M
Boys,67.13,7,Colton Haven,Corsicana Mildred,65.23,129.27,74.84,133.81,337.93,Single-ply,SBD,M
Boys,67.13,8,Nick Snodgrass,Blooming Grove,67.13,115.67,52.16,170.1,337.93,Single-ply,SBD,M
Boys,67.13,9,Hunter Noms,Eustace,65.14,106.59,70.31,154.22,331.12,Single-ply,SBD,M
Boys,67.13,10,Will Ferlet,Dawson,65.86,108.86,77.11,131.54,317.51,Single-ply,SBD,M
Boys,67.13,11,Elder Arrellano,Rice,60.69,106.59,61.23,129.27,297.1,Single-ply,SBD,M
Boys,67.13,12,Garrett Daniels,Grand Saline,62.87,113.4,63.5,111.13,288.03,Single-ply,SBD,M
Boys,67.13,13,Garridan Henderson,Fairfield,66.86,92.99,61.23,129.27,283.5,Single-ply,SBD,M
Boys,67.13,14,Marcos Gonzalez,Mexia,62.6,102.06,68.04,106.59,276.69,Single-ply,SBD,M
Boys,67.13,15,James Minfree,Corsicana Mildred,66.86,,102.06,161.03,263.08,Single-ply,BD,M
Boys,67.13,16,Traetin Turrubiarte,Groesbeck,60.42,90.72,61.23,102.06,254.01,Single-ply,SBD,M
Boys,67.13,17,Zach Neves,Teague,65.5,108.86,,,108.86,Single-ply,S,M
Boys,67.13,DQ,Tyrec Grayson,Tyler Lee,63.32,,,,,Single-ply,S,M
Boys,67.13,NS,Jeremy Humphries,Corsicana Mildred,,,,,,Single-ply,S,M
Boys,67.13,DQ,Kyler Bonner,Fairfield,65.14,,,,,Single-ply,S,M
Boys,67.13,DQ,Jacob Hamilton,Fairfield,61.23,,,,,Single-ply,S,M
Boys,74.84,1,Justin Griffin,Eustace,73.03,195.04,106.59,183.7,485.34,Single-ply,SBD,M
Boys,74.84,2,Darius Dorsey,Mexia,73.21,176.9,115.67,185.97,478.54,Single-ply,SBD,M
Boys,74.84,3,Jacob McLean,Scurry-Rosser,70.03,183.7,102.06,185.97,471.74,Single-ply,SBD,M
Boys,74.84,4,Cameron Holmes,Tyler Lee,74.12,174.63,92.99,199.58,467.2,Single-ply,SBD,M
Boys,74.84,5,Dylan Grimm,Malakoff,73.66,170.1,113.4,181.44,464.93,Single-ply,SBD,M
Boys,74.84,6,Quinten Parks,Eustace,73.57,179.17,92.99,183.7,455.86,Single-ply,SBD,M
Boys,74.84,7,Daniel Camarillo,Blooming Grove,69.49,145.15,106.59,172.37,424.11,Single-ply,SBD,M
Boys,74.84,8,Nick Mooneyham,Fairfield,71.94,136.08,83.91,170.1,390.09,Single-ply,SBD,M
Boys,74.84,9,Billy Humphries,Corsicana Mildred,74.03,142.88,90.72,142.88,376.48,Single-ply,SBD,M
Boys,74.84,10,Jonathan Shed,Fairfield,74.3,142.88,77.11,151.95,371.95,Single-ply,SBD,M
Boys,74.84,11,Sergio Rodriguez #3,Fairfield,74.39,122.47,79.38,129.27,331.12,Single-ply,SBD,M
Boys,74.84,12,Brian Griffin,Scurry-Rosser,69.4,113.4,63.5,140.61,317.51,Single-ply,SBD,M
Boys,74.84,13,Karim Caro,Fairfield,74.39,124.74,68.04,124.74,317.51,Single-ply,SBD,M
Boys,74.84,14,Brendan Roark,Groesbeck,72.85,111.13,61.23,127.01,299.37,Single-ply,SBD,M
Boys,74.84,15,Noah Handsome,Teague,72.39,108.86,,142.88,251.74,Single-ply,SD,M
Boys,74.84,16,Kyle Kelly,Scurry-Rosser,71.76,79.38,38.56,102.06,219.99,Single-ply,SBD,M
Boys,74.84,NS,Dustin Thompson,Corsicana Mildred,,,,,,Single-ply,SBD,M
Boys,74.84,NS,Jed Wout,Blooming Grove,,,,,,Single-ply,SBD,M
Boys,82.1,1,Alberto Carrillo,Mexia,79.83,229.06,142.88,215.46,587.4,Single-ply,SBD,M
Boys,82.1,2,Walker Allen,China Spring,79.56,185.97,136.08,181.44,503.49,Single-ply,SBD,M
Boys,82.1,3,Chris Jump,Malakoff,80.38,158.76,113.4,174.63,446.79,Single-ply,SBD,M
Boys,82.1,4,Cole Bartlett,Fairfield,80.47,170.1,102.06,170.1,442.25,Single-ply,SBD,M
Boys,82.1,5,Michael Dorsey,Tyler Lee,81.92,170.1,86.18,183.7,439.98,Single-ply,SBD,M
Boys,82.1,6,Derek Mayhugh,Grand Saline,,163.29,86.18,142.88,392.36,Single-ply,SBD,M
Boys,82.1,7,Dusty Roberts,Groesbeck,78.83,136.08,68.04,140.61,344.73,Single-ply,SBD,M
Boys,82.1,8,Owen Awalt,Fairfield,76.48,136.08,63.5,127.01,326.59,Single-ply,SBD,M
Boys,82.1,9,AJ Harris,Rice,79.47,108.86,65.77,145.15,319.78,Single-ply,SBD,M
Boys,82.1,10,Juan Quezada,Fairfield,76.2,113.4,72.57,113.4,299.37,Single-ply,SBD,M
Boys,82.1,11,Slayden Morgan,Teague,76.93,,,165.56,165.56,Single-ply,D,M
Boys,82.1,NS,Chris Athchley,Rice,,,,,,Single-ply,D,M
Boys,82.1,NS,Cash Nations,Grand Saline,,,,,,Single-ply,D,M
Boys,82.1,NS,Justin Simmons,Grand Saline,,,,,,Single-ply,D,M
Boys,89.81,1,Koltan Hampton,China Spring,84.37,181.44,129.27,185.97,496.68,Single-ply,SBD,M
Boys,89.81,2,William Coates,Tyler Lee,88.81,158.76,106.59,199.58,464.93,Single-ply,SBD,M
Boys,89.81,3,Jesse Landess,Scurry-Rosser,85.73,161.03,115.67,185.97,462.66,Single-ply,SBD,M
Boys,89.81,4,Wally Shrout,Malakoff,83.64,170.1,108.86,161.03,439.98,Single-ply,SBD,M
Boys,89.81,5,Michael Roch,Eustace,85,147.42,102.06,183.7,433.18,Single-ply,SBD,M
Boys,89.81,6,Juan Garcia,Eustace,84.28,156.49,81.65,188.24,426.38,Single-ply,SBD,M
Boys,89.81,7,Myles McGruder,Groesbeck,82.92,167.83,81.65,172.37,421.84,Single-ply,SBD,M
Boys,89.81,8,Darius Oliver,Mexia,83.1,147.42,86.18,181.44,415.04,Single-ply,SBD,M
Boys,89.81,9,Hayden Roberts,Teague,83.28,158.76,86.18,170.1,415.04,Single-ply,SBD,M
Boys,89.81,10,Tucker Davis,Fairfield,88,165.56,88.45,145.15,399.16,Single-ply,SBD,M
Boys,89.81,11,James Brown,China Spring,88.9,,113.4,167.83,281.23,Single-ply,BD,M
Boys,89.81,12,Blake Nesmith,Dawson,88.18,102.06,49.9,120.2,272.16,Single-ply,SBD,M
Boys,89.81,NS,Johnny Bustamante,Blooming Grove,,,,,,Single-ply,SBD,M
Boys,89.81,DQ,Matt Mooneyham,Fairfield,89.45,,,,,Single-ply,SBD,M
Boys,89.81,NS,Brandon Brazier,Rice,,,,,,Single-ply,SBD,M
Boys,99.79,1,Taylor Hull,China Spring,97.61,254.01,154.22,217.72,625.96,Single-ply,SBD,M
Boys,99.79,2,Keanu Fathal,Corsicana Mildred,92.26,210.92,136.08,204.12,551.11,Single-ply,SBD,M
Boys,99.79,3,Jacob Gomez,Teague,98.25,195.04,124.74,204.12,523.9,Single-ply,SBD,M
Boys,99.79,4,Parker Musselwhite,Tyler Lee,91.53,192.78,102.06,201.85,496.68,Single-ply,SBD,M
Boys,99.79,5,Yamin Colis,Tyler Lee,,192.78,104.33,192.78,489.88,Single-ply,SBD,M
Boys,99.79,6,Ricky Zamora,Corsicana Mildred,97.43,190.51,113.4,181.44,485.34,Single-ply,SBD,M
Boys,99.79,7,Rodrigo Morales,Teague,94.17,181.44,97.52,192.78,471.74,Single-ply,SBD,M
Boys,99.79,8,Aaron Pfleeger,Fairfield,95.53,197.31,97.52,170.1,464.93,Single-ply,SBD,M
Boys,99.79,9,Rahi Patel,Mexia,93.08,170.1,111.13,181.44,462.66,Single-ply,SBD,M
Boys,99.79,10,Peyton Lowrie,Malakoff,97.61,176.9,113.4,170.1,460.4,Single-ply,SBD,M
Boys,99.79,11,Zach Cobb,China Spring,96.25,158.76,136.08,158.76,453.59,Single-ply,SBD,M
Boys,99.79,12,Jax Donohoo,Fairfield,95.71,158.76,83.91,181.44,424.11,Single-ply,SBD,M
Boys,99.79,13,Josh Wiggins,Blooming Grove,97.43,136.08,102.06,176.9,415.04,Single-ply,SBD,M
Boys,99.79,14,Justin Horn #1,Corsicana Mildred,90.36,147.42,90.72,170.1,408.23,Single-ply,SBD,M
Boys,99.79,15,Ryan Hardin,Groesbeck,98.34,127.01,68.04,140.61,335.66,Single-ply,SBD,M
Boys,99.79,NS,Xavier Cole,Blooming Grove,,,,,,Single-ply,SBD,M
Boys,109.77,1,Quavious Gamble,Mexia,105.23,240.4,149.69,235.87,625.96,Single-ply,SBD,M
Boys,109.77,2,Jose Reyes,Mexia,109.77,244.94,136.08,226.8,607.81,Single-ply,SBD,M
Boys,109.77,3,Reagan Cloud,Corsicana Mildred,109.77,238.14,149.69,206.38,594.21,Single-ply,SBD,M
Boys,109.77,4,Jimmy Landess,Scurry-Rosser,109.77,188.24,111.13,226.8,526.17,Single-ply,SBD,M
Boys,109.77,5,Arkeil Winn,Mexia,102.51,204.12,115.67,204.12,523.9,Single-ply,SBD,M
Boys,109.77,6,Xavion Gardner,Tyler Lee,105.32,204.12,102.06,215.46,521.63,Single-ply,SBD,M
Boys,109.77,7,Nelson Ochoa,Malakoff,109.77,195.04,129.27,185.97,510.29,Single-ply,SBD,M
Boys,109.77,8,Sammy Palma,Grand Saline,101.15,183.7,113.4,204.12,501.22,Single-ply,SBD,M
Boys,109.77,9,Steven Field,China Spring,103.42,181.44,131.54,181.44,494.42,Single-ply,SBD,M
Boys,109.77,10,Roland Stevens,Grand Saline,109.13,199.58,102.06,176.9,478.54,Single-ply,SBD,M
Boys,109.77,11,Jeremy Wood,Fairfield,102.06,183.7,113.4,170.1,467.2,Single-ply,SBD,M
Boys,109.77,12,Zack Sanders,Malakoff,105.23,165.56,99.79,174.63,439.98,Single-ply,SBD,M
Boys,109.77,13,Chris Palmer,Scurry-Rosser,109.23,158.76,92.99,158.76,410.5,Single-ply,SBD,M
Boys,109.77,14,Cole Schick,Fairfield,101.6,170.1,102.06,133.81,405.97,Single-ply,SBD,M
Boys,109.77,15,Logan Begesse,China Spring,103.06,158.76,102.06,136.08,396.89,Single-ply,SBD,M
Boys,109.77,16,Spencer Lammons,Groesbeck,101.15,145.15,74.84,142.88,362.87,Single-ply,SBD,M
Boys,109.77,17,Rylan Wade,Dawson,102.15,115.67,72.57,131.54,319.78,Single-ply,SBD,M
Boys,109.77,NS,Timothy Collums,Corsicana Mildred,,,,,,Single-ply,SBD,M
Boys,109.77,NS,Josh Ross,Tyler Lee,,,,,,Single-ply,SBD,M
Boys,124.74,1,Ryan Mitchell,Teague,122.74,324.32,192.78,260.82,777.91,Single-ply,SBD,M
Boys,124.74,2,Leal Sample,Scurry-Rosser,112.13,242.67,167.83,249.48,659.98,Single-ply,SBD,M
Boys,124.74,3,John Samples,Tyler Lee,112.4,215.46,136.08,219.99,571.53,Single-ply,SBD,M
Boys,124.74,4,Chris Figueroa,Grand Saline,111.49,217.72,111.13,208.65,537.51,Single-ply,SBD,M
Boys,124.74,5,Colton Robinett,Groesbeck,115.94,204.12,127.01,204.12,535.24,Single-ply,SBD,M
Boys,124.74,6,Chris Oliver,China Spring,124.1,197.31,136.08,181.44,514.83,Single-ply,SBD,M
Boys,124.74,7,Ty Harris,China Spring,120.84,190.51,133.81,170.1,494.42,Single-ply,SBD,M
Boys,124.74,8,Clayton Breckel,Tyler Lee,118.21,181.44,113.4,192.78,487.61,Single-ply,SBD,M
Boys,124.74,9,Cameron Graham,Teague,123.38,165.56,90.72,158.76,415.04,Single-ply,SBD,M
Boys,124.74,10,Hayden Willoughby,Scurry-Rosser,111.58,154.22,88.45,167.83,410.5,Single-ply,SBD,M
Boys,124.74,11,Anthony Regino,Rice,111.49,106.59,99.79,151.95,358.34,Single-ply,SBD,M
Boys,124.74+,1,Noah Stebens,China Spring,131.09,217.72,145.15,192.78,555.65,Single-ply,SBD,M
Boys,124.74+,2,Demetri Freeman,Mexia,125.46,204.12,113.4,204.12,521.63,Single-ply,SBD,M
Boys,124.74+,3,Michael Williams,Dawson,167.01,199.58,124.74,192.78,517.1,Single-ply,SBD,M
Boys,124.74+,4,Hunter Haynes,Fairfield,127.01,226.8,92.99,192.78,512.56,Single-ply,SBD,M
Boys,124.74+,5,Jordan Jones,Tyler Lee,150.5,183.7,92.99,165.56,442.25,Single-ply,SBD,M
Boys,124.74+,6,Bailey Blackman,China Spring,134.54,,147.42,170.1,317.51,Single-ply,BD,M
