Name,WeightClassKg,Division,Sex,BodyweightKg,Best3SquatKg,Best3BenchKg,Best3DeadliftKg,TotalKg,Event,Equipment,Place,Age
Chuck Dunbar,56,Open,M,,235.87,142.88,188.24,566.99,SBD,Single-ply,1,
Randall Kea,60,Open,M,,222.26,142.88,215.46,580.6,SBD,Single-ply,1,
M. Simmons,60,Open,M,,188.24,127.01,224.53,539.78,SBD,Single-ply,2,
K. Goodman,60,Open,M,,174.63,97.52,136.08,408.23,SBD,Single-ply,3,
Rick Mills,67.5,Open,M,,242.67,131.54,219.99,594.21,SBD,Single-ply,1,
E. Head,67.5,Open,M,,215.46,120.2,219.99,555.65,SBD,Single-ply,2,
E. Turner,67.5,Open,M,,181.44,124.74,204.12,510.29,SBD,Single-ply,3,
R. Gattone,67.5,Open,M,,172.37,129.27,195.04,496.68,SBD,Single-ply,4,
Danny Thompson,75,Open,M,,251.74,154.22,240.4,646.37,SBD,Single-ply,1,
E. Byrd,75,Open,M,,213.19,156.49,256.28,625.96,SBD,Single-ply,2,
M. Berkowitz,75,Open,M,,195.04,142.88,222.26,560.19,SBD,Single-ply,3,
A. Morrison,75,Open,M,,208.65,147.42,204.12,560.19,SBD,Single-ply,4,
J. Amos,75,Open,M,,213.19,117.93,226.8,557.92,SBD,Single-ply,5,
J. Lazarus,75,Open,M,,,,,,SBD,Single-ply,DQ,
George Herring,82.5,Open,M,,317.52,183.71,288.03,789.25,SBD,Single-ply,1,
C. Leslie,82.5,Open,M,,249.48,158.76,258.55,666.78,SBD,Single-ply,2,
R. Heller,82.5,Open,M,,242.67,142.88,240.4,625.96,SBD,Single-ply,3,
Gary Hatfield,82.5,Open,M,,242.67,156.49,217.72,616.89,SBD,Single-ply,4,
J. Whitfield,82.5,Open,M,,217.72,133.81,226.8,578.33,SBD,Single-ply,5,
A. Walters,82.5,Open,M,,192.78,147.42,226.8,566.99,SBD,Single-ply,6,
M. Wright,82.5,Open,M,,215.46,108.86,229.06,553.38,SBD,Single-ply,7,
R. Stephens,82.5,Open,M,,,,,,SBD,Single-ply,DQ,
J. Nankevel,82.5,Open,M,,,,,,SBD,Single-ply,DQ,
Mike Jones #13,90,Open,M,,308.44,197.31,294.84,800.59,SBD,Single-ply,1,
L. Pinnell,90,Open,M,,258.55,192.78,263.08,714.41,SBD,Single-ply,2,
Steve Zimmerman,90,Open,M,89.81,260.82,142.88,260.82,664.51,SBD,Single-ply,3,
S. Williams,90,Open,M,,240.4,154.22,258.55,653.17,SBD,Single-ply,4,
W. Hibberts,90,Open,M,,215.46,147.42,256.28,619.15,SBD,Single-ply,5,
H. DeFrino,90,Open,M,,244.94,129.27,238.14,612.35,SBD,Single-ply,6,
K. Moates,90,Open,M,,226.8,156.49,226.8,610.08,SBD,Single-ply,7,
P. Mears,90,Open,M,,222.26,117.93,231.33,571.53,SBD,Single-ply,8,
M. Downey,90,Open,M,,213.19,124.74,229.06,566.99,SBD,Single-ply,9,
J. Sanders,90,Open,M,83.01,199.58,108.86,240.4,548.85,SBD,Single-ply,10,
Danny Moraetes,100,Open,M,,312.98,185.97,326.59,825.54,SBD,Single-ply,1,
Richard Potts,100,Open,M,,317.52,199.58,283.5,800.59,SBD,Single-ply,2,
D. Ferrence,100,Open,M,,285.76,176.9,272.16,734.82,SBD,Single-ply,3,
A. Wentworth,100,Open,M,,272.16,163.29,254.01,689.46,SBD,Single-ply,4,
B. Fanner,100,Open,M,,238.14,147.42,263.08,648.64,SBD,Single-ply,5,
R. Anderton,100,Open,M,,213.19,131.54,222.26,566.99,SBD,Single-ply,6,
J. Hubbard,100,Open,M,,204.12,145.15,215.46,564.72,SBD,Single-ply,7,
R. Partain,100,Open,M,,181.44,122.47,256.28,560.19,SBD,Single-ply,8,
F. Rizzo,100,Open,M,97.52,195.04,127.01,229.06,551.12,SBD,Single-ply,9,
B. Parker,100,Open,M,95.25,183.71,99.79,226.8,510.29,SBD,Single-ply,10,
Dennis Duncan,100,Open,M,,65.77,249.48,65.77,381.02,SBD,Single-ply,11,
David McCoy,110,Open,M,,294.84,249.48,276.69,821,SBD,Single-ply,1,
D. Decker,110,Open,M,,317.52,199.58,294.84,811.93,SBD,Single-ply,2,
D. Daniel,110,Open,M,,285.76,201.85,324.32,811.93,SBD,Single-ply,3,
D. Hammonds,110,Open,M,,265.35,210.92,285.76,762.04,SBD,Single-ply,4,
M. Overstreet,110,Open,M,,249.48,208.65,267.62,725.75,SBD,Single-ply,5,
D. Younginer,110,Open,M,,263.08,183.71,254.01,700.8,SBD,Single-ply,6,
M. Dodson,110,Open,M,,244.94,174.63,276.69,696.27,SBD,Single-ply,7,
S. Stathopoulos,110,Open,M,,251.74,156.49,274.42,682.66,SBD,Single-ply,8,
J. McClure,110,Open,M,,254.01,147.42,260.82,662.25,SBD,Single-ply,9,
Tom King,110,Open,M,,,,,,SBD,Single-ply,DQ,
Zack Carnes,110,Open,M,,,,,,SBD,Single-ply,DQ,
Hank Slack,125,Open,M,,299.37,188.24,288.03,775.64,SBD,Single-ply,1,
Jim Schulze,125,Open,M,,274.42,195.04,260.82,730.28,SBD,Single-ply,2,
R. English,125,Open,M,,272.16,172.37,249.48,694,SBD,Single-ply,3,
R. Layton,125,Open,M,113.4,242.67,174.63,231.33,648.64,SBD,Single-ply,4,
T. Pruitt,125,Open,M,,226.8,176.9,226.8,630.49,SBD,Single-ply,5,
B. Padgett,125,Open,M,110.22,226.8,154.22,229.06,610.08,SBD,Single-ply,6,
Julian Smith,125+,Open,M,,322.05,222.26,294.84,839.15,SBD,Single-ply,1,
Greg Crowe,125+,Open,M,,285.76,183.71,260.82,730.28,SBD,Single-ply,2,16
Steve Zimmerman,,Masters,M,89.81,260.82,142.88,260.82,664.51,SBD,Single-ply,1,
R. Layton,,Masters,M,113.4,242.67,174.63,231.33,648.64,SBD,Single-ply,2,
J. Sanders,,Masters,M,83.01,199.58,108.86,240.4,548.85,SBD,Single-ply,5,
L. Baker,,Masters,M,76.2,195.04,124.74,195.04,514.83,SBD,Single-ply,6,
B. Padgett,,Masters,M,110.22,226.8,154.22,229.06,610.08,SBD,Single-ply,3,
F. Rizzo,,Masters,M,97.52,195.04,127.01,229.06,551.12,SBD,Single-ply,4,
B. Parker,,Masters,M,95.25,183.71,99.79,226.8,510.29,SBD,Single-ply,8,
J. Williams,,Masters,M,109.32,199.58,111.13,204.12,514.83,SBD,Single-ply,7,
Norman Bailey,,Masters,M,102.06,113.4,154.22,192.78,460.4,SBD,Single-ply,9,
Darline Cato,,Open,F,59.42,129.27,61.24,176.9,367.41,SBD,Single-ply,1,
Darline Vaughn,,Open,F,53.98,117.93,70.31,145.15,333.39,SBD,Single-ply,2,
Debbie Spaeth,,Open,F,47.63,97.52,54.43,124.74,276.69,SBD,Single-ply,5,
B. Thompson,,Open,F,46.72,97.52,47.63,115.67,260.82,SBD,Single-ply,8,
Priscilla Wazni,,Open,F,51.71,106.59,40.82,129.27,276.69,SBD,Single-ply,6,
J. Williamson,,Open,F,55.79,95.25,63.5,127.01,285.76,SBD,Single-ply,3,
T. Hatfield,,Open,F,44,97.52,38.56,97.52,233.6,SBD,Single-ply,9,
B. Ledford,,Open,F,43.09,74.84,47.63,102.06,224.53,SBD,Single-ply,10,
A. Motter,,Open,F,63.05,99.79,45.36,124.74,269.89,SBD,Single-ply,7,
B. Dial,,Open,F,47.63,74.84,43.09,95.25,213.19,SBD,Single-ply,11,
N. Edwards,,Open,F,68.95,95.25,54.43,131.54,281.23,SBD,Single-ply,4,
